CODE,NAME,TOTAL_POP,Flu_OBS,Vom_OBS,Diarr_OBS,Gastro_OBS,lastdate,week
E09000002,Barking and Dagenham,133113,1,5,13,19,2020-07-05,27
E09000003,Barnet,208084,1,19,41,61,2020-07-05,27
E09000004,Bexley,21869,0,1,1,1,2020-07-05,27
E09000005,Brent,217598,1,22,41,51,2020-07-05,27
E09000006,Bromley,157993,0,7,16,28,2020-07-05,27
E09000007,Camden,175350,1,13,68,57,2020-07-05,27
E09000008,Croydon,210372,1,9,19,32,2020-07-05,27
E09000009,Ealing,35121,0,0,1,6,2020-07-05,27
E09000010,Enfield,169735,0,14,26,42,2020-07-05,27
E09000011,Greenwich,34392,0,5,10,11,2020-07-05,27
E09000012,Hackney (including City of London),143334,0,21,28,54,2020-07-05,27
E09000013,Hammersmith and Fulham,43531,0,0,1,1,2020-07-05,27
E09000014,Haringey,142365,0,10,13,24,2020-07-05,27
E09000015,Harrow,131851,0,9,17,33,2020-07-05,27
E09000016,Havering,126650,0,7,10,21,2020-07-05,27
E09000017,Hillingdon,131680,1,23,35,58,2020-07-05,27
E09000018,Hounslow,113670,0,1,1,8,2020-07-05,27
E09000019,Islington,103779,1,12,23,36,2020-07-05,27
E09000020,Kensington and Chelsea,28661,0,1,1,1,2020-07-05,27
E09000021,Kingston upon Thames,127986,1,10,28,44,2020-07-05,27
E09000022,Lambeth,149663,1,7,19,24,2020-07-05,27
E09000023,Lewisham,106844,1,11,24,41,2020-07-05,27
E09000024,Merton,89657,1,7,13,19,2020-07-05,27
E09000025,Newham,189412,1,15,23,54,2020-07-05,27
E09000026,Redbridge,138521,0,1,7,15,2020-07-05,27
E09000027,Richmond upon Thames,56317,0,5,13,12,2020-07-05,27
E09000028,Southwark,126137,0,10,13,24,2020-07-05,27
E09000029,Sutton,86141,0,6,12,19,2020-07-05,27
E09000030,Tower Hamlets,116297,1,30,32,69,2020-07-05,27
E09000031,Waltham Forest,126017,0,5,10,18,2020-07-05,27
E09000032,Wandsworth,177169,1,8,24,40,2020-07-05,27
E09000033,Westminster,2466,0,0,0,0,2020-07-05,27
E10000003,Cambridgeshire,217472,1,0,30,44,2020-07-05,27
E10000012,Essex,471528,1,17,60,85,2020-07-05,27
E10000020,Norfolk,262743,1,6,80,53,2020-07-05,27
E06000031,Peterborough,129577,0,10,16,25,2020-07-05,27
E06000033,Southend-on-Sea,2733,0,0,0,0,2020-07-05,27
E10000029,Suffolk,169220,1,5,28,29,2020-07-05,27
E06000034,Thurrock,71302,1,6,1,11,2020-07-05,27
E06000055,Bedford,36943,0,1,1,9,2020-07-05,27
E06000056,Central Bedfordshire,126725,0,1,20,37,2020-07-05,27
E10000015,Hertfordshire,442426,1,24,66,98,2020-07-05,27
E06000032,Luton,94707,0,6,12,18,2020-07-05,27
E06000042,Milton Keynes,271995,1,7,26,40,2020-07-05,27
E06000015,Derby,64542,0,1,11,26,2020-07-05,27
E10000007,Derbyshire,149500,1,12,38,64,2020-07-05,27
E06000016,Leicester,183108,0,9,10,43,2020-07-05,27
E10000018,Leicestershire (including Rutland),208213,0,9,28,43,2020-07-05,27
E10000019,Lincolnshire,182467,1,6,28,34,2020-07-05,27
E06000018,Nottingham,105546,0,12,24,40,2020-07-05,27
E10000024,Nottinghamshire,175480,0,1,24,31,2020-07-05,27
E10000021,Northamptonshire,258516,1,16,40,67,2020-07-05,27
E08000025,Birmingham,443471,1,34,68,116,2020-07-05,27
E08000026,Coventry,173139,0,11,34,45,2020-07-05,27
E08000027,Dudley,106785,1,20,22,43,2020-07-05,27
E06000019,"Herefordshire, County of",81186,0,15,39,49,2020-07-05,27
E08000028,Sandwell,101045,0,1,7,16,2020-07-05,27
E06000051,Shropshire,91686,0,11,28,34,2020-07-05,27
E08000029,Solihull,100786,1,12,37,60,2020-07-05,27
E10000028,Staffordshire,373371,1,44,112,151,2020-07-05,27
E06000021,Stoke-on-Trent,126260,1,22,46,65,2020-07-05,27
E06000020,Telford and Wrekin,84210,0,7,25,30,2020-07-05,27
E08000030,Walsall,132309,0,11,20,36,2020-07-05,27
E10000031,Warwickshire,247294,1,21,68,98,2020-07-05,27
E08000031,Wolverhampton,129662,0,1,12,19,2020-07-05,27
E10000034,Worcestershire,296929,1,19,69,90,2020-07-05,27
E06000049,Cheshire East,247706,5,33,94,129,2020-07-05,27
E06000050,Cheshire West and Chester,110891,1,27,55,74,2020-07-05,27
E06000006,Halton,66788,1,15,23,34,2020-07-05,27
E08000011,Knowsley,54334,1,7,11,21,2020-07-05,27
E08000012,Liverpool,216096,1,52,73,120,2020-07-05,27
E08000014,Sefton,148356,1,20,58,64,2020-07-05,27
E08000013,St. Helens,92231,1,21,31,48,2020-07-05,27
E06000007,Warrington,116359,0,10,18,37,2020-07-05,27
E08000015,Wirral,144506,7,32,67,105,2020-07-05,27
E06000008,Blackburn with Darwen,67592,1,8,18,25,2020-07-05,27
E06000009,Blackpool,47185,0,6,20,21,2020-07-05,27
E10000006,Cumbria,263196,1,41,85,125,2020-07-05,27
E10000017,Lancashire,578911,6,81,178,266,2020-07-05,27
E08000001,Bolton,82512,0,6,14,29,2020-07-05,27
E08000002,Bury,0,NA,NA,NA,NA,2020-07-05,27
E08000003,Manchester,265104,1,33,83,121,2020-07-05,27
E08000004,Oldham,107876,1,19,27,42,2020-07-05,27
E08000005,Rochdale,98924,1,9,18,30,2020-07-05,27
E08000006,Salford,41769,1,6,9,20,2020-07-05,27
E08000007,Stockport,162382,1,15,25,50,2020-07-05,27
E08000008,Tameside,110041,1,14,19,32,2020-07-05,27
E08000009,Trafford,78557,0,10,15,31,2020-07-05,27
E08000010,Wigan,97640,1,8,22,37,2020-07-05,27
E06000047,County Durham,120114,1,14,42,66,2020-07-05,27
E06000005,Darlington,26826,0,1,6,9,2020-07-05,27
E08000037,Gateshead,95106,0,20,56,74,2020-07-05,27
E06000001,Hartlepool,5910,0,0,0,0,2020-07-05,27
E06000002,Middlesbrough,15264,0,6,6,14,2020-07-05,27
E08000021,Newcastle upon Tyne,91453,0,8,11,19,2020-07-05,27
E08000022,North Tyneside,98600,0,9,29,47,2020-07-05,27
E06000057,Northumberland,52477,1,10,21,36,2020-07-05,27
E06000003,Redcar and Cleveland,36604,0,1,13,16,2020-07-05,27
E08000023,South Tyneside,69791,0,18,17,34,2020-07-05,27
E06000004,Stockton-on-Tees,80602,0,5,7,19,2020-07-05,27
E08000024,Sunderland,163433,0,19,35,48,2020-07-05,27
E08000016,Barnsley,113132,0,13,33,39,2020-07-05,27
E08000032,Bradford,406542,0,15,33,102,2020-07-05,27
E08000033,Calderdale,67155,1,5,9,20,2020-07-05,27
E08000017,Doncaster,127963,0,9,16,34,2020-07-05,27
E06000011,East Riding of Yorkshire,74845,1,8,33,36,2020-07-05,27
E06000010,"Kingston upon Hull, City of",42401,0,1,6,12,2020-07-05,27
E08000034,Kirklees,116533,1,15,30,42,2020-07-05,27
E08000035,Leeds,348934,0,23,47,85,2020-07-05,27
E06000012,North East Lincolnshire,41166,0,0,10,6,2020-07-05,27
E06000013,North Lincolnshire,71962,1,1,13,16,2020-07-05,27
E10000023,North Yorkshire,300098,1,20,68,112,2020-07-05,27
E08000018,Rotherham,49976,0,1,18,24,2020-07-05,27
E08000019,Sheffield,197517,1,7,27,34,2020-07-05,27
E08000036,Wakefield,139836,1,5,8,17,2020-07-05,27
E06000014,York,20444,0,5,10,15,2020-07-05,27
E06000022,Bath and North East Somerset,77750,0,3,13,22,2020-07-05,27
E06000023,"Bristol, City of",263422,11,30,102,115,2020-07-05,27
E10000013,Gloucestershire,152572,1,16,36,48,2020-07-05,27
E06000024,North Somerset,136238,1,20,69,64,2020-07-05,27
E06000025,South Gloucestershire,102139,0,8,58,43,2020-07-05,27
E06000030,Swindon,37091,0,1,1,1,2020-07-05,27
E06000054,Wiltshire,185118,0,0,21,17,2020-07-05,27
E06000052,Cornwall (including Isles of Scilly),104167,1,9,37,41,2020-07-05,27
E10000008,Devon,289908,1,11,40,48,2020-07-05,27
E06000026,Plymouth,34590,0,1,5,1,2020-07-05,27
E10000027,Somerset,274616,1,61,132,176,2020-07-05,27
E06000027,Torbay,70052,1,1,13,16,2020-07-05,27
E06000028,Bournemouth,83186,0,0,1,6,2020-07-05,27
E10000009,Dorset,169062,0,1,13,24,2020-07-05,27
E06000029,Poole,42758,0,1,1,11,2020-07-05,27
E06000043,Brighton and Hove,135466,1,6,45,66,2020-07-05,27
E10000011,East Sussex,259093,1,40,140,117,2020-07-05,27
E10000016,Kent,554405,12,60,147,203,2020-07-05,27
E06000035,Medway,221761,1,24,54,73,2020-07-05,27
E10000030,Surrey,665633,9,55,117,168,2020-07-05,27
E10000032,West Sussex,275954,1,21,59,92,2020-07-05,27
E06000036,Bracknell Forest,77560,1,8,17,25,2020-07-05,27
E10000002,Buckinghamshire,275973,0,32,81,103,2020-07-05,27
E10000025,Oxfordshire,324755,8,35,107,139,2020-07-05,27
E06000038,Reading,60275,1,8,19,25,2020-07-05,27
E06000039,Slough,96950,1,10,22,32,2020-07-05,27
E06000037,West Berkshire,60275,1,8,19,25,2020-07-05,27
E06000040,Windsor and Maidenhead,99721,1,10,22,32,2020-07-05,27
E06000041,Wokingham,60275,1,8,19,25,2020-07-05,27
E10000014,Hampshire,715529,30,81,213,277,2020-07-05,27
E06000046,Isle of Wight,91685,0,1,9,16,2020-07-05,27
E06000044,Portsmouth,182476,0,1,8,17,2020-07-05,27
E06000045,Southampton,136782,1,10,28,38,2020-07-05,27
