CODE,NAME,TOTAL_POP,Flu_OBS,Vom_OBS,Diarr_OBS,Gastro_OBS,lastdate,week
E09000002,Barking and Dagenham,93028,20,10,20,47,2014-12-07,49
E09000003,Barnet,257436,34,52,80,156,2014-12-07,49
E09000004,Bexley,30183,5,7,13,18,2014-12-07,49
E09000005,Brent,257021,82,70,102,202,2014-12-07,49
E09000006,Bromley,275926,26,46,94,154,2014-12-07,49
E09000007,Camden,219940,29,49,96,169,2014-12-07,49
E09000008,Croydon,196193,41,41,63,122,2014-12-07,49
E09000009,Ealing,153739,1,6,8,28,2014-12-07,49
E09000010,Enfield,160084,31,50,56,117,2014-12-07,49
E09000011,Greenwich,64416,21,17,38,64,2014-12-07,49
E09000012,Hackney (including City of London),252633,37,61,112,211,2014-12-07,49
E09000013,Hammersmith and Fulham,26628,0,8,5,38,2014-12-07,49
E09000014,Haringey,134935,11,26,42,73,2014-12-07,49
E09000015,Harrow,166208,33,45,83,132,2014-12-07,49
E09000016,Havering,64952,1,12,15,35,2014-12-07,49
E09000017,Hillingdon,234367,37,56,81,157,2014-12-07,49
E09000018,Hounslow,103204,1,13,10,87,2014-12-07,49
E09000019,Islington,213039,44,67,110,209,2014-12-07,49
E09000020,Kensington and Chelsea,37596,1,1,5,14,2014-12-07,49
E09000021,Kingston upon Thames,65231,10,11,17,30,2014-12-07,49
E09000022,Lambeth,291792,87,74,115,210,2014-12-07,49
E09000023,Lewisham,276266,37,71,125,231,2014-12-07,49
E09000024,Merton,131773,16,23,40,71,2014-12-07,49
E09000025,Newham,340215,82,71,91,227,2014-12-07,49
E09000026,Redbridge,111975,8,12,27,45,2014-12-07,49
E09000027,Richmond upon Thames,30905,1,1,1,1,2014-12-07,49
E09000028,Southwark,242124,65,63,100,196,2014-12-07,49
E09000029,Sutton,126606,15,23,38,68,2014-12-07,49
E09000030,Tower Hamlets,255858,71,93,118,255,2014-12-07,49
E09000031,Waltham Forest,125892,31,20,21,63,2014-12-07,49
E09000032,Wandsworth,336531,44,88,113,259,2014-12-07,49
E09000033,Westminster,39143,0,0,1,1,2014-12-07,49
E10000003,Cambridgeshire,229429,10,27,60,178,2014-12-07,49
E10000012,Essex,712363,21,66,182,425,2014-12-07,49
E10000020,Norfolk,365797,19,64,153,283,2014-12-07,49
E06000031,Peterborough,104231,1,12,15,70,2014-12-07,49
E06000033,Southend-on-Sea,33659,0,1,7,22,2014-12-07,49
E10000029,Suffolk,296597,22,53,109,218,2014-12-07,49
E06000034,Thurrock,66186,1,1,16,95,2014-12-07,49
E06000015,Derby,66351,1,12,25,119,2014-12-07,49
E10000007,Derbyshire,273230,18,57,101,230,2014-12-07,49
E06000016,Leicester,162581,1,22,39,231,2014-12-07,49
E10000018,Leicestershire (including Rutland),421369,41,96,181,348,2014-12-07,49
E10000019,Lincolnshire,291371,10,54,100,204,2014-12-07,49
E06000018,Nottingham,121190,1,14,24,76,2014-12-07,49
E10000024,Nottinghamshire,239929,10,53,93,225,2014-12-07,49
E06000055,Bedford,37066,1,1,5,57,2014-12-07,49
E06000056,Central Bedfordshire,115288,5,21,38,169,2014-12-07,49
E10000015,Hertfordshire,494920,51,115,189,379,2014-12-07,49
E06000032,Luton,88768,10,1,18,94,2014-12-07,49
E06000042,Milton Keynes,249572,1,31,67,331,2014-12-07,49
E10000021,Northamptonshire,343989,20,61,111,287,2014-12-07,49
E08000025,Birmingham,576401,108,161,225,449,2014-12-07,49
E08000026,Coventry,238935,24,66,74,149,2014-12-07,49
E08000027,Dudley,208438,12,31,87,140,2014-12-07,49
E06000019,"Herefordshire, County of",134492,12,37,86,129,2014-12-07,49
E08000028,Sandwell,141237,21,32,60,135,2014-12-07,49
E06000051,Shropshire,210292,13,46,96,158,2014-12-07,49
E08000029,Solihull,99570,11,23,54,143,2014-12-07,49
E10000028,Staffordshire,505340,37,150,229,398,2014-12-07,49
E06000021,Stoke-on-Trent,162194,18,54,92,168,2014-12-07,49
E06000020,Telford and Wrekin,108095,8,25,36,58,2014-12-07,49
E08000030,Walsall,228168,19,41,63,127,2014-12-07,49
E10000031,Warwickshire,241408,20,39,103,163,2014-12-07,49
E08000031,Wolverhampton,166558,6,34,34,96,2014-12-07,49
E10000034,Worcestershire,378792,31,103,187,281,2014-12-07,49
E06000049,Cheshire East,381275,30,107,175,292,2014-12-07,49
E06000050,Cheshire West and Chester,192645,27,67,141,208,2014-12-07,49
E06000006,Halton,80027,6,29,42,76,2014-12-07,49
E08000011,Knowsley,110413,12,24,43,65,2014-12-07,49
E08000012,Liverpool,277266,33,94,144,263,2014-12-07,49
E08000014,Sefton,200056,10,60,87,154,2014-12-07,49
E08000013,St. Helens,110514,9,40,58,106,2014-12-07,49
E06000007,Warrington,104169,5,15,37,147,2014-12-07,49
E08000015,Wirral,185878,13,63,122,203,2014-12-07,49
E06000008,Blackburn with Darwen,124692,10,37,60,122,2014-12-07,49
E06000009,Blackpool,113319,7,29,50,88,2014-12-07,49
E10000006,Cumbria,335847,24,90,147,248,2014-12-07,49
E10000017,Lancashire,974878,62,230,439,749,2014-12-07,49
E08000001,Bolton,56454,7,26,18,79,2014-12-07,49
E08000002,Bury,0,0,0,0,0,2014-12-07,49
E08000003,Manchester,435044,33,149,151,310,2014-12-07,49
E08000004,Oldham,160401,10,53,64,137,2014-12-07,49
E08000005,Rochdale,115301,15,45,54,114,2014-12-07,49
E08000006,Salford,34412,6,8,11,19,2014-12-07,49
E08000007,Stockport,120602,13,42,54,93,2014-12-07,49
E08000008,Tameside,134162,10,22,38,74,2014-12-07,49
E08000009,Trafford,133873,10,44,58,109,2014-12-07,49
E08000010,Wigan,142802,18,21,44,83,2014-12-07,49
E06000047,County Durham,192504,14,42,65,138,2014-12-07,49
E06000005,Darlington,41200,1,9,13,65,2014-12-07,49
E08000020,Gateshead,128651,10,52,69,125,2014-12-07,49
E06000001,Hartlepool,18288,0,1,1,6,2014-12-07,49
E06000002,Middlesbrough,13270,1,1,1,11,2014-12-07,49
E08000021,Newcastle upon Tyne,139823,1,16,28,71,2014-12-07,49
E08000022,North Tyneside,145194,8,30,45,84,2014-12-07,49
E06000048,Northumberland,164819,6,35,68,109,2014-12-07,49
E06000003,Redcar and Cleveland,49924,0,7,12,39,2014-12-07,49
E08000023,South Tyneside,115706,1,44,66,93,2014-12-07,49
E06000004,Stockton-on-Tees,65530,1,12,24,45,2014-12-07,49
E08000024,Sunderland,179747,17,41,73,129,2014-12-07,49
E08000016,Barnsley,131757,8,31,47,110,2014-12-07,49
E08000032,Bradford,381427,12,58,71,410,2014-12-07,49
E08000033,Calderdale,71804,1,14,23,73,2014-12-07,49
E08000017,Doncaster,145100,15,22,39,98,2014-12-07,49
E06000011,East Riding of Yorkshire,98134,1,14,42,53,2014-12-07,49
E06000010,"Kingston upon Hull, City of",53064,10,6,18,43,2014-12-07,49
E08000034,Kirklees,162937,12,16,70,149,2014-12-07,49
E08000035,Leeds,461424,39,60,159,400,2014-12-07,49
E06000012,North East Lincolnshire,72518,6,19,33,74,2014-12-07,49
E06000013,North Lincolnshire,60468,0,13,17,77,2014-12-07,49
E10000023,North Yorkshire,287873,17,43,110,218,2014-12-07,49
E08000018,Rotherham,99063,15,49,66,124,2014-12-07,49
E08000019,Sheffield,242852,19,32,63,148,2014-12-07,49
E08000036,Wakefield,164758,13,21,54,134,2014-12-07,49
E06000014,York,70466,1,15,28,59,2014-12-07,49
E06000022,Bath and North East Somerset,121122,14,26,41,84,2014-12-07,49
E06000023,"Bristol, City of",372989,41,119,164,285,2014-12-07,49
E10000013,Gloucestershire,206657,24,37,65,115,2014-12-07,49
E06000024,North Somerset,159957,18,69,115,171,2014-12-07,49
E06000025,South Gloucestershire,189735,30,53,105,164,2014-12-07,49
E06000030,Swindon,55504,1,7,13,30,2014-12-07,49
E06000054,Wiltshire,163386,1,14,27,85,2014-12-07,49
E06000052,Cornwall (including Isles of Scilly),60175,1,19,29,43,2014-12-07,49
E10000008,Devon,247522,6,28,65,134,2014-12-07,49
E06000026,Plymouth,67258,10,19,26,44,2014-12-07,49
E10000027,Somerset,332305,40,128,219,331,2014-12-07,49
E06000027,Torbay,26651,1,10,19,23,2014-12-07,49
E06000043,Brighton and Hove,109838,1,16,38,92,2014-12-07,49
E10000011,East Sussex,197426,11,53,83,140,2014-12-07,49
E10000016,Kent,514911,24,128,219,359,2014-12-07,49
E06000035,Medway,72264,1,15,30,45,2014-12-07,49
E10000030,Surrey,694077,57,126,243,393,2014-12-07,49
E10000032,West Sussex,351276,32,64,142,314,2014-12-07,49
E06000036,Bracknell Forest,71080,10,13,21,43,2014-12-07,49
E10000002,Buckinghamshire,405343,27,77,179,303,2014-12-07,49
E10000025,Oxfordshire,373175,44,108,176,291,2014-12-07,49
E06000038,Reading,68980,7,12,22,42,2014-12-07,49
E06000039,Slough,157831,20,29,48,96,2014-12-07,49
E06000037,West Berkshire,68980,7,12,22,42,2014-12-07,49
E06000040,Windsor and Maidenhead,91389,13,17,27,55,2014-12-07,49
E06000041,Wokingham,0,0,0,0,0,2014-12-07,49
E06000028,Bournemouth,133618,1,11,21,54,2014-12-07,49
E10000009,Dorset,213364,8,24,47,108,2014-12-07,49
E10000014,Hampshire,787032,63,187,318,550,2014-12-07,49
E06000046,Isle of Wight,0,0,0,0,0,2014-12-07,49
E06000029,Poole,93211,1,11,18,46,2014-12-07,49
E06000044,Portsmouth,93329,11,20,33,55,2014-12-07,49
E06000045,Southampton,118539,1,15,21,99,2014-12-07,49
