CODE,NAME,TOTAL_POP,Flu_OBS,Vom_OBS,Diarr_OBS,Gastro_OBS,lastdate,week
E09000002,Barking and Dagenham,60750,0,1,14,26,2018-08-12,32
E09000003,Barnet,189753,0,19,63,100,2018-08-12,32
E09000004,Bexley,43618,0,1,7,10,2018-08-12,32
E09000005,Brent,144802,1,23,47,77,2018-08-12,32
E09000006,Bromley,153726,1,12,37,57,2018-08-12,32
E09000007,Camden,209506,1,36,77,111,2018-08-12,32
E09000008,Croydon,120471,1,5,23,40,2018-08-12,32
E09000009,Ealing,33136,0,1,7,17,2018-08-12,32
E09000010,Enfield,156175,0,20,49,82,2018-08-12,32
E09000011,Greenwich,42593,0,1,5,17,2018-08-12,32
E09000012,Hackney (including City of London),169992,1,28,63,114,2018-08-12,32
E09000013,Hammersmith and Fulham,41534,0,0,1,8,2018-08-12,32
E09000014,Haringey,153438,1,18,40,71,2018-08-12,32
E09000015,Harrow,171866,1,25,53,97,2018-08-12,32
E09000016,Havering,85806,1,8,17,35,2018-08-12,32
E09000017,Hillingdon,169326,0,21,47,88,2018-08-12,32
E09000018,Hounslow,107136,1,1,12,47,2018-08-12,32
E09000019,Islington,147757,0,30,61,97,2018-08-12,32
E09000020,Kensington and Chelsea,26445,0,1,1,6,2018-08-12,32
E09000021,Kingston upon Thames,71096,1,16,32,54,2018-08-12,32
E09000022,Lambeth,214503,1,24,52,94,2018-08-12,32
E09000023,Lewisham,125277,1,17,43,71,2018-08-12,32
E09000024,Merton,59644,1,8,16,29,2018-08-12,32
E09000025,Newham,139340,1,15,25,61,2018-08-12,32
E09000026,Redbridge,126574,0,12,26,53,2018-08-12,32
E09000027,Richmond upon Thames,16886,1,1,8,13,2018-08-12,32
E09000028,Southwark,137946,1,11,34,54,2018-08-12,32
E09000029,Sutton,57305,1,8,16,28,2018-08-12,32
E09000030,Tower Hamlets,159751,6,48,83,161,2018-08-12,32
E09000031,Waltham Forest,98809,0,7,22,40,2018-08-12,32
E09000032,Wandsworth,205833,1,21,61,110,2018-08-12,32
E09000033,Westminster,2238,0,0,0,0,2018-08-12,32
E10000003,Cambridgeshire,212614,1,12,52,96,2018-08-12,32
E10000012,Essex,512294,1,27,107,163,2018-08-12,32
E10000020,Norfolk,300452,1,23,91,135,2018-08-12,32
E06000031,Peterborough,103804,0,11,32,62,2018-08-12,32
E06000033,Southend-on-Sea,4016,0,0,1,1,2018-08-12,32
E10000029,Suffolk,193740,1,16,53,106,2018-08-12,32
E06000034,Thurrock,54980,0,1,1,1,2018-08-12,32
E06000055,Bedford,33115,0,1,10,29,2018-08-12,32
E06000056,Central Bedfordshire,119244,0,11,34,92,2018-08-12,32
E10000015,Hertfordshire,340056,1,44,107,180,2018-08-12,32
E06000032,Luton,103348,0,9,16,44,2018-08-12,32
E06000042,Milton Keynes,265516,0,24,57,165,2018-08-12,32
E06000015,Derby,64800,0,1,19,50,2018-08-12,32
E10000007,Derbyshire,167735,1,14,55,101,2018-08-12,32
E06000016,Leicester,177048,0,15,28,108,2018-08-12,32
E10000018,Leicestershire (including Rutland),270391,1,29,79,138,2018-08-12,32
E10000019,Lincolnshire,209484,0,15,56,76,2018-08-12,32
E06000018,Nottingham,104737,0,1,29,43,2018-08-12,32
E10000024,Nottinghamshire,192154,1,8,46,99,2018-08-12,32
E10000021,Northamptonshire,242757,1,17,76,142,2018-08-12,32
E08000025,Birmingham,381333,8,64,135,228,2018-08-12,32
E08000026,Coventry,154119,0,25,38,68,2018-08-12,32
E08000027,Dudley,152319,1,28,49,80,2018-08-12,32
E06000019,"Herefordshire, County of",115080,0,20,59,75,2018-08-12,32
E08000028,Sandwell,95289,0,8,10,43,2018-08-12,32
E06000051,Shropshire,101040,0,15,35,48,2018-08-12,32
E08000029,Solihull,77954,1,7,32,63,2018-08-12,32
E10000028,Staffordshire,324650,1,52,142,196,2018-08-12,32
E06000021,Stoke-on-Trent,104072,0,26,44,77,2018-08-12,32
E06000020,Telford and Wrekin,119788,0,23,38,58,2018-08-12,32
E08000030,Walsall,151368,0,10,35,64,2018-08-12,32
E10000031,Warwickshire,187424,0,26,80,119,2018-08-12,32
E08000031,Wolverhampton,121986,0,15,34,49,2018-08-12,32
E10000034,Worcestershire,265030,1,35,132,163,2018-08-12,32
E06000049,Cheshire East,215326,1,43,109,167,2018-08-12,32
E06000050,Cheshire West and Chester,143662,1,36,80,112,2018-08-12,32
E06000006,Halton,46251,1,13,26,39,2018-08-12,32
E08000011,Knowsley,47460,0,8,21,33,2018-08-12,32
E08000012,Liverpool,179390,1,40,89,134,2018-08-12,32
E08000014,Sefton,136269,1,27,59,98,2018-08-12,32
E08000013,St. Helens,63871,1,17,36,55,2018-08-12,32
E06000007,Warrington,98638,1,10,9,50,2018-08-12,32
E08000015,Wirral,127966,1,28,51,95,2018-08-12,32
E06000008,Blackburn with Darwen,71621,0,15,28,46,2018-08-12,32
E06000009,Blackpool,32855,0,5,12,17,2018-08-12,32
E10000006,Cumbria,218979,1,40,111,143,2018-08-12,32
E10000017,Lancashire,555899,5,108,225,360,2018-08-12,32
E08000001,Bolton,37256,0,8,14,28,2018-08-12,32
E08000002,Bury,0,NA,NA,NA,NA,2018-08-12,32
E08000003,Manchester,252829,1,48,89,157,2018-08-12,32
E08000004,Oldham,111082,1,17,40,72,2018-08-12,32
E08000005,Rochdale,73747,1,14,24,42,2018-08-12,32
E08000006,Salford,39996,0,8,24,39,2018-08-12,32
E08000007,Stockport,151264,1,28,49,85,2018-08-12,32
E08000008,Tameside,120390,0,16,38,70,2018-08-12,32
E08000009,Trafford,94696,1,20,36,63,2018-08-12,32
E08000010,Wigan,114125,1,23,49,82,2018-08-12,32
E06000047,County Durham,122922,0,22,51,103,2018-08-12,32
E06000005,Darlington,27038,0,1,6,19,2018-08-12,32
E08000037,Gateshead,78007,1,16,43,57,2018-08-12,32
E06000001,Hartlepool,8240,0,1,1,1,2018-08-12,32
E06000002,Middlesbrough,5146,0,1,1,1,2018-08-12,32
E08000021,Newcastle upon Tyne,139544,0,13,36,57,2018-08-12,32
E08000022,North Tyneside,61731,0,6,23,40,2018-08-12,32
E06000057,Northumberland,47395,0,6,14,26,2018-08-12,32
E06000003,Redcar and Cleveland,31160,0,1,1,5,2018-08-12,32
E08000023,South Tyneside,76681,1,7,30,35,2018-08-12,32
E06000004,Stockton-on-Tees,68010,0,1,13,28,2018-08-12,32
E08000024,Sunderland,111272,1,11,27,45,2018-08-12,32
E08000016,Barnsley,102911,0,8,15,38,2018-08-12,32
E08000032,Bradford,397389,1,16,61,196,2018-08-12,32
E08000033,Calderdale,79437,0,10,17,35,2018-08-12,32
E08000017,Doncaster,123387,0,15,25,65,2018-08-12,32
E06000011,East Riding of Yorkshire,91146,0,14,54,70,2018-08-12,32
E06000010,"Kingston upon Hull, City of",32971,0,1,6,19,2018-08-12,32
E08000034,Kirklees,123495,1,9,28,61,2018-08-12,32
E08000035,Leeds,408814,1,37,116,216,2018-08-12,32
E06000012,North East Lincolnshire,45994,0,1,16,21,2018-08-12,32
E06000013,North Lincolnshire,64105,0,1,12,17,2018-08-12,32
E10000023,North Yorkshire,264232,1,19,77,130,2018-08-12,32
E08000018,Rotherham,97818,0,30,45,84,2018-08-12,32
E08000019,Sheffield,192905,0,1,27,51,2018-08-12,32
E08000036,Wakefield,152557,0,5,17,44,2018-08-12,32
E06000014,York,25939,0,1,13,16,2018-08-12,32
E06000022,Bath and North East Somerset,86841,1,1,18,32,2018-08-12,32
E06000023,"Bristol, City of",232426,5,56,151,201,2018-08-12,32
E10000013,Gloucestershire,110859,0,8,34,57,2018-08-12,32
E06000024,North Somerset,95177,1,16,70,84,2018-08-12,32
E06000025,South Gloucestershire,109101,1,19,97,101,2018-08-12,32
E06000030,Swindon,48263,0,1,15,27,2018-08-12,32
E06000054,Wiltshire,172654,0,7,34,56,2018-08-12,32
E06000052,Cornwall (including Isles of Scilly),42828,0,6,15,21,2018-08-12,32
E10000008,Devon,260563,0,11,66,84,2018-08-12,32
E06000026,Plymouth,62078,1,5,13,18,2018-08-12,32
E10000027,Somerset,213979,5,56,149,206,2018-08-12,32
E06000027,Torbay,73558,1,12,29,41,2018-08-12,32
E06000028,Bournemouth,75067,0,1,8,33,2018-08-12,32
E10000009,Dorset,168343,1,5,39,47,2018-08-12,32
E06000029,Poole,45845,0,1,8,20,2018-08-12,32
E06000043,Brighton and Hove,120199,1,17,32,70,2018-08-12,32
E10000011,East Sussex,156729,0,26,74,85,2018-08-12,32
E10000016,Kent,442264,1,51,164,228,2018-08-12,32
E06000035,Medway,52268,0,1,14,22,2018-08-12,32
E10000030,Surrey,547844,5,66,224,306,2018-08-12,32
E10000032,West Sussex,318083,1,37,138,213,2018-08-12,32
E06000036,Bracknell Forest,60669,0,10,27,41,2018-08-12,32
E10000002,Buckinghamshire,242496,5,48,118,166,2018-08-12,32
E10000025,Oxfordshire,310676,5,61,140,202,2018-08-12,32
E06000038,Reading,48512,1,7,18,26,2018-08-12,32
E06000039,Slough,75836,0,12,34,51,2018-08-12,32
E06000037,West Berkshire,48512,1,7,18,26,2018-08-12,32
E06000040,Windsor and Maidenhead,78002,0,12,35,53,2018-08-12,32
E06000041,Wokingham,48512,1,7,18,26,2018-08-12,32
E10000014,Hampshire,565529,5,71,187,289,2018-08-12,32
E06000046,Isle of Wight,59193,1,1,10,28,2018-08-12,32
E06000044,Portsmouth,153676,0,6,18,58,2018-08-12,32
E06000045,Southampton,121983,1,9,23,46,2018-08-12,32
