CODE,NAME,TOTAL_POP,Flu_OBS,Vom_OBS,Diarr_OBS,Gastro_OBS,lastdate,week
E09000002,Barking and Dagenham,111592,31,25,24,60,2018-01-14,2
E09000003,Barnet,219329,80,39,84,143,2018-01-14,2
E09000004,Bexley,20412,1,5,5,10,2018-01-14,2
E09000005,Brent,191193,80,53,79,125,2018-01-14,2
E09000006,Bromley,137951,42,9,32,58,2018-01-14,2
E09000007,Camden,123771,68,20,55,77,2018-01-14,2
E09000008,Croydon,111283,49,26,28,66,2018-01-14,2
E09000009,Ealing,38348,7,1,9,15,2018-01-14,2
E09000010,Enfield,162750,36,26,29,68,2018-01-14,2
E09000011,Greenwich,37873,17,12,16,29,2018-01-14,2
E09000012,Hackney (including City of London),164275,46,26,58,114,2018-01-14,2
E09000013,Hammersmith and Fulham,37662,8,1,1,1,2018-01-14,2
E09000014,Haringey,158302,40,35,38,87,2018-01-14,2
E09000015,Harrow,122915,56,25,38,77,2018-01-14,2
E09000016,Havering,66943,19,5,17,29,2018-01-14,2
E09000017,Hillingdon,195280,65,46,80,150,2018-01-14,2
E09000018,Hounslow,102357,6,6,9,53,2018-01-14,2
E09000019,Islington,138023,85,33,70,113,2018-01-14,2
E09000020,Kensington and Chelsea,26753,1,1,1,1,2018-01-14,2
E09000021,Kingston upon Thames,134467,69,18,34,61,2018-01-14,2
E09000022,Lambeth,142838,59,30,48,100,2018-01-14,2
E09000023,Lewisham,172732,27,35,70,121,2018-01-14,2
E09000024,Merton,70663,27,11,22,38,2018-01-14,2
E09000025,Newham,273361,82,46,73,206,2018-01-14,2
E09000026,Redbridge,128577,17,18,18,47,2018-01-14,2
E09000027,Richmond upon Thames,24012,6,1,14,13,2018-01-14,2
E09000028,Southwark,256333,94,43,83,146,2018-01-14,2
E09000029,Sutton,67891,26,11,22,37,2018-01-14,2
E09000030,Tower Hamlets,149513,71,39,81,133,2018-01-14,2
E09000031,Waltham Forest,159293,37,24,33,81,2018-01-14,2
E09000032,Wandsworth,229438,88,34,54,107,2018-01-14,2
E09000033,Westminster,10374,0,0,0,0,2018-01-14,2
E10000003,Cambridgeshire,233195,86,26,50,129,2018-01-14,2
E10000012,Essex,537871,99,37,107,300,2018-01-14,2
E10000020,Norfolk,283944,78,25,73,178,2018-01-14,2
E06000031,Peterborough,100916,14,6,18,72,2018-01-14,2
E06000033,Southend-on-Sea,6145,0,0,1,1,2018-01-14,2
E10000029,Suffolk,210500,78,20,78,142,2018-01-14,2
E06000034,Thurrock,68293,9,6,12,76,2018-01-14,2
E06000055,Bedford,33066,5,5,1,1,2018-01-14,2
E06000056,Central Bedfordshire,119540,18,11,41,153,2018-01-14,2
E10000015,Hertfordshire,340043,125,54,115,242,2018-01-14,2
E06000032,Luton,93804,11,10,17,58,2018-01-14,2
E06000042,Milton Keynes,262727,38,37,55,342,2018-01-14,2
E06000015,Derby,63420,10,9,29,87,2018-01-14,2
E10000007,Derbyshire,220395,97,16,50,121,2018-01-14,2
E06000016,Leicester,178360,19,21,31,148,2018-01-14,2
E10000018,Leicestershire (including Rutland),307663,125,47,90,172,2018-01-14,2
E10000019,Lincolnshire,196594,35,10,32,71,2018-01-14,2
E06000018,Nottingham,113255,39,16,27,63,2018-01-14,2
E10000024,Nottinghamshire,171498,65,11,47,152,2018-01-14,2
E10000021,Northamptonshire,244113,81,29,63,190,2018-01-14,2
E08000025,Birmingham,511480,205,130,186,384,2018-01-14,2
E08000026,Coventry,194019,73,43,59,121,2018-01-14,2
E08000027,Dudley,175308,55,22,46,69,2018-01-14,2
E06000019,"Herefordshire, County of",101481,104,29,45,69,2018-01-14,2
E08000028,Sandwell,98272,16,9,18,69,2018-01-14,2
E06000051,Shropshire,191943,90,26,69,94,2018-01-14,2
E08000029,Solihull,75727,24,24,42,104,2018-01-14,2
E10000028,Staffordshire,521830,300,109,164,296,2018-01-14,2
E06000021,Stoke-on-Trent,167296,113,55,79,141,2018-01-14,2
E06000020,Telford and Wrekin,84435,52,20,26,45,2018-01-14,2
E08000030,Walsall,157917,64,24,35,73,2018-01-14,2
E10000031,Warwickshire,236557,124,45,92,159,2018-01-14,2
E08000031,Wolverhampton,125138,22,15,28,71,2018-01-14,2
E10000034,Worcestershire,226872,114,31,107,141,2018-01-14,2
E06000049,Cheshire East,242368,190,62,95,172,2018-01-14,2
E06000050,Cheshire West and Chester,133318,117,35,69,95,2018-01-14,2
E06000006,Halton,61324,45,21,24,42,2018-01-14,2
E08000011,Knowsley,49095,21,10,9,29,2018-01-14,2
E08000012,Liverpool,315883,245,136,164,327,2018-01-14,2
E08000014,Sefton,162004,114,25,61,102,2018-01-14,2
E08000013,St. Helens,84685,62,28,32,57,2018-01-14,2
E06000007,Warrington,89405,25,8,26,125,2018-01-14,2
E08000015,Wirral,191476,152,33,98,141,2018-01-14,2
E06000008,Blackburn with Darwen,117792,55,21,30,70,2018-01-14,2
E06000009,Blackpool,52852,20,8,11,27,2018-01-14,2
E10000006,Cumbria,314143,240,61,140,205,2018-01-14,2
E10000017,Lancashire,725184,284,166,285,490,2018-01-14,2
E08000001,Bolton,40890,13,0,11,34,2018-01-14,2
E08000002,Bury,0,NA,NA,NA,NA,2018-01-14,2
E08000003,Manchester,290471,132,61,85,179,2018-01-14,2
E08000004,Oldham,118981,43,26,40,81,2018-01-14,2
E08000005,Rochdale,139674,49,47,48,112,2018-01-14,2
E08000006,Salford,33864,28,10,17,26,2018-01-14,2
E08000007,Stockport,124012,77,20,38,68,2018-01-14,2
E08000008,Tameside,110329,30,26,40,70,2018-01-14,2
E08000009,Trafford,132128,80,19,40,57,2018-01-14,2
E08000010,Wigan,102838,60,14,26,56,2018-01-14,2
E06000047,County Durham,173442,56,22,49,144,2018-01-14,2
E06000005,Darlington,27158,10,1,1,26,2018-01-14,2
E08000037,Gateshead,146543,121,48,80,130,2018-01-14,2
E06000001,Hartlepool,12228,1,0,1,1,2018-01-14,2
E06000002,Middlesbrough,2885,1,1,0,1,2018-01-14,2
E08000021,Newcastle upon Tyne,168242,52,15,31,89,2018-01-14,2
E08000022,North Tyneside,104586,53,17,25,57,2018-01-14,2
E06000057,Northumberland,82948,69,13,41,57,2018-01-14,2
E06000003,Redcar and Cleveland,37613,9,1,11,20,2018-01-14,2
E08000023,South Tyneside,91352,63,29,36,77,2018-01-14,2
E06000004,Stockton-on-Tees,78562,27,1,9,91,2018-01-14,2
E08000024,Sunderland,153696,64,28,46,79,2018-01-14,2
E08000016,Barnsley,127408,64,18,41,97,2018-01-14,2
E08000032,Bradford,391116,88,27,59,265,2018-01-14,2
E08000033,Calderdale,69433,20,14,22,64,2018-01-14,2
E08000017,Doncaster,119099,37,17,31,69,2018-01-14,2
E06000011,East Riding of Yorkshire,68329,37,1,20,25,2018-01-14,2
E06000010,"Kingston upon Hull, City of",40929,9,10,7,24,2018-01-14,2
E08000034,Kirklees,118414,27,10,29,79,2018-01-14,2
E08000035,Leeds,392270,95,59,89,248,2018-01-14,2
E06000012,North East Lincolnshire,62506,6,15,32,54,2018-01-14,2
E06000013,North Lincolnshire,56245,10,1,7,44,2018-01-14,2
E10000023,North Yorkshire,272712,152,28,84,186,2018-01-14,2
E08000018,Rotherham,94378,54,31,54,107,2018-01-14,2
E08000019,Sheffield,214143,48,13,63,109,2018-01-14,2
E08000036,Wakefield,158130,59,7,35,70,2018-01-14,2
E06000014,York,27449,30,7,17,25,2018-01-14,2
E06000022,Bath and North East Somerset,82015,30,7,17,37,2018-01-14,2
E06000023,"Bristol, City of",267927,170,69,125,189,2018-01-14,2
E10000013,Gloucestershire,124315,73,18,40,96,2018-01-14,2
E06000024,North Somerset,118613,113,52,65,117,2018-01-14,2
E06000025,South Gloucestershire,175523,130,33,111,126,2018-01-14,2
E06000030,Swindon,62208,20,5,7,15,2018-01-14,2
E06000054,Wiltshire,172245,26,6,26,132,2018-01-14,2
E06000052,Cornwall (including Isles of Scilly),42988,30,10,11,18,2018-01-14,2
E10000008,Devon,250109,82,16,62,101,2018-01-14,2
E06000026,Plymouth,53789,31,13,22,33,2018-01-14,2
E10000027,Somerset,254830,198,95,149,231,2018-01-14,2
E06000027,Torbay,73261,34,20,38,52,2018-01-14,2
E06000028,Bournemouth,79078,24,1,15,26,2018-01-14,2
E10000009,Dorset,165837,29,6,23,78,2018-01-14,2
E06000029,Poole,48282,13,1,10,24,2018-01-14,2
E06000043,Brighton and Hove,124367,43,12,34,78,2018-01-14,2
E10000011,East Sussex,204631,105,43,104,134,2018-01-14,2
E10000016,Kent,432336,250,74,156,235,2018-01-14,2
E06000035,Medway,54622,26,13,22,32,2018-01-14,2
E10000030,Surrey,644900,244,82,193,326,2018-01-14,2
E10000032,West Sussex,340202,136,43,105,242,2018-01-14,2
E06000036,Bracknell Forest,54149,9,8,17,31,2018-01-14,2
E10000002,Buckinghamshire,324574,163,50,124,196,2018-01-14,2
E10000025,Oxfordshire,292762,190,67,138,222,2018-01-14,2
E06000038,Reading,54982,23,9,17,27,2018-01-14,2
E06000039,Slough,67686,12,9,21,39,2018-01-14,2
E06000037,West Berkshire,54982,23,9,17,27,2018-01-14,2
E06000040,Windsor and Maidenhead,69620,12,10,21,40,2018-01-14,2
E06000041,Wokingham,54982,23,9,17,27,2018-01-14,2
E10000014,Hampshire,600618,441,139,244,393,2018-01-14,2
E06000046,Isle of Wight,12793,1,1,1,15,2018-01-14,2
E06000044,Portsmouth,29938,1,1,1,23,2018-01-14,2
E06000045,Southampton,124169,33,6,19,53,2018-01-14,2
