CODE,NAME,TOTAL_POP,Flu_OBS,Vom_OBS,Diarr_OBS,Gastro_OBS,lastdate,week
E09000002,Barking and Dagenham,185173,1,8,10,18,2021-02-14,6
E09000003,Barnet,283688,6,21,50,69,2021-02-14,6
E09000004,Bexley,176864,1,9,21,32,2021-02-14,6
E09000005,Brent,351204,15,38,67,101,2021-02-14,6
E09000006,Bromley,281559,1,14,23,37,2021-02-14,6
E09000007,Camden,239183,1,18,65,68,2021-02-14,6
E09000008,Croydon,343304,1,16,40,64,2021-02-14,6
E09000009,Ealing,36321,0,0,1,1,2021-02-14,6
E09000010,Enfield,283229,8,13,42,53,2021-02-14,6
E09000011,Greenwich,115522,1,8,20,25,2021-02-14,6
E09000012,Hackney (including City of London),246276,7,30,44,82,2021-02-14,6
E09000013,Hammersmith and Fulham,44180,0,1,1,20,2021-02-14,6
E09000014,Haringey,242268,5,22,36,56,2021-02-14,6
E09000015,Harrow,220129,1,15,28,51,2021-02-14,6
E09000016,Havering,234721,1,9,18,41,2021-02-14,6
E09000017,Hillingdon,266805,6,22,51,79,2021-02-14,6
E09000018,Hounslow,108956,0,1,7,26,2021-02-14,6
E09000019,Islington,205194,1,18,40,58,2021-02-14,6
E09000020,Kensington and Chelsea,29298,0,1,1,1,2021-02-14,6
E09000021,Kingston upon Thames,171210,1,11,27,34,2021-02-14,6
E09000022,Lambeth,288770,1,30,41,69,2021-02-14,6
E09000023,Lewisham,224339,1,22,38,61,2021-02-14,6
E09000024,Merton,167627,1,12,32,43,2021-02-14,6
E09000025,Newham,311772,5,23,29,63,2021-02-14,6
E09000026,Redbridge,257143,1,11,29,48,2021-02-14,6
E09000027,Richmond upon Thames,130129,0,10,12,23,2021-02-14,6
E09000028,Southwark,228281,1,16,28,43,2021-02-14,6
E09000029,Sutton,161054,1,12,31,42,2021-02-14,6
E09000030,Tower Hamlets,259283,1,30,56,97,2021-02-14,6
E09000031,Waltham Forest,216737,0,11,20,34,2021-02-14,6
E09000032,Wandsworth,299195,1,15,47,68,2021-02-14,6
E09000033,Westminster,2637,0,0,0,0,2021-02-14,6
E10000003,Cambridgeshire,264893,1,15,49,78,2021-02-14,6
E10000012,Essex,561252,1,19,62,95,2021-02-14,6
E10000020,Norfolk,322634,1,12,93,62,2021-02-14,6
E06000031,Peterborough,130056,0,5,14,32,2021-02-14,6
E06000033,Southend-on-Sea,2741,0,0,1,1,2021-02-14,6
E10000029,Suffolk,216868,0,8,34,49,2021-02-14,6
E06000034,Thurrock,70172,0,1,1,1,2021-02-14,6
E06000055,Bedford,37372,0,0,1,9,2021-02-14,6
E06000056,Central Bedfordshire,146187,0,6,30,43,2021-02-14,6
E10000015,Hertfordshire,644544,6,43,108,147,2021-02-14,6
E06000032,Luton,119159,1,1,7,22,2021-02-14,6
E06000042,Milton Keynes,272507,6,1,13,33,2021-02-14,6
E06000015,Derby,65697,0,9,25,40,2021-02-14,6
E10000007,Derbyshire,245130,1,19,47,82,2021-02-14,6
E06000016,Leicester,179999,0,7,12,44,2021-02-14,6
E10000018,Leicestershire (including Rutland),230635,1,10,23,50,2021-02-14,6
E10000019,Lincolnshire,255424,1,10,49,50,2021-02-14,6
E06000018,Nottingham,164747,1,21,37,48,2021-02-14,6
E10000024,Nottinghamshire,174983,1,6,31,54,2021-02-14,6
E10000021,Northamptonshire,301682,1,21,45,73,2021-02-14,6
E08000025,Birmingham,676029,9,53,124,183,2021-02-14,6
E08000026,Coventry,311892,1,31,48,79,2021-02-14,6
E08000027,Dudley,265894,1,19,39,51,2021-02-14,6
E06000019,"Herefordshire, County of",171096,1,23,67,77,2021-02-14,6
E08000028,Sandwell,133344,1,1,11,23,2021-02-14,6
E06000051,Shropshire,236390,1,25,75,90,2021-02-14,6
E08000029,Solihull,119425,1,1,32,39,2021-02-14,6
E10000028,Staffordshire,666100,9,62,163,210,2021-02-14,6
E06000021,Stoke-on-Trent,247865,1,38,94,126,2021-02-14,6
E06000020,Telford and Wrekin,145008,1,16,28,46,2021-02-14,6
E08000030,Walsall,187157,1,12,22,35,2021-02-14,6
E10000031,Warwickshire,436094,5,38,115,163,2021-02-14,6
E08000031,Wolverhampton,188614,1,13,25,31,2021-02-14,6
E10000034,Worcestershire,467784,1,33,129,132,2021-02-14,6
E06000049,Cheshire East,361953,15,58,137,193,2021-02-14,6
E06000050,Cheshire West and Chester,208735,5,42,62,108,2021-02-14,6
E06000006,Halton,113880,1,16,33,48,2021-02-14,6
E08000011,Knowsley,129056,1,18,31,50,2021-02-14,6
E08000012,Liverpool,446627,10,86,154,237,2021-02-14,6
E08000014,Sefton,208648,1,32,77,83,2021-02-14,6
E08000013,St. Helens,157263,1,23,46,66,2021-02-14,6
E06000007,Warrington,128633,0,10,19,28,2021-02-14,6
E08000015,Wirral,230111,1,33,77,107,2021-02-14,6
E06000008,Blackburn with Darwen,127701,13,23,23,48,2021-02-14,6
E06000009,Blackpool,105839,1,26,30,57,2021-02-14,6
E10000006,Cumbria,396151,10,47,155,174,2021-02-14,6
E10000017,Lancashire,949231,16,113,256,348,2021-02-14,6
E08000001,Bolton,169348,1,14,32,59,2021-02-14,6
E08000002,Bury,-,NA,NA,NA,NA,2021-02-14,6
E08000003,Manchester,507476,14,72,98,164,2021-02-14,6
E08000004,Oldham,196886,1,22,58,82,2021-02-14,6
E08000005,Rochdale,188273,1,24,42,61,2021-02-14,6
E08000006,Salford,147422,1,19,43,56,2021-02-14,6
E08000007,Stockport,244524,10,24,66,94,2021-02-14,6
E08000008,Tameside,181369,0,21,43,56,2021-02-14,6
E08000009,Trafford,199436,1,21,47,73,2021-02-14,6
E08000010,Wigan,182682,1,21,51,73,2021-02-14,6
E06000047,County Durham,142870,1,17,32,61,2021-02-14,6
E06000005,Darlington,26780,0,1,1,12,2021-02-14,6
E08000037,Gateshead,155700,0,28,49,73,2021-02-14,6
E06000001,Hartlepool,9863,0,0,0,NA,2021-02-14,6
E06000002,Middlesbrough,19844,0,1,15,17,2021-02-14,6
E08000021,Newcastle upon Tyne,199503,0,16,49,56,2021-02-14,6
E08000022,North Tyneside,118283,0,14,45,57,2021-02-14,6
E06000057,Northumberland,77697,5,8,19,29,2021-02-14,6
E06000003,Redcar and Cleveland,51623,1,1,11,12,2021-02-14,6
E08000023,South Tyneside,106459,1,11,35,37,2021-02-14,6
E06000004,Stockton-on-Tees,80183,0,5,1,14,2021-02-14,6
E08000024,Sunderland,227472,1,12,39,49,2021-02-14,6
E08000016,Barnsley,156250,1,13,46,41,2021-02-14,6
E08000032,Bradford,406517,0,18,37,83,2021-02-14,6
E08000033,Calderdale,91240,1,6,14,23,2021-02-14,6
E08000017,Doncaster,153681,1,22,31,48,2021-02-14,6
E06000011,East Riding of Yorkshire,109212,0,18,60,55,2021-02-14,6
E06000010,"Kingston upon Hull, City of",42757,0,1,7,12,2021-02-14,6
E08000034,Kirklees,130362,1,8,25,47,2021-02-14,6
E08000035,Leeds,440640,1,24,83,113,2021-02-14,6
E06000012,North East Lincolnshire,61478,1,10,26,32,2021-02-14,6
E06000013,North Lincolnshire,70514,0,1,12,15,2021-02-14,6
E10000023,North Yorkshire,368452,1,30,74,127,2021-02-14,6
E08000018,Rotherham,73746,0,7,24,33,2021-02-14,6
E08000019,Sheffield,222796,0,9,24,42,2021-02-14,6
E08000036,Wakefield,143494,0,1,14,26,2021-02-14,6
E06000014,York,42958,1,7,11,17,2021-02-14,6
E06000022,Bath and North East Somerset,82311,1,1,14,19,2021-02-14,6
E06000023,"Bristol, City of",438767,5,61,152,173,2021-02-14,6
E10000013,Gloucestershire,169622,5,16,55,60,2021-02-14,6
E06000024,North Somerset,140174,0,16,65,57,2021-02-14,6
E06000025,South Gloucestershire,230515,1,16,113,91,2021-02-14,6
E06000030,Swindon,39473,0,1,1,1,2021-02-14,6
E06000054,Wiltshire,194431,0,1,31,45,2021-02-14,6
E06000052,Cornwall (including Isles of Scilly),226216,0,21,56,62,2021-02-14,6
E10000008,Devon,333706,0,6,54,48,2021-02-14,6
E06000026,Plymouth,62001,0,1,9,13,2021-02-14,6
E10000027,Somerset,427520,1,83,181,240,2021-02-14,6
E06000027,Torbay,119386,1,16,28,32,2021-02-14,6
E06000028,Bournemouth,82670,0,0,1,1,2021-02-14,6
E10000009,Dorset,173173,0,0,12,25,2021-02-14,6
E06000029,Poole,42884,0,1,1,15,2021-02-14,6
E06000043,Brighton and Hove,159283,1,16,22,39,2021-02-14,6
E10000011,East Sussex,402599,5,42,187,138,2021-02-14,6
E10000016,Kent,1153359,12,88,222,283,2021-02-14,6
E06000035,Medway,258430,0,17,40,56,2021-02-14,6
E10000030,Surrey,1021777,12,88,239,299,2021-02-14,6
E10000032,West Sussex,380537,8,28,81,115,2021-02-14,6
E06000036,Bracknell Forest,98540,1,1,11,21,2021-02-14,6
E10000002,Buckinghamshire,459837,1,47,104,146,2021-02-14,6
E10000025,Oxfordshire,598855,17,85,163,236,2021-02-14,6
E06000038,Reading,137666,0,12,32,40,2021-02-14,6
E06000039,Slough,123175,1,9,14,27,2021-02-14,6
E06000037,West Berkshire,137666,0,12,32,40,2021-02-14,6
E06000040,Windsor and Maidenhead,126695,1,9,15,27,2021-02-14,6
E06000041,Wokingham,137666,0,12,32,40,2021-02-14,6
E10000014,Hampshire,1073805,32,108,270,355,2021-02-14,6
E06000046,Isle of Wight,92165,NA,0,9,14,2021-02-14,6
E06000044,Portsmouth,180901,0,1,13,25,2021-02-14,6
E06000045,Southampton,202354,1,23,26,56,2021-02-14,6
