CODE,NAME,TOTAL_POP,Flu_OBS,Vom_OBS,Diarr_OBS,Gastro_OBS,lastdate,week
E09000002,Barking and Dagenham,160667,1,8,14,26,2020-08-30,35
E09000003,Barnet,250213,1,28,63,87,2020-08-30,35
E09000004,Bexley,73679,0,7,11,15,2020-08-30,35
E09000005,Brent,263752,10,26,49,67,2020-08-30,35
E09000006,Bromley,196357,1,17,36,56,2020-08-30,35
E09000007,Camden,227412,1,19,80,87,2020-08-30,35
E09000008,Croydon,273671,0,18,45,67,2020-08-30,35
E09000009,Ealing,32309,0,0,1,1,2020-08-30,35
E09000010,Enfield,233903,1,22,47,67,2020-08-30,35
E09000011,Greenwich,67255,0,5,15,13,2020-08-30,35
E09000012,Hackney (including City of London),201156,1,27,49,90,2020-08-30,35
E09000013,Hammersmith and Fulham,43598,0,1,0,1,2020-08-30,35
E09000014,Haringey,209320,1,14,33,56,2020-08-30,35
E09000015,Harrow,219253,1,19,38,66,2020-08-30,35
E09000016,Havering,181859,0,12,19,42,2020-08-30,35
E09000017,Hillingdon,209345,1,19,60,83,2020-08-30,35
E09000018,Hounslow,112150,0,1,6,14,2020-08-30,35
E09000019,Islington,171265,1,13,44,73,2020-08-30,35
E09000020,Kensington and Chelsea,28715,0,0,0,1,2020-08-30,35
E09000021,Kingston upon Thames,134251,1,9,27,41,2020-08-30,35
E09000022,Lambeth,233411,0,16,43,67,2020-08-30,35
E09000023,Lewisham,161886,1,16,40,56,2020-08-30,35
E09000024,Merton,131226,1,6,26,31,2020-08-30,35
E09000025,Newham,224122,1,12,38,64,2020-08-30,35
E09000026,Redbridge,165058,1,8,22,32,2020-08-30,35
E09000027,Richmond upon Thames,71180,0,1,9,10,2020-08-30,35
E09000028,Southwark,188850,1,15,41,61,2020-08-30,35
E09000029,Sutton,126080,1,6,25,29,2020-08-30,35
E09000030,Tower Hamlets,169057,6,27,50,85,2020-08-30,35
E09000031,Waltham Forest,165705,1,8,25,41,2020-08-30,35
E09000032,Wandsworth,264050,0,16,46,67,2020-08-30,35
E09000033,Westminster,2465,0,0,1,0,2020-08-30,35
E10000003,Cambridgeshire,235512,1,11,60,75,2020-08-30,35
E10000012,Essex,542356,0,26,84,106,2020-08-30,35
E10000020,Norfolk,290916,1,17,89,83,2020-08-30,35
E06000031,Peterborough,129720,0,1,13,32,2020-08-30,35
E06000033,Southend-on-Sea,2749,0,0,1,5,2020-08-30,35
E10000029,Suffolk,196935,1,9,31,45,2020-08-30,35
E06000034,Thurrock,70305,0,1,5,11,2020-08-30,35
E06000055,Bedford,36964,0,1,1,7,2020-08-30,35
E06000056,Central Bedfordshire,126498,0,6,21,26,2020-08-30,35
E10000015,Hertfordshire,538393,1,60,166,216,2020-08-30,35
E06000032,Luton,99892,0,1,10,20,2020-08-30,35
E06000042,Milton Keynes,272562,0,7,18,42,2020-08-30,35
E06000015,Derby,68420,1,1,13,23,2020-08-30,35
E10000007,Derbyshire,186231,0,10,38,62,2020-08-30,35
E06000016,Leicester,185502,0,1,16,45,2020-08-30,35
E10000018,Leicestershire (including Rutland),231140,0,10,34,52,2020-08-30,35
E10000019,Lincolnshire,214782,1,9,53,69,2020-08-30,35
E06000018,Nottingham,128457,0,17,27,49,2020-08-30,35
E10000024,Nottinghamshire,179447,0,9,31,54,2020-08-30,35
E10000021,Northamptonshire,292355,1,33,73,108,2020-08-30,35
E08000025,Birmingham,578195,5,51,127,209,2020-08-30,35
E08000026,Coventry,228560,1,27,36,75,2020-08-30,35
E08000027,Dudley,202859,1,28,49,69,2020-08-30,35
E06000019,"Herefordshire, County of",137769,1,19,66,71,2020-08-30,35
E08000028,Sandwell,104848,0,1,5,18,2020-08-30,35
E06000051,Shropshire,148657,0,17,71,81,2020-08-30,35
E08000029,Solihull,113507,1,1,31,43,2020-08-30,35
E10000028,Staffordshire,520438,1,63,146,197,2020-08-30,35
E06000021,Stoke-on-Trent,163170,1,33,52,82,2020-08-30,35
E06000020,Telford and Wrekin,153046,0,13,41,56,2020-08-30,35
E08000030,Walsall,195759,0,17,32,45,2020-08-30,35
E10000031,Warwickshire,329589,1,40,106,154,2020-08-30,35
E08000031,Wolverhampton,189333,0,13,24,40,2020-08-30,35
E10000034,Worcestershire,394817,1,29,122,138,2020-08-30,35
E06000049,Cheshire East,301775,1,57,142,183,2020-08-30,35
E06000050,Cheshire West and Chester,158831,1,35,69,93,2020-08-30,35
E06000006,Halton,87466,0,19,35,50,2020-08-30,35
E08000011,Knowsley,82239,5,9,24,30,2020-08-30,35
E08000012,Liverpool,311674,1,59,95,166,2020-08-30,35
E08000014,Sefton,184507,0,33,70,104,2020-08-30,35
E08000013,St. Helens,120786,1,27,49,70,2020-08-30,35
E06000007,Warrington,121684,1,9,25,47,2020-08-30,35
E08000015,Wirral,194704,1,32,102,145,2020-08-30,35
E06000008,Blackburn with Darwen,97267,1,10,16,26,2020-08-30,35
E06000009,Blackpool,75719,1,12,24,38,2020-08-30,35
E10000006,Cumbria,348980,8,31,150,172,2020-08-30,35
E10000017,Lancashire,752140,5,107,241,340,2020-08-30,35
E08000001,Bolton,118578,0,10,27,41,2020-08-30,35
E08000002,Bury,-,NA,NA,NA,NA,2020-08-30,35
E08000003,Manchester,403972,1,38,87,139,2020-08-30,35
E08000004,Oldham,146370,1,17,40,61,2020-08-30,35
E08000005,Rochdale,139845,0,19,37,50,2020-08-30,35
E08000006,Salford,73148,1,5,10,16,2020-08-30,35
E08000007,Stockport,201874,0,16,53,76,2020-08-30,35
E08000008,Tameside,156827,1,22,24,41,2020-08-30,35
E08000009,Trafford,129865,1,18,33,57,2020-08-30,35
E08000010,Wigan,141788,0,22,44,72,2020-08-30,35
E06000047,County Durham,126111,0,12,41,57,2020-08-30,35
E06000005,Darlington,26798,0,1,1,1,2020-08-30,35
E08000037,Gateshead,108829,1,14,45,46,2020-08-30,35
E06000001,Hartlepool,5939,0,1,1,1,2020-08-30,35
E06000002,Middlesbrough,19197,0,1,12,12,2020-08-30,35
E08000021,Newcastle upon Tyne,150711,1,13,30,41,2020-08-30,35
E08000022,North Tyneside,114713,0,13,40,52,2020-08-30,35
E06000057,Northumberland,58765,0,1,24,31,2020-08-30,35
E06000003,Redcar and Cleveland,35534,0,1,7,11,2020-08-30,35
E08000023,South Tyneside,93058,1,11,38,48,2020-08-30,35
E06000004,Stockton-on-Tees,78994,0,5,11,29,2020-08-30,35
E08000024,Sunderland,195677,1,27,42,64,2020-08-30,35
E08000016,Barnsley,126595,0,5,15,17,2020-08-30,35
E08000032,Bradford,406531,0,15,37,74,2020-08-30,35
E08000033,Calderdale,80605,1,5,11,25,2020-08-30,35
E08000017,Doncaster,146681,1,12,38,57,2020-08-30,35
E06000011,East Riding of Yorkshire,90469,1,15,48,49,2020-08-30,35
E06000010,"Kingston upon Hull, City of",47304,1,1,10,12,2020-08-30,35
E08000034,Kirklees,131726,1,9,29,43,2020-08-30,35
E08000035,Leeds,387798,1,25,94,105,2020-08-30,35
E06000012,North East Lincolnshire,48760,0,6,18,23,2020-08-30,35
E06000013,North Lincolnshire,74812,1,1,12,15,2020-08-30,35
E10000023,North Yorkshire,332907,1,26,76,112,2020-08-30,35
E08000018,Rotherham,72732,1,8,24,35,2020-08-30,35
E08000019,Sheffield,206417,1,7,25,57,2020-08-30,35
E08000036,Wakefield,155647,0,5,12,36,2020-08-30,35
E06000014,York,31318,1,6,12,17,2020-08-30,35
E06000022,Bath and North East Somerset,83189,0,1,21,28,2020-08-30,35
E06000023,"Bristol, City of",355196,6,58,157,183,2020-08-30,35
E10000013,Gloucestershire,169989,0,14,49,63,2020-08-30,35
E06000024,North Somerset,156154,1,21,108,101,2020-08-30,35
E06000025,South Gloucestershire,155320,1,17,76,78,2020-08-30,35
E06000030,Swindon,39551,0,1,1,3,2020-08-30,35
E06000054,Wiltshire,189189,0,6,16,27,2020-08-30,35
E06000052,Cornwall (including Isles of Scilly),165134,1,16,58,78,2020-08-30,35
E10000008,Devon,325774,0,12,57,74,2020-08-30,35
E06000026,Plymouth,45079,0,1,11,12,2020-08-30,35
E10000027,Somerset,353835,1,62,183,240,2020-08-30,35
E06000027,Torbay,84917,0,5,27,23,2020-08-30,35
E06000028,Bournemouth,82561,1,1,5,14,2020-08-30,35
E10000009,Dorset,170954,0,1,23,28,2020-08-30,35
E06000029,Poole,42856,0,1,1,10,2020-08-30,35
E06000043,Brighton and Hove,140210,0,18,42,69,2020-08-30,35
E10000011,East Sussex,352348,1,41,170,161,2020-08-30,35
E10000016,Kent,797692,1,67,178,234,2020-08-30,35
E06000035,Medway,223960,1,26,57,79,2020-08-30,35
E10000030,Surrey,840633,8,65,205,248,2020-08-30,35
E10000032,West Sussex,356334,1,38,108,152,2020-08-30,35
E06000036,Bracknell Forest,90281,1,11,24,34,2020-08-30,35
E10000002,Buckinghamshire,385131,1,43,130,174,2020-08-30,35
E10000025,Oxfordshire,470629,10,64,150,215,2020-08-30,35
E06000038,Reading,83893,1,8,21,28,2020-08-30,35
E06000039,Slough,112851,1,13,29,42,2020-08-30,35
E06000037,West Berkshire,83893,1,8,21,28,2020-08-30,35
E06000040,Windsor and Maidenhead,116075,1,14,30,44,2020-08-30,35
E06000041,Wokingham,83893,1,8,21,28,2020-08-30,35
E10000014,Hampshire,915719,21,94,264,382,2020-08-30,35
E06000046,Isle of Wight,91865,NA,1,1,23,2020-08-30,35
E06000044,Portsmouth,181708,0,1,1,16,2020-08-30,35
E06000045,Southampton,157922,0,10,33,46,2020-08-30,35
