CODE,NAME,TOTAL_POP,Flu_OBS,Vom_OBS,Diarr_OBS,Gastro_OBS,lastdate,week
E09000002,Barking and Dagenham,91615,17,17,19,47,2014-03-30,13
E09000003,Barnet,318729,29,93,133,237,2014-03-30,13
E09000004,Bexley,39092,1,11,15,29,2014-03-30,13
E09000005,Brent,285817,44,86,117,229,2014-03-30,13
E09000006,Bromley,308592,20,50,103,171,2014-03-30,13
E09000007,Camden,256538,27,83,120,230,2014-03-30,13
E09000008,Croydon,278553,24,53,74,165,2014-03-30,13
E09000009,Ealing,238888,9,43,53,119,2014-03-30,13
E09000010,Enfield,202610,15,73,106,186,2014-03-30,13
E09000011,Greenwich,62864,7,22,39,71,2014-03-30,13
E09000012,Hackney (including City of London),244720,28,82,120,238,2014-03-30,13
E09000013,Hammersmith and Fulham,43948,0,1,6,32,2014-03-30,13
E09000014,Haringey,214940,23,61,76,152,2014-03-30,13
E09000015,Harrow,174808,24,54,84,150,2014-03-30,13
E09000016,Havering,54290,5,1,10,16,2014-03-30,13
E09000017,Hillingdon,253366,12,67,104,204,2014-03-30,13
E09000018,Hounslow,89325,1,18,15,47,2014-03-30,13
E09000019,Islington,220319,37,70,101,210,2014-03-30,13
E09000020,Kensington and Chelsea,114954,8,6,11,31,2014-03-30,13
E09000021,Kingston upon Thames,77321,1,22,20,42,2014-03-30,13
E09000022,Lambeth,301302,41,79,126,232,2014-03-30,13
E09000023,Lewisham,292055,32,105,165,280,2014-03-30,13
E09000024,Merton,184338,21,48,70,123,2014-03-30,13
E09000025,Newham,359787,41,68,95,239,2014-03-30,13
E09000026,Redbridge,130367,1,24,43,83,2014-03-30,13
E09000027,Richmond upon Thames,28110,1,9,11,18,2014-03-30,13
E09000028,Southwark,280363,49,97,123,241,2014-03-30,13
E09000029,Sutton,177109,21,46,67,119,2014-03-30,13
E09000030,Tower Hamlets,274765,39,116,148,281,2014-03-30,13
E09000031,Waltham Forest,107579,9,21,24,63,2014-03-30,13
E09000032,Wandsworth,375761,48,105,140,287,2014-03-30,13
E09000033,Westminster,138596,10,15,44,81,2014-03-30,13
E10000003,Cambridgeshire,289385,32,54,112,186,2014-03-30,13
E10000012,Essex,688451,21,53,146,359,2014-03-30,13
E10000020,Norfolk,394261,23,67,156,286,2014-03-30,13
E06000031,Peterborough,99680,1,11,18,66,2014-03-30,13
E06000033,Southend-on-Sea,36907,5,1,6,19,2014-03-30,13
E10000029,Suffolk,400612,18,52,132,227,2014-03-30,13
E06000034,Thurrock,58965,1,1,5,25,2014-03-30,13
E06000015,Derby,74669,0,11,19,83,2014-03-30,13
E10000007,Derbyshire,269975,13,72,130,220,2014-03-30,13
E06000016,Leicester,119057,1,19,37,130,2014-03-30,13
E10000018,Leicestershire (including Rutland),454846,27,107,180,357,2014-03-30,13
E10000019,Lincolnshire,282115,10,58,109,178,2014-03-30,13
E06000018,Nottingham,181207,1,38,48,121,2014-03-30,13
E10000024,Nottinghamshire,247050,7,36,85,179,2014-03-30,13
E06000055,Bedford,27197,1,5,10,17,2014-03-30,13
E06000056,Central Bedfordshire,100210,5,14,41,123,2014-03-30,13
E10000015,Hertfordshire,601533,48,107,232,377,2014-03-30,13
E06000032,Luton,84212,7,21,24,77,2014-03-30,13
E06000042,Milton Keynes,73247,1,8,19,69,2014-03-30,13
E10000021,Northamptonshire,335816,23,65,103,228,2014-03-30,13
E08000025,Birmingham,738243,70,192,295,566,2014-03-30,13
E08000026,Coventry,264703,12,57,83,161,2014-03-30,13
E08000027,Dudley,178350,12,32,72,114,2014-03-30,13
E06000019,"Herefordshire, County of",163409,9,49,101,147,2014-03-30,13
E08000028,Sandwell,145196,11,33,60,143,2014-03-30,13
E06000051,Shropshire,204501,25,38,83,139,2014-03-30,13
E08000029,Solihull,80776,1,13,36,82,2014-03-30,13
E10000028,Staffordshire,550337,42,147,247,381,2014-03-30,13
E06000021,Stoke-on-Trent,188792,7,48,82,146,2014-03-30,13
E06000020,Telford and Wrekin,42475,1,11,15,24,2014-03-30,13
E08000030,Walsall,262902,11,39,59,127,2014-03-30,13
E10000031,Warwickshire,315693,18,69,140,237,2014-03-30,13
E08000031,Wolverhampton,179833,22,27,39,72,2014-03-30,13
E10000034,Worcestershire,513023,43,118,247,360,2014-03-30,13
E06000049,Cheshire East,445421,29,145,226,369,2014-03-30,13
E06000050,Cheshire West and Chester,221674,15,87,136,214,2014-03-30,13
E06000006,Halton,88532,1,29,47,73,2014-03-30,13
E08000011,Knowsley,139688,6,35,52,83,2014-03-30,13
E08000012,Liverpool,331466,21,89,168,276,2014-03-30,13
E08000014,Sefton,240030,14,57,106,184,2014-03-30,13
E08000013,St. Helens,122259,7,40,65,101,2014-03-30,13
E06000007,Warrington,86871,1,18,32,113,2014-03-30,13
E08000015,Wirral,231294,12,64,120,204,2014-03-30,13
E06000008,Blackburn with Darwen,153905,8,34,37,107,2014-03-30,13
E06000009,Blackpool,139724,8,25,69,98,2014-03-30,13
E10000006,Cumbria,361387,28,95,168,269,2014-03-30,13
E10000017,Lancashire,1068292,61,284,495,886,2014-03-30,13
E08000001,Bolton,50455,0,12,22,47,2014-03-30,13
E08000002,Bury,NA,NA,NA,NA,NA,2014-03-30,13
E08000003,Manchester,354262,27,108,167,291,2014-03-30,13
E08000004,Oldham,183528,5,35,57,105,2014-03-30,13
E08000005,Rochdale,130664,7,30,75,111,2014-03-30,13
E08000006,Salford,35732,1,8,14,21,2014-03-30,13
E08000007,Stockport,117683,6,30,44,71,2014-03-30,13
E08000008,Tameside,132283,1,32,51,81,2014-03-30,13
E08000009,Trafford,107676,1,29,48,77,2014-03-30,13
E08000010,Wigan,143351,6,24,38,86,2014-03-30,13
E06000047,County Durham,255388,1,38,51,108,2014-03-30,13
E06000005,Darlington,29038,0,1,1,17,2014-03-30,13
E08000020,Gateshead,171082,12,46,70,111,2014-03-30,13
E06000001,Hartlepool,17836,0,0,7,8,2014-03-30,13
E06000002,Middlesbrough,16099,1,1,1,14,2014-03-30,13
E08000021,Newcastle upon Tyne,205713,11,31,48,95,2014-03-30,13
E08000022,North Tyneside,123986,1,20,34,70,2014-03-30,13
E06000048,Northumberland,205572,5,46,72,131,2014-03-30,13
E06000003,Redcar and Cleveland,63692,1,6,21,35,2014-03-30,13
E08000023,South Tyneside,140280,7,31,58,84,2014-03-30,13
E06000004,Stockton-on-Tees,52984,1,16,11,28,2014-03-30,13
E08000024,Sunderland,172833,1,26,55,96,2014-03-30,13
E08000016,Barnsley,163541,5,22,44,71,2014-03-30,13
E08000032,Bradford,300368,7,40,72,319,2014-03-30,13
E08000033,Calderdale,95170,1,15,41,95,2014-03-30,13
E08000017,Doncaster,146370,16,19,40,102,2014-03-30,13
E06000011,East Riding of Yorkshire,109253,7,29,49,74,2014-03-30,13
E06000010,"Kingston upon Hull, City of",54883,1,10,19,33,2014-03-30,13
E08000034,Kirklees,159989,10,35,57,137,2014-03-30,13
E08000035,Leeds,442357,20,86,187,407,2014-03-30,13
E06000012,North East Lincolnshire,75945,1,21,30,73,2014-03-30,13
E06000013,North Lincolnshire,61556,1,1,13,26,2014-03-30,13
E10000023,North Yorkshire,311681,20,53,118,225,2014-03-30,13
E08000018,Rotherham,115428,8,36,57,103,2014-03-30,13
E08000019,Sheffield,206003,6,1,44,117,2014-03-30,13
E08000036,Wakefield,140276,5,27,52,143,2014-03-30,13
E06000014,York,72118,5,16,37,59,2014-03-30,13
E06000022,Bath and North East Somerset,116298,6,1,21,41,2014-03-30,13
E06000023,"Bristol, City of",453671,40,142,248,395,2014-03-30,13
E10000013,Gloucestershire,231490,17,43,80,140,2014-03-30,13
E06000024,North Somerset,176930,13,40,107,144,2014-03-30,13
E06000025,South Gloucestershire,230277,12,52,136,191,2014-03-30,13
E06000030,Swindon,54763,1,1,15,23,2014-03-30,13
E06000054,Wiltshire,141043,1,10,27,72,2014-03-30,13
E06000052,Cornwall (including Isles of Scilly),86376,10,25,46,70,2014-03-30,13
E10000008,Devon,251345,1,19,58,123,2014-03-30,13
E06000026,Plymouth,105207,18,22,35,72,2014-03-30,13
E10000027,Somerset,458525,34,154,286,454,2014-03-30,13
E06000027,Torbay,30450,1,7,12,22,2014-03-30,13
E06000043,Brighton and Hove,145983,15,22,44,95,2014-03-30,13
E10000011,East Sussex,267313,20,81,141,236,2014-03-30,13
E10000016,Kent,679958,61,175,327,521,2014-03-30,13
E06000035,Medway,76529,10,22,37,62,2014-03-30,13
E10000030,Surrey,873404,51,149,330,525,2014-03-30,13
E10000032,West Sussex,385413,24,74,179,339,2014-03-30,13
E06000036,Bracknell Forest,79537,11,13,21,42,2014-03-30,13
E10000002,Buckinghamshire,416348,30,122,211,358,2014-03-30,13
E10000025,Oxfordshire,492918,52,131,251,386,2014-03-30,13
E06000038,Reading,94139,6,17,38,63,2014-03-30,13
E06000039,Slough,193560,20,34,64,116,2014-03-30,13
E06000037,West Berkshire,94139,6,17,38,63,2014-03-30,13
E06000040,Windsor and Maidenhead,102262,14,17,27,54,2014-03-30,13
E06000041,Wokingham,NA,NA,NA,NA,NA,2014-03-30,13
E06000028,Bournemouth,117745,1,11,31,65,2014-03-30,13
E10000009,Dorset,219313,11,14,42,93,2014-03-30,13
E10000014,Hampshire,770582,45,178,284,460,2014-03-30,13
E06000046,Isle of Wight,NA,NA,NA,NA,NA,2014-03-30,13
E06000029,Poole,90215,1,9,24,43,2014-03-30,13
E06000044,Portsmouth,110116,22,21,36,64,2014-03-30,13
E06000045,Southampton,104189,5,13,16,48,2014-03-30,13
