CODE,NAME,TOTAL_POP,Flu_OBS,Vom_OBS,Diarr_OBS,Gastro_OBS,lastdate,week
E09000002,Barking and Dagenham,109074,13,13,20,52,2016-01-24,3
E09000003,Barnet,357934,65,73,129,213,2016-01-24,3
E09000004,Bexley,39933,11,20,22,39,2016-01-24,3
E09000005,Brent,366143,78,86,114,232,2016-01-24,3
E09000006,Bromley,330986,31,38,92,154,2016-01-24,3
E09000007,Camden,256892,34,56,110,182,2016-01-24,3
E09000008,Croydon,299366,37,70,96,199,2016-01-24,3
E09000009,Ealing,43260,1,1,8,19,2016-01-24,3
E09000010,Enfield,287251,44,60,73,177,2016-01-24,3
E09000011,Greenwich,67772,14,11,21,45,2016-01-24,3
E09000012,Hackney (including City of London),285932,63,65,102,211,2016-01-24,3
E09000013,Hammersmith and Fulham,31935,1,1,1,12,2016-01-24,3
E09000014,Haringey,255322,29,51,79,149,2016-01-24,3
E09000015,Harrow,252989,53,65,87,162,2016-01-24,3
E09000016,Havering,77945,1,11,28,41,2016-01-24,3
E09000017,Hillingdon,302082,33,69,106,212,2016-01-24,3
E09000018,Hounslow,112171,1,9,11,54,2016-01-24,3
E09000019,Islington,234997,42,66,111,195,2016-01-24,3
E09000020,Kensington and Chelsea,25749,1,1,6,19,2016-01-24,3
E09000021,Kingston upon Thames,160666,24,35,52,90,2016-01-24,3
E09000022,Lambeth,356975,56,62,106,199,2016-01-24,3
E09000023,Lewisham,321900,47,86,152,254,2016-01-24,3
E09000024,Merton,182356,15,43,66,114,2016-01-24,3
E09000025,Newham,371707,54,60,115,242,2016-01-24,3
E09000026,Redbridge,170051,19,17,41,87,2016-01-24,3
E09000027,Richmond upon Thames,35351,1,6,15,26,2016-01-24,3
E09000028,Southwark,287737,47,64,95,183,2016-01-24,3
E09000029,Sutton,175205,15,41,63,109,2016-01-24,3
E09000030,Tower Hamlets,294518,63,101,142,289,2016-01-24,3
E09000031,Waltham Forest,214170,18,43,55,125,2016-01-24,3
E09000032,Wandsworth,396236,63,63,112,205,2016-01-24,3
E09000033,Westminster,15734,0,0,1,NA,2016-01-24,3
E10000003,Cambridgeshire,331172,48,32,106,218,2016-01-24,3
E10000012,Essex,708960,36,71,175,392,2016-01-24,3
E10000020,Norfolk,411417,29,52,173,295,2016-01-24,3
E06000031,Peterborough,97239,7,11,18,69,2016-01-24,3
E06000033,Southend-on-Sea,36624,1,7,6,16,2016-01-24,3
E10000029,Suffolk,318158,30,42,110,193,2016-01-24,3
E06000034,Thurrock,69221,1,6,10,53,2016-01-24,3
E06000055,Bedford,32563,1,8,5,37,2016-01-24,3
E06000056,Central Bedfordshire,108957,1,14,48,141,2016-01-24,3
E10000015,Hertfordshire,644933,66,122,185,364,2016-01-24,3
E06000032,Luton,86991,1,13,15,68,2016-01-24,3
E06000042,Milton Keynes,255457,1,15,56,270,2016-01-24,3
E06000015,Derby,72264,8,19,32,108,2016-01-24,3
E10000007,Derbyshire,307928,23,47,110,186,2016-01-24,3
E06000016,Leicester,173325,5,13,29,102,2016-01-24,3
E10000018,Leicestershire (including Rutland),456625,20,81,173,320,2016-01-24,3
E10000019,Lincolnshire,321724,17,51,100,198,2016-01-24,3
E06000018,Nottingham,182589,19,42,63,120,2016-01-24,3
E10000024,Nottinghamshire,233171,14,30,72,193,2016-01-24,3
E10000021,Northamptonshire,341537,35,33,99,216,2016-01-24,3
E08000025,Birmingham,776767,98,169,263,523,2016-01-24,3
E08000026,Coventry,265148,31,53,87,157,2016-01-24,3
E08000027,Dudley,298377,23,32,73,119,2016-01-24,3
E06000019,"Herefordshire, County of",168978,32,28,91,109,2016-01-24,3
E08000028,Sandwell,127403,1,10,22,55,2016-01-24,3
E06000051,Shropshire,258808,30,50,108,177,2016-01-24,3
E08000029,Solihull,94917,1,23,52,116,2016-01-24,3
E10000028,Staffordshire,721699,87,144,272,431,2016-01-24,3
E06000021,Stoke-on-Trent,199358,23,56,75,152,2016-01-24,3
E06000020,Telford and Wrekin,153675,14,36,46,96,2016-01-24,3
E08000030,Walsall,253459,19,42,65,123,2016-01-24,3
E10000031,Warwickshire,410172,44,93,149,245,2016-01-24,3
E08000031,Wolverhampton,231104,19,30,63,108,2016-01-24,3
E10000034,Worcestershire,551831,58,86,190,275,2016-01-24,3
E06000049,Cheshire East,454410,60,117,223,333,2016-01-24,3
E06000050,Cheshire West and Chester,255398,41,87,156,243,2016-01-24,3
E06000006,Halton,118851,17,24,44,76,2016-01-24,3
E08000011,Knowsley,162676,24,35,37,71,2016-01-24,3
E08000012,Liverpool,453501,93,125,191,356,2016-01-24,3
E08000014,Sefton,263850,28,55,119,176,2016-01-24,3
E08000013,St. Helens,164128,23,34,60,104,2016-01-24,3
E06000007,Warrington,107923,6,19,32,116,2016-01-24,3
E08000015,Wirral,324377,71,81,154,245,2016-01-24,3
E06000008,Blackburn with Darwen,168778,15,37,48,114,2016-01-24,3
E06000009,Blackpool,151231,12,32,53,93,2016-01-24,3
E10000006,Cumbria,445571,70,114,220,312,2016-01-24,3
E10000017,Lancashire,1183805,126,244,456,781,2016-01-24,3
E08000001,Bolton,71189,9,14,31,57,2016-01-24,3
E08000002,Bury,NA,NA,NA,NA,NA,2016-01-24,3
E08000003,Manchester,565818,63,142,227,421,2016-01-24,3
E08000004,Oldham,226536,39,90,85,192,2016-01-24,3
E08000005,Rochdale,211901,28,67,115,192,2016-01-24,3
E08000006,Salford,45283,8,8,14,26,2016-01-24,3
E08000007,Stockport,246311,28,24,85,126,2016-01-24,3
E08000008,Tameside,191763,12,41,58,116,2016-01-24,3
E08000009,Trafford,169671,11,33,62,102,2016-01-24,3
E08000010,Wigan,140285,16,32,51,100,2016-01-24,3
E06000047,County Durham,210019,13,29,91,143,2016-01-24,3
E06000005,Darlington,38325,1,6,1,29,2016-01-24,3
E08000037,Gateshead,205564,31,72,86,175,2016-01-24,3
E06000001,Hartlepool,15166,1,1,1,1,2016-01-24,3
E06000002,Middlesbrough,16989,0,6,10,1,2016-01-24,3
E08000021,Newcastle upon Tyne,208918,17,32,54,113,2016-01-24,3
E08000022,North Tyneside,163680,11,29,42,95,2016-01-24,3
E06000057,Northumberland,209633,19,31,74,109,2016-01-24,3
E06000003,Redcar and Cleveland,50021,1,1,10,26,2016-01-24,3
E08000023,South Tyneside,158725,19,48,76,117,2016-01-24,3
E06000004,Stockton-on-Tees,78831,1,7,18,72,2016-01-24,3
E08000024,Sunderland,275176,17,36,84,128,2016-01-24,3
E08000016,Barnsley,179587,7,19,37,70,2016-01-24,3
E08000032,Bradford,391674,18,33,69,233,2016-01-24,3
E08000033,Calderdale,103778,1,21,36,97,2016-01-24,3
E08000017,Doncaster,181307,20,31,39,98,2016-01-24,3
E06000011,East Riding of Yorkshire,152682,17,24,68,97,2016-01-24,3
E06000010,"Kingston upon Hull, City of",74775,0,11,20,41,2016-01-24,3
E08000034,Kirklees,187921,13,23,43,118,2016-01-24,3
E08000035,Leeds,539067,35,67,161,343,2016-01-24,3
E06000012,North East Lincolnshire,74850,0,12,34,68,2016-01-24,3
E06000013,North Lincolnshire,85274,1,12,13,67,2016-01-24,3
E10000023,North Yorkshire,342218,30,61,107,227,2016-01-24,3
E08000018,Rotherham,109660,9,29,56,108,2016-01-24,3
E08000019,Sheffield,285135,18,31,60,135,2016-01-24,3
E08000036,Wakefield,172963,11,19,30,93,2016-01-24,3
E06000014,York,88040,7,17,29,51,2016-01-24,3
E06000022,Bath and North East Somerset,122861,9,20,46,76,2016-01-24,3
E06000023,"Bristol, City of",476409,77,145,271,418,2016-01-24,3
E10000013,Gloucestershire,219395,28,41,92,170,2016-01-24,3
E06000024,North Somerset,216363,30,40,127,155,2016-01-24,3
E06000025,South Gloucestershire,251473,24,73,150,224,2016-01-24,3
E06000030,Swindon,73632,1,1,10,22,2016-01-24,3
E06000054,Wiltshire,199339,7,8,32,115,2016-01-24,3
E06000052,Cornwall (including Isles of Scilly),105075,13,39,53,86,2016-01-24,3
E10000008,Devon,325568,24,23,91,127,2016-01-24,3
E06000026,Plymouth,102749,15,30,39,70,2016-01-24,3
E10000027,Somerset,516590,75,145,291,449,2016-01-24,3
E06000027,Torbay,69535,1,1,17,25,2016-01-24,3
E06000028,Bournemouth,150634,11,15,33,69,2016-01-24,3
E10000009,Dorset,230517,11,14,36,78,2016-01-24,3
E06000029,Poole,106385,9,15,26,55,2016-01-24,3
E06000043,Brighton and Hove,145994,12,26,49,104,2016-01-24,3
E10000011,East Sussex,358575,50,68,156,212,2016-01-24,3
E10000016,Kent,785798,91,133,302,438,2016-01-24,3
E06000035,Medway,91352,7,27,31,50,2016-01-24,3
E10000030,Surrey,1013820,77,164,354,573,2016-01-24,3
E10000032,West Sussex,440203,35,73,152,300,2016-01-24,3
E06000036,Bracknell Forest,97018,8,19,30,57,2016-01-24,3
E10000002,Buckinghamshire,496287,49,115,171,315,2016-01-24,3
E10000025,Oxfordshire,611890,102,147,232,416,2016-01-24,3
E06000038,Reading,106786,15,13,30,53,2016-01-24,3
E06000039,Slough,228058,25,37,68,124,2016-01-24,3
E06000037,West Berkshire,106786,15,13,30,53,2016-01-24,3
E06000040,Windsor and Maidenhead,124737,10,24,39,73,2016-01-24,3
E06000041,Wokingham,NA,NA,NA,NA,NA,2016-01-24,3
E10000014,Hampshire,1128907,125,237,396,632,2016-01-24,3
E06000046,Isle of Wight,NA,NA,NA,NA,NA,2016-01-24,3
E06000044,Portsmouth,59520,1,6,10,39,2016-01-24,3
E06000045,Southampton,169852,1,23,35,88,2016-01-24,3
