CODE,NAME,TOTAL_POP,Flu_OBS,Vom_OBS,Diarr_OBS,Gastro_OBS,lastdate,week
E09000002,Barking and Dagenham,201185,1,5,13,14,2021-02-28,8
E09000003,Barnet,385712,6,29,69,99,2021-02-28,8
E09000004,Bexley,205694,0,6,27,37,2021-02-28,8
E09000005,Brent,390442,1,39,53,99,2021-02-28,8
E09000006,Bromley,326315,1,17,43,60,2021-02-28,8
E09000007,Camden,277097,1,22,74,89,2021-02-28,8
E09000008,Croydon,364774,1,20,37,56,2021-02-28,8
E09000009,Ealing,36260,0,1,1,7,2021-02-28,8
E09000010,Enfield,298231,1,15,43,60,2021-02-28,8
E09000011,Greenwich,129871,0,13,31,44,2021-02-28,8
E09000012,Hackney (including City of London),312202,8,36,41,105,2021-02-28,8
E09000013,Hammersmith and Fulham,44232,0,1,1,13,2021-02-28,8
E09000014,Haringey,292299,1,18,39,66,2021-02-28,8
E09000015,Harrow,257744,1,22,57,82,2021-02-28,8
E09000016,Havering,249684,1,11,20,41,2021-02-28,8
E09000017,Hillingdon,300658,1,38,62,95,2021-02-28,8
E09000018,Hounslow,111937,0,5,1,9,2021-02-28,8
E09000019,Islington,248731,0,27,75,114,2021-02-28,8
E09000020,Kensington and Chelsea,29324,0,0,1,1,2021-02-28,8
E09000021,Kingston upon Thames,206587,1,13,34,55,2021-02-28,8
E09000022,Lambeth,396556,1,27,47,73,2021-02-28,8
E09000023,Lewisham,311419,1,34,53,94,2021-02-28,8
E09000024,Merton,187767,1,11,30,43,2021-02-28,8
E09000025,Newham,376216,1,25,39,77,2021-02-28,8
E09000026,Redbridge,298293,0,9,32,41,2021-02-28,8
E09000027,Richmond upon Thames,170791,0,10,33,39,2021-02-28,8
E09000028,Southwark,310160,1,15,40,60,2021-02-28,8
E09000029,Sutton,180403,0,10,29,41,2021-02-28,8
E09000030,Tower Hamlets,321691,5,46,75,143,2021-02-28,8
E09000031,Waltham Forest,246357,1,13,18,36,2021-02-28,8
E09000032,Wandsworth,371326,5,20,55,82,2021-02-28,8
E09000033,Westminster,2677,0,0,1,1,2021-02-28,8
E10000003,Cambridgeshire,278440,1,12,33,58,2021-02-28,8
E10000012,Essex,592080,7,18,74,91,2021-02-28,8
E10000020,Norfolk,331474,0,8,112,74,2021-02-28,8
E06000031,Peterborough,130088,0,1,13,29,2021-02-28,8
E06000033,Southend-on-Sea,2738,0,1,1,1,2021-02-28,8
E10000029,Suffolk,229605,0,12,46,57,2021-02-28,8
E06000034,Thurrock,71680,0,1,0,1,2021-02-28,8
E06000055,Bedford,37337,0,1,1,11,2021-02-28,8
E06000056,Central Bedfordshire,146256,0,1,23,25,2021-02-28,8
E10000015,Hertfordshire,736683,5,49,163,203,2021-02-28,8
E06000032,Luton,124292,0,1,8,23,2021-02-28,8
E06000042,Milton Keynes,272699,1,1,29,35,2021-02-28,8
E06000015,Derby,64041,0,1,25,43,2021-02-28,8
E10000007,Derbyshire,265213,1,16,59,79,2021-02-28,8
E06000016,Leicester,179994,0,1,15,35,2021-02-28,8
E10000018,Leicestershire (including Rutland),242110,0,7,35,49,2021-02-28,8
E10000019,Lincolnshire,278774,0,13,57,49,2021-02-28,8
E06000018,Nottingham,180849,0,15,33,42,2021-02-28,8
E10000024,Nottinghamshire,178901,0,12,40,62,2021-02-28,8
E10000021,Northamptonshire,316175,1,22,58,91,2021-02-28,8
E08000025,Birmingham,817324,6,69,116,201,2021-02-28,8
E08000026,Coventry,375206,1,26,51,83,2021-02-28,8
E08000027,Dudley,313699,1,22,67,85,2021-02-28,8
E06000019,"Herefordshire, County of",178899,1,22,78,92,2021-02-28,8
E08000028,Sandwell,140655,1,6,15,31,2021-02-28,8
E06000051,Shropshire,289740,1,38,103,125,2021-02-28,8
E08000029,Solihull,109874,0,10,28,48,2021-02-28,8
E10000028,Staffordshire,776867,7,89,213,261,2021-02-28,8
E06000021,Stoke-on-Trent,260197,1,38,80,108,2021-02-28,8
E06000020,Telford and Wrekin,179991,0,21,52,67,2021-02-28,8
E08000030,Walsall,265124,0,14,29,39,2021-02-28,8
E10000031,Warwickshire,542177,1,63,161,209,2021-02-28,8
E08000031,Wolverhampton,259996,1,13,47,59,2021-02-28,8
E10000034,Worcestershire,568543,1,66,178,198,2021-02-28,8
E06000049,Cheshire East,444533,10,66,158,201,2021-02-28,8
E06000050,Cheshire West and Chester,238602,6,37,89,124,2021-02-28,8
E06000006,Halton,118989,1,21,34,52,2021-02-28,8
E08000011,Knowsley,150397,1,20,49,69,2021-02-28,8
E08000012,Liverpool,482877,6,57,147,206,2021-02-28,8
E08000014,Sefton,243843,1,36,77,101,2021-02-28,8
E08000013,St. Helens,164317,1,28,48,72,2021-02-28,8
E06000007,Warrington,134507,1,7,22,36,2021-02-28,8
E08000015,Wirral,299064,7,68,127,181,2021-02-28,8
E06000008,Blackburn with Darwen,158453,11,26,43,75,2021-02-28,8
E06000009,Blackpool,130449,1,21,38,58,2021-02-28,8
E10000006,Cumbria,467464,1,71,180,219,2021-02-28,8
E10000017,Lancashire,1119028,14,124,305,422,2021-02-28,8
E08000001,Bolton,182941,1,16,36,61,2021-02-28,8
E08000002,Bury,-,NA,NA,NA,NA,2021-02-28,8
E08000003,Manchester,579667,6,69,116,209,2021-02-28,8
E08000004,Oldham,232551,1,33,61,96,2021-02-28,8
E08000005,Rochdale,213719,1,22,61,73,2021-02-28,8
E08000006,Salford,160769,1,17,37,57,2021-02-28,8
E08000007,Stockport,288459,5,25,67,98,2021-02-28,8
E08000008,Tameside,218877,1,21,62,86,2021-02-28,8
E08000009,Trafford,211870,1,17,43,63,2021-02-28,8
E08000010,Wigan,204464,1,36,49,85,2021-02-28,8
E06000047,County Durham,171138,1,29,54,89,2021-02-28,8
E06000005,Darlington,26776,0,1,11,14,2021-02-28,8
E08000037,Gateshead,190180,1,36,91,106,2021-02-28,8
E06000001,Hartlepool,9868,0,0,0,0,2021-02-28,8
E06000002,Middlesbrough,25017,0,1,8,10,2021-02-28,8
E08000021,Newcastle upon Tyne,227581,0,20,56,67,2021-02-28,8
E08000022,North Tyneside,137355,1,14,43,64,2021-02-28,8
E06000057,Northumberland,84469,1,10,21,38,2021-02-28,8
E06000003,Redcar and Cleveland,53611,0,1,10,15,2021-02-28,8
E08000023,South Tyneside,145799,1,13,51,52,2021-02-28,8
E06000004,Stockton-on-Tees,79175,1,5,7,20,2021-02-28,8
E08000024,Sunderland,263646,1,14,61,65,2021-02-28,8
E08000016,Barnsley,178898,1,11,49,36,2021-02-28,8
E08000032,Bradford,406581,0,12,29,77,2021-02-28,8
E08000033,Calderdale,91219,1,1,16,22,2021-02-28,8
E08000017,Doncaster,176708,1,17,41,53,2021-02-28,8
E06000011,East Riding of Yorkshire,127682,1,18,54,43,2021-02-28,8
E06000010,"Kingston upon Hull, City of",42781,0,6,12,19,2021-02-28,8
E08000034,Kirklees,156594,0,15,31,42,2021-02-28,8
E08000035,Leeds,478300,6,33,75,128,2021-02-28,8
E06000012,North East Lincolnshire,65289,1,7,24,25,2021-02-28,8
E06000013,North Lincolnshire,74392,0,1,16,13,2021-02-28,8
E10000023,North Yorkshire,394262,1,26,94,145,2021-02-28,8
E08000018,Rotherham,82130,1,14,29,36,2021-02-28,8
E08000019,Sheffield,261575,1,13,57,79,2021-02-28,8
E08000036,Wakefield,157670,0,1,18,29,2021-02-28,8
E06000014,York,51518,1,6,15,21,2021-02-28,8
E06000022,Bath and North East Somerset,81909,0,1,17,26,2021-02-28,8
E06000023,"Bristol, City of",510560,7,76,231,239,2021-02-28,8
E10000013,Gloucestershire,196504,1,20,51,76,2021-02-28,8
E06000024,North Somerset,206644,1,33,104,101,2021-02-28,8
E06000025,South Gloucestershire,246731,0,29,152,115,2021-02-28,8
E06000030,Swindon,49060,0,1,1,1,2021-02-28,8
E06000054,Wiltshire,194597,0,7,42,39,2021-02-28,8
E06000052,Cornwall (including Isles of Scilly),291472,6,33,86,112,2021-02-28,8
E10000008,Devon,377555,1,17,65,67,2021-02-28,8
E06000026,Plymouth,73869,0,1,13,13,2021-02-28,8
E10000027,Somerset,533802,12,94,220,292,2021-02-28,8
E06000027,Torbay,135930,1,15,42,46,2021-02-28,8
E06000028,Bournemouth,82688,0,1,0,1,2021-02-28,8
E10000009,Dorset,174154,0,1,19,23,2021-02-28,8
E06000029,Poole,42905,0,1,1,14,2021-02-28,8
E06000043,Brighton and Hove,171333,1,16,35,52,2021-02-28,8
E10000011,East Sussex,453432,8,51,216,167,2021-02-28,8
E10000016,Kent,1405439,10,95,289,345,2021-02-28,8
E06000035,Medway,287736,1,25,61,92,2021-02-28,8
E10000030,Surrey,1135663,8,72,257,291,2021-02-28,8
E10000032,West Sussex,411743,7,38,110,149,2021-02-28,8
E06000036,Bracknell Forest,109986,1,11,17,27,2021-02-28,8
E10000002,Buckinghamshire,534988,5,59,130,168,2021-02-28,8
E10000025,Oxfordshire,704428,7,79,200,267,2021-02-28,8
E06000038,Reading,162304,1,14,40,44,2021-02-28,8
E06000039,Slough,137482,1,14,22,34,2021-02-28,8
E06000037,West Berkshire,162304,1,14,40,44,2021-02-28,8
E06000040,Windsor and Maidenhead,141411,1,15,22,35,2021-02-28,8
E06000041,Wokingham,162304,1,14,40,44,2021-02-28,8
E10000014,Hampshire,1238163,17,145,323,439,2021-02-28,8
E06000046,Isle of Wight,92171,0,5,12,19,2021-02-28,8
E06000044,Portsmouth,180699,0,0,8,23,2021-02-28,8
E06000045,Southampton,213125,1,17,31,53,2021-02-28,8
