CODE,NAME,TOTAL_POP,Flu_OBS,Vom_OBS,Diarr_OBS,Gastro_OBS,lastdate,week
E09000002,Barking and Dagenham,95666,14,13,27,55,2014-11-02,44
E09000003,Barnet,350316,19,82,144,237,2014-11-02,44
E09000004,Bexley,36407,1,5,8,18,2014-11-02,44
E09000005,Brent,328550,38,95,134,223,2014-11-02,44
E09000006,Bromley,313834,18,29,70,123,2014-11-02,44
E09000007,Camden,251932,24,48,85,156,2014-11-02,44
E09000008,Croydon,285506,24,51,88,152,2014-11-02,44
E09000009,Ealing,175826,1,9,9,32,2014-11-02,44
E09000010,Enfield,205106,23,55,57,114,2014-11-02,44
E09000011,Greenwich,57309,6,11,17,40,2014-11-02,44
E09000012,Hackney (including City of London),253767,26,58,96,194,2014-11-02,44
E09000013,Hammersmith and Fulham,26537,0,5,1,24,2014-11-02,44
E09000014,Haringey,207629,12,35,67,137,2014-11-02,44
E09000015,Harrow,180092,20,39,63,119,2014-11-02,44
E09000016,Havering,53136,1,5,17,21,2014-11-02,44
E09000017,Hillingdon,279516,22,58,85,159,2014-11-02,44
E09000018,Hounslow,105671,1,7,15,72,2014-11-02,44
E09000019,Islington,224914,30,55,82,160,2014-11-02,44
E09000020,Kensington and Chelsea,39927,0,0,1,11,2014-11-02,44
E09000021,Kingston upon Thames,76010,5,11,23,47,2014-11-02,44
E09000022,Lambeth,297228,29,59,112,212,2014-11-02,44
E09000023,Lewisham,287642,29,79,119,241,2014-11-02,44
E09000024,Merton,184763,13,41,72,120,2014-11-02,44
E09000025,Newham,364560,48,64,82,188,2014-11-02,44
E09000026,Redbridge,144360,0,22,42,77,2014-11-02,44
E09000027,Richmond upon Thames,35834,1,6,9,16,2014-11-02,44
E09000028,Southwark,278068,24,73,114,196,2014-11-02,44
E09000029,Sutton,177517,12,40,69,116,2014-11-02,44
E09000030,Tower Hamlets,282212,36,83,144,261,2014-11-02,44
E09000031,Waltham Forest,130507,10,19,27,57,2014-11-02,44
E09000032,Wandsworth,362969,23,52,127,238,2014-11-02,44
E09000033,Westminster,62924,0,0,0,0,2014-11-02,44
E10000003,Cambridgeshire,290202,12,49,110,209,2014-11-02,44
E10000012,Essex,737763,20,55,206,383,2014-11-02,44
E10000020,Norfolk,412547,13,78,214,342,2014-11-02,44
E06000031,Peterborough,102441,6,12,17,59,2014-11-02,44
E06000033,Southend-on-Sea,38219,1,7,10,27,2014-11-02,44
E10000029,Suffolk,330592,11,58,140,251,2014-11-02,44
E06000034,Thurrock,66017,1,5,6,47,2014-11-02,44
E06000015,Derby,76387,1,12,31,109,2014-11-02,44
E10000007,Derbyshire,302905,13,59,110,213,2014-11-02,44
E06000016,Leicester,166215,1,13,36,182,2014-11-02,44
E10000018,Leicestershire (including Rutland),472813,29,118,222,398,2014-11-02,44
E10000019,Lincolnshire,301715,12,43,78,164,2014-11-02,44
E06000018,Nottingham,192428,10,19,41,95,2014-11-02,44
E10000024,Nottinghamshire,280262,5,40,78,179,2014-11-02,44
E06000055,Bedford,41670,1,1,8,31,2014-11-02,44
E06000056,Central Bedfordshire,122273,1,19,41,122,2014-11-02,44
E10000015,Hertfordshire,581841,22,109,199,370,2014-11-02,44
E06000032,Luton,94181,10,1,18,42,2014-11-02,44
E06000042,Milton Keynes,216887,0,28,56,240,2014-11-02,44
E10000021,Northamptonshire,362241,7,67,134,260,2014-11-02,44
E08000025,Birmingham,716282,41,180,248,527,2014-11-02,44
E08000026,Coventry,270435,18,45,87,148,2014-11-02,44
E08000027,Dudley,258641,12,45,90,151,2014-11-02,44
E06000019,"Herefordshire, County of",171992,6,45,109,154,2014-11-02,44
E08000028,Sandwell,154386,11,25,52,129,2014-11-02,44
E06000051,Shropshire,233410,12,64,109,171,2014-11-02,44
E08000029,Solihull,103318,1,12,40,76,2014-11-02,44
E10000028,Staffordshire,605686,31,133,256,431,2014-11-02,44
E06000021,Stoke-on-Trent,193471,15,73,99,174,2014-11-02,44
E06000020,Telford and Wrekin,105893,9,27,23,52,2014-11-02,44
E08000030,Walsall,245218,9,26,57,101,2014-11-02,44
E10000031,Warwickshire,314050,21,60,116,200,2014-11-02,44
E08000031,Wolverhampton,193682,1,50,71,148,2014-11-02,44
E10000034,Worcestershire,557657,19,126,246,383,2014-11-02,44
E06000049,Cheshire East,425072,21,103,215,317,2014-11-02,44
E06000050,Cheshire West and Chester,230566,16,76,144,209,2014-11-02,44
E06000006,Halton,104642,7,37,49,93,2014-11-02,44
E08000011,Knowsley,147964,1,32,55,86,2014-11-02,44
E08000012,Liverpool,370081,27,94,173,296,2014-11-02,44
E08000014,Sefton,246141,1,66,123,197,2014-11-02,44
E08000013,St. Helens,144505,10,51,68,129,2014-11-02,44
E06000007,Warrington,101261,0,14,33,107,2014-11-02,44
E08000015,Wirral,243583,20,76,143,242,2014-11-02,44
E06000008,Blackburn with Darwen,166855,9,50,70,152,2014-11-02,44
E06000009,Blackpool,136610,6,40,62,101,2014-11-02,44
E10000006,Cumbria,372594,16,77,218,290,2014-11-02,44
E10000017,Lancashire,1138416,71,280,491,844,2014-11-02,44
E08000001,Bolton,70565,1,27,24,62,2014-11-02,44
E08000002,Bury,0,0,0,0,0,2014-11-02,44
E08000003,Manchester,503217,40,152,214,393,2014-11-02,44
E08000004,Oldham,177002,5,37,61,119,2014-11-02,44
E08000005,Rochdale,134720,1,35,54,108,2014-11-02,44
E08000006,Salford,21500,1,9,11,18,2014-11-02,44
E08000007,Stockport,148149,11,35,62,102,2014-11-02,44
E08000008,Tameside,135221,1,22,51,93,2014-11-02,44
E08000009,Trafford,119637,1,29,61,92,2014-11-02,44
E08000010,Wigan,148221,20,34,41,99,2014-11-02,44
E06000047,County Durham,219038,8,49,79,137,2014-11-02,44
E06000005,Darlington,41163,0,1,1,24,2014-11-02,44
E08000020,Gateshead,145726,1,40,72,117,2014-11-02,44
E06000001,Hartlepool,17206,1,1,1,1,2014-11-02,44
E06000002,Middlesbrough,16375,1,1,10,1,2014-11-02,44
E08000021,Newcastle upon Tyne,176305,8,25,61,126,2014-11-02,44
E08000022,North Tyneside,146944,5,37,52,106,2014-11-02,44
E06000048,Northumberland,211252,1,42,76,122,2014-11-02,44
E06000003,Redcar and Cleveland,51103,1,10,11,28,2014-11-02,44
E08000023,South Tyneside,139341,7,37,77,125,2014-11-02,44
E06000004,Stockton-on-Tees,65384,0,12,26,50,2014-11-02,44
E08000024,Sunderland,225465,6,53,66,119,2014-11-02,44
E08000016,Barnsley,178773,5,17,48,95,2014-11-02,44
E08000032,Bradford,378843,1,48,98,331,2014-11-02,44
E08000033,Calderdale,99151,5,26,38,90,2014-11-02,44
E08000017,Doncaster,169857,1,32,59,136,2014-11-02,44
E06000011,East Riding of Yorkshire,120858,1,32,75,96,2014-11-02,44
E06000010,"Kingston upon Hull, City of",76258,1,11,16,33,2014-11-02,44
E08000034,Kirklees,182148,9,25,62,131,2014-11-02,44
E08000035,Leeds,508842,18,79,153,390,2014-11-02,44
E06000012,North East Lincolnshire,75548,1,19,37,68,2014-11-02,44
E06000013,North Lincolnshire,83321,1,11,11,58,2014-11-02,44
E10000023,North Yorkshire,347601,16,55,139,247,2014-11-02,44
E08000018,Rotherham,118495,1,26,53,85,2014-11-02,44
E08000019,Sheffield,258906,5,23,51,148,2014-11-02,44
E08000036,Wakefield,172959,7,24,50,124,2014-11-02,44
E06000014,York,84667,1,18,43,76,2014-11-02,44
E06000022,Bath and North East Somerset,130464,1,1,29,73,2014-11-02,44
E06000023,"Bristol, City of",453085,33,158,231,388,2014-11-02,44
E10000013,Gloucestershire,218238,14,36,88,145,2014-11-02,44
E06000024,North Somerset,186665,7,37,105,152,2014-11-02,44
E06000025,South Gloucestershire,220636,18,69,111,182,2014-11-02,44
E06000030,Swindon,72667,1,1,12,27,2014-11-02,44
E06000054,Wiltshire,176466,1,12,37,79,2014-11-02,44
E06000052,Cornwall (including Isles of Scilly),83249,1,22,44,74,2014-11-02,44
E10000008,Devon,276920,9,23,79,132,2014-11-02,44
E06000026,Plymouth,89732,1,29,61,90,2014-11-02,44
E10000027,Somerset,443175,52,162,313,473,2014-11-02,44
E06000027,Torbay,47811,0,11,21,37,2014-11-02,44
E06000043,Brighton and Hove,142864,9,39,54,97,2014-11-02,44
E10000011,East Sussex,300789,13,61,146,205,2014-11-02,44
E10000016,Kent,688622,29,136,300,461,2014-11-02,44
E06000035,Medway,79924,1,19,26,47,2014-11-02,44
E10000030,Surrey,880780,41,186,363,573,2014-11-02,44
E10000032,West Sussex,392311,1,71,185,301,2014-11-02,44
E06000036,Bracknell Forest,90378,7,19,28,56,2014-11-02,44
E10000002,Buckinghamshire,442085,23,100,175,296,2014-11-02,44
E10000025,Oxfordshire,517874,33,119,266,395,2014-11-02,44
E06000038,Reading,102551,1,22,32,60,2014-11-02,44
E06000039,Slough,215523,12,45,67,130,2014-11-02,44
E06000037,West Berkshire,102551,1,22,32,60,2014-11-02,44
E06000040,Windsor and Maidenhead,116200,9,24,36,72,2014-11-02,44
E06000041,Wokingham,0,0,0,0,0,2014-11-02,44
E06000028,Bournemouth,135644,1,7,25,55,2014-11-02,44
E10000009,Dorset,236089,1,24,45,96,2014-11-02,44
E10000014,Hampshire,883299,43,218,360,589,2014-11-02,44
E06000046,Isle of Wight,0,0,0,0,0,2014-11-02,44
E06000029,Poole,89180,1,5,19,37,2014-11-02,44
E06000044,Portsmouth,107963,6,15,31,51,2014-11-02,44
E06000045,Southampton,156205,1,29,42,124,2014-11-02,44
