CODE,NAME,TOTAL_POP,Flu_OBS,Vom_OBS,Diarr_OBS,Gastro_OBS,lastdate,week
E09000002,Barking and Dagenham,165838,6,17,35,60,2019-10-06,40
E09000003,Barnet,236748,17,30,84,125,2019-10-06,40
E09000004,Bexley,62948,0,10,25,37,2019-10-06,40
E09000005,Brent,238851,7,27,54,99,2019-10-06,40
E09000006,Bromley,194762,5,20,54,84,2019-10-06,40
E09000007,Camden,180158,8,20,85,105,2019-10-06,40
E09000008,Croydon,180272,7,16,32,51,2019-10-06,40
E09000009,Ealing,37719,0,1,1,14,2019-10-06,40
E09000010,Enfield,179484,5,23,50,92,2019-10-06,40
E09000011,Greenwich,54903,1,14,15,36,2019-10-06,40
E09000012,Hackney (including City of London),200940,12,46,81,162,2019-10-06,40
E09000013,Hammersmith and Fulham,42949,0,1,1,23,2019-10-06,40
E09000014,Haringey,194942,9,22,40,75,2019-10-06,40
E09000015,Harrow,180870,16,30,47,113,2019-10-06,40
E09000016,Havering,148755,5,15,35,60,2019-10-06,40
E09000017,Hillingdon,220534,14,34,75,138,2019-10-06,40
E09000018,Hounslow,106757,1,1,14,33,2019-10-06,40
E09000019,Islington,139230,8,30,54,94,2019-10-06,40
E09000020,Kensington and Chelsea,26147,0,0,0,1,2019-10-06,40
E09000021,Kingston upon Thames,153417,1,14,33,61,2019-10-06,40
E09000022,Lambeth,217350,13,21,47,95,2019-10-06,40
E09000023,Lewisham,206980,6,40,57,124,2019-10-06,40
E09000024,Merton,104189,7,21,30,52,2019-10-06,40
E09000025,Newham,300923,23,46,65,164,2019-10-06,40
E09000026,Redbridge,165257,5,25,31,76,2019-10-06,40
E09000027,Richmond upon Thames,40724,0,1,13,25,2019-10-06,40
E09000028,Southwark,253682,11,24,51,89,2019-10-06,40
E09000029,Sutton,100103,7,21,29,49,2019-10-06,40
E09000030,Tower Hamlets,216553,12,48,96,164,2019-10-06,40
E09000031,Waltham Forest,194132,5,17,46,75,2019-10-06,40
E09000032,Wandsworth,300425,15,42,79,156,2019-10-06,40
E09000033,Westminster,2329,0,0,0,1,2019-10-06,40
E10000003,Cambridgeshire,243847,1,12,45,108,2019-10-06,40
E10000012,Essex,530088,1,29,94,195,2019-10-06,40
E10000020,Norfolk,275238,11,17,76,111,2019-10-06,40
E06000031,Peterborough,126961,1,9,38,96,2019-10-06,40
E06000033,Southend-on-Sea,2717,0,0,1,1,2019-10-06,40
E10000029,Suffolk,208538,0,17,68,113,2019-10-06,40
E06000034,Thurrock,66172,0,5,1,1,2019-10-06,40
E06000055,Bedford,33374,0,5,12,42,2019-10-06,40
E06000056,Central Bedfordshire,124724,1,11,44,102,2019-10-06,40
E10000015,Hertfordshire,457368,22,52,119,226,2019-10-06,40
E06000032,Luton,99743,1,9,29,77,2019-10-06,40
E06000042,Milton Keynes,270119,1,27,56,216,2019-10-06,40
E06000015,Derby,70131,1,6,16,47,2019-10-06,40
E10000007,Derbyshire,195587,1,18,70,110,2019-10-06,40
E06000016,Leicester,181214,1,9,22,107,2019-10-06,40
E10000018,Leicestershire (including Rutland),236204,1,22,41,108,2019-10-06,40
E10000019,Lincolnshire,219082,1,17,52,97,2019-10-06,40
E06000018,Nottingham,116797,1,15,27,57,2019-10-06,40
E10000024,Nottinghamshire,186127,5,9,56,102,2019-10-06,40
E10000021,Northamptonshire,267165,7,28,66,141,2019-10-06,40
E08000025,Birmingham,543577,24,93,170,313,2019-10-06,40
E08000026,Coventry,239767,14,34,76,149,2019-10-06,40
E08000027,Dudley,216436,6,29,58,97,2019-10-06,40
E06000019,"Herefordshire, County of",138983,9,33,75,102,2019-10-06,40
E08000028,Sandwell,110089,5,8,24,57,2019-10-06,40
E06000051,Shropshire,206105,5,23,95,115,2019-10-06,40
E08000029,Solihull,109670,1,16,46,106,2019-10-06,40
E10000028,Staffordshire,573391,16,84,228,323,2019-10-06,40
E06000021,Stoke-on-Trent,193781,6,53,75,149,2019-10-06,40
E06000020,Telford and Wrekin,97785,0,12,32,54,2019-10-06,40
E08000030,Walsall,164371,5,19,41,75,2019-10-06,40
E10000031,Warwickshire,284846,17,55,124,192,2019-10-06,40
E08000031,Wolverhampton,129124,1,7,25,41,2019-10-06,40
E10000034,Worcestershire,307068,10,42,111,158,2019-10-06,40
E06000049,Cheshire East,299266,8,47,136,188,2019-10-06,40
E06000050,Cheshire West and Chester,182067,12,45,95,141,2019-10-06,40
E06000006,Halton,82487,1,16,32,56,2019-10-06,40
E08000011,Knowsley,92098,1,11,20,40,2019-10-06,40
E08000012,Liverpool,357370,23,76,155,253,2019-10-06,40
E08000014,Sefton,204839,10,33,97,135,2019-10-06,40
E08000013,St. Helens,113911,1,23,44,77,2019-10-06,40
E06000007,Warrington,112721,1,9,29,73,2019-10-06,40
E08000015,Wirral,219433,8,61,123,195,2019-10-06,40
E06000008,Blackburn with Darwen,115082,10,17,35,65,2019-10-06,40
E06000009,Blackpool,81857,1,18,35,66,2019-10-06,40
E10000006,Cumbria,366754,15,57,186,237,2019-10-06,40
E10000017,Lancashire,837733,34,145,320,515,2019-10-06,40
E08000001,Bolton,85296,1,15,19,48,2019-10-06,40
E08000002,Bury,0,NA,NA,NA,NA,2019-10-06,40
E08000003,Manchester,388822,17,64,108,228,2019-10-06,40
E08000004,Oldham,163388,13,42,51,121,2019-10-06,40
E08000005,Rochdale,163131,5,34,60,116,2019-10-06,40
E08000006,Salford,78198,8,11,20,36,2019-10-06,40
E08000007,Stockport,196844,5,21,65,102,2019-10-06,40
E08000008,Tameside,157453,30,33,47,93,2019-10-06,40
E08000009,Trafford,175070,7,33,71,108,2019-10-06,40
E08000010,Wigan,129164,1,20,40,80,2019-10-06,40
E06000047,County Durham,152383,1,11,61,114,2019-10-06,40
E06000005,Darlington,26912,1,5,10,27,2019-10-06,40
E08000037,Gateshead,152421,7,33,83,121,2019-10-06,40
E06000001,Hartlepool,9917,0,0,0,0,2019-10-06,40
E06000002,Middlesbrough,8847,0,1,6,8,2019-10-06,40
E08000021,Newcastle upon Tyne,199436,1,27,47,100,2019-10-06,40
E08000022,North Tyneside,104317,1,11,24,48,2019-10-06,40
E06000057,Northumberland,80854,26,21,40,72,2019-10-06,40
E06000003,Redcar and Cleveland,38313,0,1,7,18,2019-10-06,40
E08000023,South Tyneside,104082,1,17,40,56,2019-10-06,40
E06000004,Stockton-on-Tees,81583,1,13,18,80,2019-10-06,40
E08000024,Sunderland,194948,14,29,64,101,2019-10-06,40
E08000016,Barnsley,141484,1,11,38,54,2019-10-06,40
E08000032,Bradford,396062,6,30,58,250,2019-10-06,40
E08000033,Calderdale,79279,1,8,17,49,2019-10-06,40
E08000017,Doncaster,137667,1,9,25,56,2019-10-06,40
E06000011,East Riding of Yorkshire,92691,1,19,49,59,2019-10-06,40
E06000010,"Kingston upon Hull, City of",29061,1,1,9,15,2019-10-06,40
E08000034,Kirklees,127435,1,8,38,71,2019-10-06,40
E08000035,Leeds,438621,1,47,121,259,2019-10-06,40
E06000012,North East Lincolnshire,66197,8,13,38,55,2019-10-06,40
E06000013,North Lincolnshire,55030,0,1,11,32,2019-10-06,40
E10000023,North Yorkshire,319088,13,35,94,204,2019-10-06,40
E08000018,Rotherham,56754,1,11,33,52,2019-10-06,40
E08000019,Sheffield,250925,1,12,51,105,2019-10-06,40
E08000036,Wakefield,164538,1,1,29,62,2019-10-06,40
E06000014,York,36779,1,7,17,25,2019-10-06,40
E06000022,Bath and North East Somerset,78934,0,3,15,40,2019-10-06,40
E06000023,"Bristol, City of",334047,29,74,160,213,2019-10-06,40
E10000013,Gloucestershire,174270,6,30,56,104,2019-10-06,40
E06000024,North Somerset,138712,12,32,106,111,2019-10-06,40
E06000025,South Gloucestershire,164548,1,24,116,113,2019-10-06,40
E06000030,Swindon,47709,0,0,1,12,2019-10-06,40
E06000054,Wiltshire,187320,1,3,27,61,2019-10-06,40
E06000052,Cornwall (including Isles of Scilly),101022,1,21,33,56,2019-10-06,40
E10000008,Devon,288048,1,16,76,103,2019-10-06,40
E06000026,Plymouth,49273,1,2,6,7,2019-10-06,40
E10000027,Somerset,330587,20,81,203,287,2019-10-06,40
E06000027,Torbay,97831,1,10,35,44,2019-10-06,40
E06000028,Bournemouth,83035,0,0,1,18,2019-10-06,40
E10000009,Dorset,172842,1,9,35,63,2019-10-06,40
E06000029,Poole,42792,0,1,7,16,2019-10-06,40
E06000043,Brighton and Hove,141014,5,12,29,68,2019-10-06,40
E10000011,East Sussex,273355,6,41,152,175,2019-10-06,40
E10000016,Kent,632005,18,88,242,341,2019-10-06,40
E06000035,Medway,145020,5,24,37,70,2019-10-06,40
E10000030,Surrey,822299,20,85,262,376,2019-10-06,40
E10000032,West Sussex,356356,10,37,135,208,2019-10-06,40
E06000036,Bracknell Forest,71012,1,11,19,35,2019-10-06,40
E10000002,Buckinghamshire,384761,16,51,120,189,2019-10-06,40
E10000025,Oxfordshire,433611,22,87,167,289,2019-10-06,40
E06000038,Reading,99091,1,14,29,47,2019-10-06,40
E06000039,Slough,88765,1,13,23,44,2019-10-06,40
E06000037,West Berkshire,99091,1,14,29,47,2019-10-06,40
E06000040,Windsor and Maidenhead,91301,1,14,24,45,2019-10-06,40
E06000041,Wokingham,99091,1,14,29,47,2019-10-06,40
E10000014,Hampshire,807373,22,137,271,425,2019-10-06,40
E06000046,Isle of Wight,67239,1,0,16,49,2019-10-06,40
E06000044,Portsmouth,183168,1,9,22,73,2019-10-06,40
E06000045,Southampton,142202,0,14,31,64,2019-10-06,40
