CODE,NAME,TOTAL_POP,Flu_OBS,Vom_OBS,Diarr_OBS,Gastro_OBS,lastdate,week
E09000002,Barking and Dagenham,83740,5,20,36,63,2015-04-26,17
E09000003,Barnet,311368,24,74,122,205,2015-04-26,17
E09000004,Bexley,36657,1,8,19,26,2015-04-26,17
E09000005,Brent,255400,45,66,104,186,2015-04-26,17
E09000006,Bromley,249598,12,38,58,104,2015-04-26,17
E09000007,Camden,223807,15,40,88,144,2015-04-26,17
E09000008,Croydon,238026,14,44,74,147,2015-04-26,17
E09000009,Ealing,108766,1,1,11,23,2015-04-26,17
E09000010,Enfield,172200,9,36,57,107,2015-04-26,17
E09000011,Greenwich,52093,1,21,18,42,2015-04-26,17
E09000012,Hackney (including City of London),229616,20,39,81,145,2015-04-26,17
E09000013,Hammersmith and Fulham,31109,0,1,6,22,2015-04-26,17
E09000014,Haringey,202565,7,39,86,132,2015-04-26,17
E09000015,Harrow,153342,20,44,57,115,2015-04-26,17
E09000016,Havering,34719,1,11,5,17,2015-04-26,17
E09000017,Hillingdon,269576,11,79,106,198,2015-04-26,17
E09000018,Hounslow,106141,1,12,18,77,2015-04-26,17
E09000019,Islington,201075,12,52,93,174,2015-04-26,17
E09000020,Kensington and Chelsea,26559,1,1,1,5,2015-04-26,17
E09000021,Kingston upon Thames,65268,1,16,27,46,2015-04-26,17
E09000022,Lambeth,290101,24,68,118,203,2015-04-26,17
E09000023,Lewisham,240410,13,71,96,184,2015-04-26,17
E09000024,Merton,173731,19,29,64,109,2015-04-26,17
E09000025,Newham,332297,32,61,110,226,2015-04-26,17
E09000026,Redbridge,128614,6,18,35,77,2015-04-26,17
E09000027,Richmond upon Thames,36320,0,8,16,27,2015-04-26,17
E09000028,Southwark,237290,14,70,99,177,2015-04-26,17
E09000029,Sutton,166918,19,28,61,105,2015-04-26,17
E09000030,Tower Hamlets,247173,21,100,144,287,2015-04-26,17
E09000031,Waltham Forest,118667,12,16,33,75,2015-04-26,17
E09000032,Wandsworth,290340,16,67,96,217,2015-04-26,17
E09000033,Westminster,20877,0,0,1,0,2015-04-26,17
E10000003,Cambridgeshire,288174,25,34,82,179,2015-04-26,17
E10000012,Essex,629854,18,43,142,312,2015-04-26,17
E10000020,Norfolk,348520,7,39,142,226,2015-04-26,17
E06000031,Peterborough,95676,1,15,27,67,2015-04-26,17
E06000033,Southend-on-Sea,22310,1,5,1,11,2015-04-26,17
E10000029,Suffolk,307554,6,38,76,165,2015-04-26,17
E06000034,Thurrock,66741,0,8,1,45,2015-04-26,17
E06000015,Derby,72661,1,12,30,76,2015-04-26,17
E10000007,Derbyshire,261872,7,34,90,170,2015-04-26,17
E06000016,Leicester,168468,1,17,28,139,2015-04-26,17
E10000018,Leicestershire (including Rutland),449803,18,105,187,342,2015-04-26,17
E10000019,Lincolnshire,292845,1,25,78,168,2015-04-26,17
E06000018,Nottingham,177202,7,29,62,111,2015-04-26,17
E10000024,Nottinghamshire,265025,5,38,77,176,2015-04-26,17
E06000055,Bedford,37190,1,9,15,55,2015-04-26,17
E06000056,Central Bedfordshire,115447,5,11,28,105,2015-04-26,17
E10000015,Hertfordshire,567087,30,110,200,359,2015-04-26,17
E06000032,Luton,81991,1,12,18,65,2015-04-26,17
E06000042,Milton Keynes,258517,0,37,56,214,2015-04-26,17
E10000021,Northamptonshire,320140,9,42,78,200,2015-04-26,17
E08000025,Birmingham,690663,34,248,311,659,2015-04-26,17
E08000026,Coventry,221628,19,38,60,118,2015-04-26,17
E08000027,Dudley,248464,7,36,76,127,2015-04-26,17
E06000019,"Herefordshire, County of",145281,10,30,70,95,2015-04-26,17
E08000028,Sandwell,131928,1,24,53,92,2015-04-26,17
E06000051,Shropshire,195693,13,28,83,112,2015-04-26,17
E08000029,Solihull,94832,1,12,40,105,2015-04-26,17
E10000028,Staffordshire,563890,27,129,228,397,2015-04-26,17
E06000021,Stoke-on-Trent,155289,10,55,72,148,2015-04-26,17
E06000020,Telford and Wrekin,99796,1,19,33,56,2015-04-26,17
E08000030,Walsall,247067,5,31,76,130,2015-04-26,17
E10000031,Warwickshire,306720,15,68,152,223,2015-04-26,17
E08000031,Wolverhampton,174752,8,23,43,79,2015-04-26,17
E10000034,Worcestershire,490828,27,121,231,357,2015-04-26,17
E06000049,Cheshire East,356673,26,99,196,303,2015-04-26,17
E06000050,Cheshire West and Chester,211162,23,58,107,162,2015-04-26,17
E06000006,Halton,97970,6,29,50,84,2015-04-26,17
E08000011,Knowsley,108595,1,29,48,75,2015-04-26,17
E08000012,Liverpool,351400,28,125,197,320,2015-04-26,17
E08000014,Sefton,242629,15,51,94,157,2015-04-26,17
E08000013,St. Helens,135293,8,39,68,115,2015-04-26,17
E06000007,Warrington,87713,1,11,22,69,2015-04-26,17
E08000015,Wirral,226483,10,59,112,193,2015-04-26,17
E06000008,Blackburn with Darwen,160096,1,30,49,112,2015-04-26,17
E06000009,Blackpool,99032,1,22,40,66,2015-04-26,17
E10000006,Cumbria,326419,18,78,154,231,2015-04-26,17
E10000017,Lancashire,993805,39,269,439,797,2015-04-26,17
E08000001,Bolton,64863,6,23,31,63,2015-04-26,17
E08000002,Bury,0,0,0,0,0,2015-04-26,17
E08000003,Manchester,373288,26,120,165,296,2015-04-26,17
E08000004,Oldham,156312,1,47,62,131,2015-04-26,17
E08000005,Rochdale,120258,11,32,59,107,2015-04-26,17
E08000006,Salford,22219,1,8,12,16,2015-04-26,17
E08000007,Stockport,135704,1,30,38,91,2015-04-26,17
E08000008,Tameside,130166,15,29,55,86,2015-04-26,17
E08000009,Trafford,134139,7,25,72,106,2015-04-26,17
E08000010,Wigan,90288,1,10,30,53,2015-04-26,17
E06000047,County Durham,209895,10,34,73,124,2015-04-26,17
E06000005,Darlington,41094,0,1,10,21,2015-04-26,17
E08000020,Gateshead,177544,13,59,110,167,2015-04-26,17
E06000001,Hartlepool,18322,1,5,1,10,2015-04-26,17
E06000002,Middlesbrough,16538,0,1,1,9,2015-04-26,17
E08000021,Newcastle upon Tyne,157878,5,22,33,85,2015-04-26,17
E08000022,North Tyneside,156325,1,24,45,80,2015-04-26,17
E06000048,Northumberland,149572,1,23,45,67,2015-04-26,17
E06000003,Redcar and Cleveland,47745,0,5,12,25,2015-04-26,17
E08000023,South Tyneside,131264,9,43,56,92,2015-04-26,17
E06000004,Stockton-on-Tees,78017,1,7,14,40,2015-04-26,17
E08000024,Sunderland,253958,23,33,74,129,2015-04-26,17
E08000016,Barnsley,156570,7,20,38,91,2015-04-26,17
E08000032,Bradford,380934,1,50,77,279,2015-04-26,17
E08000033,Calderdale,89637,1,10,25,58,2015-04-26,17
E08000017,Doncaster,171586,6,30,68,119,2015-04-26,17
E06000011,East Riding of Yorkshire,119855,10,30,62,85,2015-04-26,17
E06000010,"Kingston upon Hull, City of",68189,1,13,18,45,2015-04-26,17
E08000034,Kirklees,176985,8,28,68,130,2015-04-26,17
E08000035,Leeds,496158,9,80,167,335,2015-04-26,17
E06000012,North East Lincolnshire,61496,1,15,33,64,2015-04-26,17
E06000013,North Lincolnshire,81214,1,6,17,44,2015-04-26,17
E10000023,North Yorkshire,331772,20,55,120,235,2015-04-26,17
E08000018,Rotherham,113837,1,28,73,112,2015-04-26,17
E08000019,Sheffield,249265,8,19,53,118,2015-04-26,17
E08000036,Wakefield,173769,11,28,43,107,2015-04-26,17
E06000014,York,84804,5,15,34,67,2015-04-26,17
E06000022,Bath and North East Somerset,116679,1,16,21,54,2015-04-26,17
E06000023,"Bristol, City of",375055,21,107,200,327,2015-04-26,17
E10000013,Gloucestershire,187894,10,44,69,139,2015-04-26,17
E06000024,North Somerset,144517,9,35,95,136,2015-04-26,17
E06000025,South Gloucestershire,210541,13,60,134,178,2015-04-26,17
E06000030,Swindon,54075,0,1,7,15,2015-04-26,17
E06000054,Wiltshire,182712,1,1,33,109,2015-04-26,17
E06000052,Cornwall (including Isles of Scilly),78174,13,20,44,67,2015-04-26,17
E10000008,Devon,272034,8,30,77,140,2015-04-26,17
E06000026,Plymouth,70376,1,23,48,73,2015-04-26,17
E10000027,Somerset,391012,36,137,254,383,2015-04-26,17
E06000027,Torbay,52479,1,11,32,46,2015-04-26,17
E06000043,Brighton and Hove,129292,8,24,47,94,2015-04-26,17
E10000011,East Sussex,257853,12,57,138,199,2015-04-26,17
E10000016,Kent,580082,49,113,231,358,2015-04-26,17
E06000035,Medway,74954,6,19,27,41,2015-04-26,17
E10000030,Surrey,777413,52,137,260,427,2015-04-26,17
E10000032,West Sussex,334301,13,48,119,231,2015-04-26,17
E06000036,Bracknell Forest,71351,1,13,25,45,2015-04-26,17
E10000002,Buckinghamshire,390181,23,71,174,255,2015-04-26,17
E10000025,Oxfordshire,457588,44,125,225,359,2015-04-26,17
E06000038,Reading,79256,6,11,33,53,2015-04-26,17
E06000039,Slough,168445,9,28,64,108,2015-04-26,17
E06000037,West Berkshire,79256,6,11,33,53,2015-04-26,17
E06000040,Windsor and Maidenhead,91737,1,17,32,57,2015-04-26,17
E06000041,Wokingham,0,0,0,0,0,2015-04-26,17
E06000028,Bournemouth,120888,1,6,27,49,2015-04-26,17
E10000009,Dorset,222788,7,34,62,115,2015-04-26,17
E10000014,Hampshire,738560,37,130,302,431,2015-04-26,17
E06000046,Isle of Wight,0,0,0,0,0,2015-04-26,17
E06000029,Poole,82820,1,6,23,41,2015-04-26,17
E06000044,Portsmouth,106959,5,20,34,56,2015-04-26,17
E06000045,Southampton,147882,5,20,36,83,2015-04-26,17
