CODE,NAME,TOTAL_POP,Flu_OBS,Vom_OBS,Diarr_OBS,Gastro_OBS,lastdate,week
E09000002,Barking and Dagenham,118526.0,1.0,20.0,33.0,67.0,2017-06-18,24.0
E09000003,Barnet,356547.0,7.0,73.0,142.0,228.0,2017-06-18,24.0
E09000004,Bexley,41785.0,0.0,12.0,37.0,48.0,2017-06-18,24.0
E09000005,Brent,339902.0,13.0,56.0,106.0,159.0,2017-06-18,24.0
E09000006,Bromley,298944.0,1.0,30.0,74.0,108.0,2017-06-18,24.0
E09000007,Camden,256860.0,1.0,47.0,115.0,173.0,2017-06-18,24.0
E09000008,Croydon,273111.0,1.0,38.0,73.0,151.0,2017-06-18,24.0
E09000009,Ealing,40829.0,0.0,1.0,1.0,15.0,2017-06-18,24.0
E09000010,Enfield,301041.0,5.0,55.0,92.0,166.0,2017-06-18,24.0
E09000011,Greenwich,67204.0,1.0,13.0,24.0,44.0,2017-06-18,24.0
E09000012,Hackney (including City of London),284916.0,1.0,52.0,118.0,220.0,2017-06-18,24.0
E09000013,Hammersmith and Fulham,36834.0,0.0,1.0,1.0,7.0,2017-06-18,24.0
E09000014,Haringey,249277.0,1.0,31.0,58.0,113.0,2017-06-18,24.0
E09000015,Harrow,245336.0,0.0,49.0,77.0,158.0,2017-06-18,24.0
E09000016,Havering,95948.0,1.0,9.0,36.0,45.0,2017-06-18,24.0
E09000017,Hillingdon,293960.0,8.0,51.0,96.0,162.0,2017-06-18,24.0
E09000018,Hounslow,110128.0,1.0,6.0,10.0,46.0,2017-06-18,24.0
E09000019,Islington,234586.0,10.0,55.0,92.0,178.0,2017-06-18,24.0
E09000020,Kensington and Chelsea,26445.0,0.0,0.0,1.0,1.0,2017-06-18,24.0
E09000021,Kingston upon Thames,163750.0,1.0,16.0,33.0,63.0,2017-06-18,24.0
E09000022,Lambeth,344946.0,11.0,54.0,129.0,193.0,2017-06-18,24.0
E09000023,Lewisham,292274.0,1.0,43.0,121.0,184.0,2017-06-18,24.0
E09000024,Merton,180512.0,5.0,24.0,69.0,112.0,2017-06-18,24.0
E09000025,Newham,338880.0,9.0,54.0,73.0,166.0,2017-06-18,24.0
E09000026,Redbridge,182796.0,1.0,17.0,25.0,58.0,2017-06-18,24.0
E09000027,Richmond upon Thames,44869.0,0.0,1.0,14.0,19.0,2017-06-18,24.0
E09000028,Southwark,286035.0,1.0,41.0,74.0,133.0,2017-06-18,24.0
E09000029,Sutton,173433.0,5.0,24.0,67.0,107.0,2017-06-18,24.0
E09000030,Tower Hamlets,259213.0,6.0,52.0,114.0,194.0,2017-06-18,24.0
E09000031,Waltham Forest,225313.0,1.0,28.0,56.0,106.0,2017-06-18,24.0
E09000032,Wandsworth,352241.0,1.0,52.0,107.0,179.0,2017-06-18,24.0
E09000033,Westminster,13097.0,0.0,0.0,0.0,1.0,2017-06-18,24.0
E10000003,Cambridgeshire,303560.0,5.0,36.0,105.0,191.0,2017-06-18,24.0
E10000012,Essex,667332.0,1.0,46.0,137.0,242.0,2017-06-18,24.0
E10000020,Norfolk,377624.0,1.0,27.0,115.0,166.0,2017-06-18,24.0
E06000031,Peterborough,99692.0,1.0,12.0,16.0,55.0,2017-06-18,24.0
E06000033,Southend-on-Sea,8461.0,0.0,0.0,1.0,1.0,2017-06-18,24.0
E10000029,Suffolk,300222.0,1.0,34.0,96.0,153.0,2017-06-18,24.0
E06000034,Thurrock,69136.0,0.0,7.0,1.0,1.0,2017-06-18,24.0
E06000055,Bedford,32926.0,0.0,8.0,11.0,42.0,2017-06-18,24.0
E06000056,Central Bedfordshire,118457.0,0.0,8.0,29.0,83.0,2017-06-18,24.0
E10000015,Hertfordshire,536636.0,9.0,67.0,148.0,294.0,2017-06-18,24.0
E06000032,Luton,101686.0,0.0,12.0,29.0,75.0,2017-06-18,24.0
E06000042,Milton Keynes,260784.0,5.0,24.0,60.0,206.0,2017-06-18,24.0
E06000015,Derby,78220.0,0.0,12.0,26.0,78.0,2017-06-18,24.0
E10000007,Derbyshire,295736.0,6.0,29.0,108.0,168.0,2017-06-18,24.0
E06000016,Leicester,176570.0,0.0,19.0,25.0,82.0,2017-06-18,24.0
E10000018,Leicestershire (including Rutland),372772.0,6.0,49.0,151.0,239.0,2017-06-18,24.0
E10000019,Lincolnshire,292639.0,1.0,21.0,86.0,131.0,2017-06-18,24.0
E06000018,Nottingham,169162.0,0.0,17.0,45.0,85.0,2017-06-18,24.0
E10000024,Nottinghamshire,222644.0,1.0,23.0,80.0,152.0,2017-06-18,24.0
E10000021,Northamptonshire,309637.0,1.0,31.0,104.0,171.0,2017-06-18,24.0
E08000025,Birmingham,802755.0,14.0,161.0,307.0,566.0,2017-06-18,24.0
E08000026,Coventry,268404.0,8.0,46.0,83.0,144.0,2017-06-18,24.0
E08000027,Dudley,304402.0,1.0,42.0,107.0,168.0,2017-06-18,24.0
E06000019,"Herefordshire, County of",165377.0,0.0,48.0,105.0,152.0,2017-06-18,24.0
E08000028,Sandwell,127891.0,1.0,12.0,23.0,71.0,2017-06-18,24.0
E06000051,Shropshire,233574.0,1.0,54.0,84.0,148.0,2017-06-18,24.0
E08000029,Solihull,102282.0,0.0,19.0,37.0,85.0,2017-06-18,24.0
E10000028,Staffordshire,726084.0,5.0,122.0,273.0,418.0,2017-06-18,24.0
E06000021,Stoke-on-Trent,219402.0,6.0,47.0,81.0,140.0,2017-06-18,24.0
E06000020,Telford and Wrekin,140946.0,1.0,19.0,45.0,73.0,2017-06-18,24.0
E08000030,Walsall,259105.0,1.0,24.0,52.0,94.0,2017-06-18,24.0
E10000031,Warwickshire,398811.0,9.0,73.0,171.0,266.0,2017-06-18,24.0
E08000031,Wolverhampton,228741.0,1.0,24.0,48.0,84.0,2017-06-18,24.0
E10000034,Worcestershire,520270.0,12.0,111.0,235.0,348.0,2017-06-18,24.0
E06000049,Cheshire East,397863.0,8.0,69.0,180.0,265.0,2017-06-18,24.0
E06000050,Cheshire West and Chester,248156.0,9.0,49.0,150.0,200.0,2017-06-18,24.0
E06000006,Halton,115109.0,1.0,25.0,46.0,82.0,2017-06-18,24.0
E08000011,Knowsley,158020.0,1.0,35.0,50.0,92.0,2017-06-18,24.0
E08000012,Liverpool,471793.0,9.0,112.0,224.0,389.0,2017-06-18,24.0
E08000014,Sefton,258331.0,5.0,46.0,127.0,181.0,2017-06-18,24.0
E08000013,St. Helens,158960.0,1.0,34.0,63.0,113.0,2017-06-18,24.0
E06000007,Warrington,105633.0,0.0,9.0,39.0,76.0,2017-06-18,24.0
E08000015,Wirral,287742.0,1.0,60.0,147.0,215.0,2017-06-18,24.0
E06000008,Blackburn with Darwen,161189.0,1.0,36.0,46.0,108.0,2017-06-18,24.0
E06000009,Blackpool,143365.0,1.0,21.0,58.0,93.0,2017-06-18,24.0
E10000006,Cumbria,427178.0,7.0,85.0,228.0,329.0,2017-06-18,24.0
E10000017,Lancashire,1113436.0,12.0,197.0,404.0,648.0,2017-06-18,24.0
E08000001,Bolton,70106.0,0.0,15.0,22.0,61.0,2017-06-18,24.0
E08000002,Bury,0.0,NA,NA,NA,NA,2017-06-18,24.0
E08000003,Manchester,569208.0,7.0,128.0,200.0,386.0,2017-06-18,24.0
E08000004,Oldham,237962.0,12.0,63.0,92.0,188.0,2017-06-18,24.0
E08000005,Rochdale,189340.0,1.0,45.0,79.0,131.0,2017-06-18,24.0
E08000006,Salford,56632.0,0.0,8.0,13.0,26.0,2017-06-18,24.0
E08000007,Stockport,280864.0,6.0,34.0,110.0,178.0,2017-06-18,24.0
E08000008,Tameside,192019.0,1.0,28.0,62.0,100.0,2017-06-18,24.0
E08000009,Trafford,208077.0,0.0,39.0,89.0,141.0,2017-06-18,24.0
E08000010,Wigan,164464.0,0.0,25.0,56.0,100.0,2017-06-18,24.0
E06000047,County Durham,207434.0,0.0,22.0,86.0,132.0,2017-06-18,24.0
E06000005,Darlington,27271.0,0.0,1.0,9.0,18.0,2017-06-18,24.0
E08000037,Gateshead,187958.0,1.0,38.0,103.0,143.0,2017-06-18,24.0
E06000001,Hartlepool,15461.0,0.0,1.0,1.0,1.0,2017-06-18,24.0
E06000002,Middlesbrough,16297.0,0.0,1.0,1.0,1.0,2017-06-18,24.0
E08000021,Newcastle upon Tyne,195494.0,1.0,21.0,70.0,108.0,2017-06-18,24.0
E08000022,North Tyneside,139847.0,0.0,18.0,51.0,83.0,2017-06-18,24.0
E06000057,Northumberland,159179.0,1.0,20.0,65.0,94.0,2017-06-18,24.0
E06000003,Redcar and Cleveland,50269.0,0.0,7.0,13.0,23.0,2017-06-18,24.0
E08000023,South Tyneside,148650.0,1.0,42.0,72.0,110.0,2017-06-18,24.0
E06000004,Stockton-on-Tees,75939.0,0.0,6.0,18.0,50.0,2017-06-18,24.0
E08000024,Sunderland,252773.0,1.0,27.0,73.0,112.0,2017-06-18,24.0
E08000016,Barnsley,175336.0,0.0,18.0,44.0,85.0,2017-06-18,24.0
E08000032,Bradford,389564.0,1.0,25.0,57.0,196.0,2017-06-18,24.0
E08000033,Calderdale,93667.0,0.0,16.0,26.0,65.0,2017-06-18,24.0
E08000017,Doncaster,185691.0,1.0,21.0,75.0,118.0,2017-06-18,24.0
E06000011,East Riding of Yorkshire,147968.0,1.0,26.0,91.0,101.0,2017-06-18,24.0
E06000010,"Kingston upon Hull, City of",61746.0,0.0,11.0,19.0,46.0,2017-06-18,24.0
E08000034,Kirklees,157950.0,1.0,17.0,36.0,90.0,2017-06-18,24.0
E08000035,Leeds,523684.0,1.0,53.0,169.0,299.0,2017-06-18,24.0
E06000012,North East Lincolnshire,67295.0,1.0,12.0,26.0,49.0,2017-06-18,24.0
E06000013,North Lincolnshire,82798.0,0.0,1.0,17.0,35.0,2017-06-18,24.0
E10000023,North Yorkshire,350796.0,6.0,46.0,126.0,227.0,2017-06-18,24.0
E08000018,Rotherham,120531.0,1.0,25.0,45.0,92.0,2017-06-18,24.0
E08000019,Sheffield,272864.0,1.0,21.0,86.0,133.0,2017-06-18,24.0
E08000036,Wakefield,161846.0,0.0,1.0,26.0,45.0,2017-06-18,24.0
E06000014,York,53788.0,1.0,13.0,32.0,47.0,2017-06-18,24.0
E06000022,Bath and North East Somerset,129209.0,0.0,9.0,29.0,48.0,2017-06-18,24.0
E06000023,"Bristol, City of",464798.0,12.0,116.0,246.0,314.0,2017-06-18,24.0
E10000013,Gloucestershire,198523.0,6.0,27.0,92.0,133.0,2017-06-18,24.0
E06000024,North Somerset,203422.0,5.0,34.0,135.0,149.0,2017-06-18,24.0
E06000025,South Gloucestershire,255593.0,7.0,58.0,165.0,185.0,2017-06-18,24.0
E06000030,Swindon,83402.0,0.0,5.0,12.0,21.0,2017-06-18,24.0
E06000054,Wiltshire,196170.0,1.0,12.0,41.0,87.0,2017-06-18,24.0
E06000052,Cornwall (including Isles of Scilly),100437.0,1.0,15.0,51.0,74.0,2017-06-18,24.0
E10000008,Devon,346646.0,1.0,24.0,90.0,146.0,2017-06-18,24.0
E06000026,Plymouth,95081.0,1.0,14.0,35.0,54.0,2017-06-18,24.0
E10000027,Somerset,494689.0,19.0,112.0,241.0,387.0,2017-06-18,24.0
E06000027,Torbay,106106.0,1.0,11.0,31.0,48.0,2017-06-18,24.0
E06000028,Bournemouth,99632.0,1.0,8.0,22.0,40.0,2017-06-18,24.0
E10000009,Dorset,210546.0,1.0,9.0,44.0,60.0,2017-06-18,24.0
E06000029,Poole,64943.0,0.0,7.0,16.0,32.0,2017-06-18,24.0
E06000043,Brighton and Hove,152188.0,1.0,25.0,53.0,98.0,2017-06-18,24.0
E10000011,East Sussex,382550.0,9.0,60.0,180.0,236.0,2017-06-18,24.0
E10000016,Kent,795398.0,16.0,108.0,273.0,401.0,2017-06-18,24.0
E06000035,Medway,97325.0,1.0,14.0,39.0,52.0,2017-06-18,24.0
E10000030,Surrey,1005702.0,20.0,133.0,338.0,501.0,2017-06-18,24.0
E10000032,West Sussex,410522.0,5.0,61.0,142.0,252.0,2017-06-18,24.0
E06000036,Bracknell Forest,98868.0,1.0,15.0,29.0,55.0,2017-06-18,24.0
E10000002,Buckinghamshire,472409.0,5.0,75.0,208.0,326.0,2017-06-18,24.0
E10000025,Oxfordshire,621652.0,9.0,120.0,273.0,396.0,2017-06-18,24.0
E06000038,Reading,100266.0,1.0,16.0,40.0,58.0,2017-06-18,24.0
E06000039,Slough,123585.0,1.0,19.0,36.0,68.0,2017-06-18,24.0
E06000037,West Berkshire,100266.0,1.0,16.0,40.0,58.0,2017-06-18,24.0
E06000040,Windsor and Maidenhead,127116.0,1.0,19.0,37.0,70.0,2017-06-18,24.0
E06000041,Wokingham,100266.0,1.0,16.0,40.0,58.0,2017-06-18,24.0
E10000014,Hampshire,1088522.0,22.0,171.0,439.0,648.0,2017-06-18,24.0
E06000046,Isle of Wight,6205.0,0.0,1.0,0.0,0.0,2017-06-18,24.0
E06000044,Portsmouth,35817.0,0.0,1.0,7.0,30.0,2017-06-18,24.0
E06000045,Southampton,210557.0,1.0,19.0,42.0,87.0,2017-06-18,24.0
