CODE,NAME,TOTAL_POP,Flu_OBS,Vom_OBS,Diarr_OBS,Gastro_OBS,lastdate,week
E09000002,Barking and Dagenham,85151,8,15,11,37,2018-11-25,47
E09000003,Barnet,152703,6,28,44,84,2018-11-25,47
E09000004,Bexley,18289,1,1,6,9,2018-11-25,47
E09000005,Brent,143787,26,39,52,90,2018-11-25,47
E09000006,Bromley,123759,5,10,27,46,2018-11-25,47
E09000007,Camden,98310,8,20,39,64,2018-11-25,47
E09000008,Croydon,113165,7,10,12,41,2018-11-25,47
E09000009,Ealing,35895,1,1,0,9,2018-11-25,47
E09000010,Enfield,143663,10,31,38,82,2018-11-25,47
E09000011,Greenwich,27718,1,9,10,24,2018-11-25,47
E09000012,Hackney (including City of London),126516,15,34,41,98,2018-11-25,47
E09000013,Hammersmith and Fulham,41956,0,1,8,36,2018-11-25,47
E09000014,Haringey,116826,1,29,30,66,2018-11-25,47
E09000015,Harrow,109300,13,25,30,75,2018-11-25,47
E09000016,Havering,83092,5,9,16,34,2018-11-25,47
E09000017,Hillingdon,136582,22,25,48,89,2018-11-25,47
E09000018,Hounslow,109941,1,8,11,54,2018-11-25,47
E09000019,Islington,104200,13,24,47,79,2018-11-25,47
E09000020,Kensington and Chelsea,26340,0,1,1,1,2018-11-25,47
E09000021,Kingston upon Thames,95595,7,17,30,52,2018-11-25,47
E09000022,Lambeth,158822,21,25,38,102,2018-11-25,47
E09000023,Lewisham,126454,5,17,37,69,2018-11-25,47
E09000024,Merton,81880,5,12,26,41,2018-11-25,47
E09000025,Newham,183621,12,43,41,106,2018-11-25,47
E09000026,Redbridge,111928,1,10,21,46,2018-11-25,47
E09000027,Richmond upon Thames,17976,0,0,1,1,2018-11-25,47
E09000028,Southwark,154577,13,35,47,88,2018-11-25,47
E09000029,Sutton,78669,1,11,25,39,2018-11-25,47
E09000030,Tower Hamlets,111702,9,37,66,110,2018-11-25,47
E09000031,Waltham Forest,108807,13,10,20,45,2018-11-25,47
E09000032,Wandsworth,140461,10,26,45,79,2018-11-25,47
E09000033,Westminster,2259,0,0,0,0,2018-11-25,47
E10000003,Cambridgeshire,224115,11,19,63,128,2018-11-25,47
E10000012,Essex,469114,6,37,62,201,2018-11-25,47
E10000020,Norfolk,245403,7,24,71,126,2018-11-25,47
E06000031,Peterborough,126201,0,17,32,106,2018-11-25,47
E06000033,Southend-on-Sea,6679,0,1,1,5,2018-11-25,47
E10000029,Suffolk,187909,7,21,54,105,2018-11-25,47
E06000034,Thurrock,57583,0,1,1,41,2018-11-25,47
E06000055,Bedford,32965,0,6,20,83,2018-11-25,47
E06000056,Central Bedfordshire,119264,0,16,33,146,2018-11-25,47
E10000015,Hertfordshire,323973,22,51,80,176,2018-11-25,47
E06000032,Luton,89245,5,12,13,67,2018-11-25,47
E06000042,Milton Keynes,266499,0,30,55,241,2018-11-25,47
E06000015,Derby,63251,0,7,14,46,2018-11-25,47
E10000007,Derbyshire,177589,1,22,37,94,2018-11-25,47
E06000016,Leicester,176732,1,15,22,129,2018-11-25,47
E10000018,Leicestershire (including Rutland),196982,1,14,53,97,2018-11-25,47
E10000019,Lincolnshire,186168,1,15,44,89,2018-11-25,47
E06000018,Nottingham,90609,1,13,31,60,2018-11-25,47
E10000024,Nottinghamshire,180991,1,13,46,120,2018-11-25,47
E10000021,Northamptonshire,226147,6,24,38,116,2018-11-25,47
E08000025,Birmingham,339937,27,88,115,234,2018-11-25,47
E08000026,Coventry,144667,19,30,45,81,2018-11-25,47
E08000027,Dudley,124916,5,17,35,51,2018-11-25,47
E06000019,"Herefordshire, County of",85040,7,20,46,64,2018-11-25,47
E08000028,Sandwell,83286,6,10,14,51,2018-11-25,47
E06000051,Shropshire,129420,1,15,56,65,2018-11-25,47
E08000029,Solihull,73295,0,13,30,65,2018-11-25,47
E10000028,Staffordshire,377049,11,64,134,227,2018-11-25,47
E06000021,Stoke-on-Trent,110532,5,30,53,95,2018-11-25,47
E06000020,Telford and Wrekin,96914,1,12,30,43,2018-11-25,47
E08000030,Walsall,108491,1,17,26,59,2018-11-25,47
E10000031,Warwickshire,165317,7,32,79,124,2018-11-25,47
E08000031,Wolverhampton,100642,1,14,19,40,2018-11-25,47
E10000034,Worcestershire,228537,7,27,87,116,2018-11-25,47
E06000049,Cheshire East,188330,12,45,97,148,2018-11-25,47
E06000050,Cheshire West and Chester,108629,10,41,67,102,2018-11-25,47
E06000006,Halton,49946,0,12,24,37,2018-11-25,47
E08000011,Knowsley,61918,5,20,22,50,2018-11-25,47
E08000012,Liverpool,213113,17,61,93,175,2018-11-25,47
E08000014,Sefton,128293,11,39,64,108,2018-11-25,47
E08000013,St. Helens,68973,1,16,34,50,2018-11-25,47
E06000007,Warrington,90460,1,13,24,104,2018-11-25,47
E08000015,Wirral,131334,14,49,87,137,2018-11-25,47
E06000008,Blackburn with Darwen,79608,5,23,30,55,2018-11-25,47
E06000009,Blackpool,65087,1,8,12,24,2018-11-25,47
E10000006,Cumbria,216359,11,40,91,129,2018-11-25,47
E10000017,Lancashire,521301,19,128,220,365,2018-11-25,47
E08000001,Bolton,44775,1,11,8,29,2018-11-25,47
E08000002,Bury,0,NA,NA,NA,0,2018-11-25,47
E08000003,Manchester,221496,14,53,77,152,2018-11-25,47
E08000004,Oldham,86016,8,17,31,56,2018-11-25,47
E08000005,Rochdale,98818,1,28,37,75,2018-11-25,47
E08000006,Salford,36157,0,15,9,24,2018-11-25,47
E08000007,Stockport,117114,5,16,55,82,2018-11-25,47
E08000008,Tameside,82458,5,15,37,61,2018-11-25,47
E08000009,Trafford,106113,1,19,47,83,2018-11-25,47
E08000010,Wigan,88263,1,13,19,47,2018-11-25,47
E06000047,County Durham,125699,1,17,50,105,2018-11-25,47
E06000005,Darlington,26941,0,1,6,22,2018-11-25,47
E08000037,Gateshead,97260,1,39,60,88,2018-11-25,47
E06000001,Hartlepool,7108,0,1,1,1,2018-11-25,47
E06000002,Middlesbrough,8722,0,0,1,1,2018-11-25,47
E08000021,Newcastle upon Tyne,141963,1,13,26,42,2018-11-25,47
E08000022,North Tyneside,84691,0,16,26,51,2018-11-25,47
E06000057,Northumberland,57549,1,10,27,53,2018-11-25,47
E06000003,Redcar and Cleveland,34913,0,1,10,15,2018-11-25,47
E08000023,South Tyneside,67076,0,12,30,43,2018-11-25,47
E06000004,Stockton-on-Tees,67665,1,6,15,56,2018-11-25,47
E08000024,Sunderland,109659,1,15,33,49,2018-11-25,47
E08000016,Barnsley,99686,5,14,20,35,2018-11-25,47
E08000032,Bradford,398774,6,34,79,271,2018-11-25,47
E08000033,Calderdale,64785,0,9,14,50,2018-11-25,47
E08000017,Doncaster,114603,5,14,28,70,2018-11-25,47
E06000011,East Riding of Yorkshire,78444,6,10,18,36,2018-11-25,47
E06000010,"Kingston upon Hull, City of",36164,1,11,7,25,2018-11-25,47
E08000034,Kirklees,112061,1,12,35,81,2018-11-25,47
E08000035,Leeds,362675,5,31,65,213,2018-11-25,47
E06000012,North East Lincolnshire,59262,0,8,19,48,2018-11-25,47
E06000013,North Lincolnshire,51887,1,7,12,39,2018-11-25,47
E10000023,North Yorkshire,261814,1,27,64,139,2018-11-25,47
E08000018,Rotherham,56932,1,12,27,57,2018-11-25,47
E08000019,Sheffield,216893,1,17,41,99,2018-11-25,47
E08000036,Wakefield,152734,1,6,22,56,2018-11-25,47
E06000014,York,24973,1,6,13,18,2018-11-25,47
E06000022,Bath and North East Somerset,76270,1,5,9,20,2018-11-25,47
E06000023,"Bristol, City of",212383,17,61,97,143,2018-11-25,47
E10000013,Gloucestershire,127435,1,17,41,68,2018-11-25,47
E06000024,North Somerset,92108,9,20,55,72,2018-11-25,47
E06000025,South Gloucestershire,112193,8,23,71,84,2018-11-25,47
E06000030,Swindon,56507,0,1,5,15,2018-11-25,47
E06000054,Wiltshire,171556,1,9,20,64,2018-11-25,47
E06000052,Cornwall (including Isles of Scilly),41253,1,10,13,27,2018-11-25,47
E10000008,Devon,251192,8,15,59,102,2018-11-25,47
E06000026,Plymouth,31849,0,1,6,10,2018-11-25,47
E10000027,Somerset,217511,17,70,146,215,2018-11-25,47
E06000027,Torbay,54332,6,7,16,17,2018-11-25,47
E06000028,Bournemouth,75718,1,1,1,23,2018-11-25,47
E10000009,Dorset,162850,0,7,14,53,2018-11-25,47
E06000029,Poole,45215,0,1,1,16,2018-11-25,47
E06000043,Brighton and Hove,98779,1,12,21,55,2018-11-25,47
E10000011,East Sussex,172780,8,33,75,96,2018-11-25,47
E10000016,Kent,355666,22,75,169,246,2018-11-25,47
E06000035,Medway,71543,9,10,14,36,2018-11-25,47
E10000030,Surrey,491017,23,75,170,265,2018-11-25,47
E10000032,West Sussex,273601,15,28,92,173,2018-11-25,47
E06000036,Bracknell Forest,45685,1,6,14,26,2018-11-25,47
E10000002,Buckinghamshire,262043,15,35,87,130,2018-11-25,47
E10000025,Oxfordshire,259520,14,56,101,168,2018-11-25,47
E06000038,Reading,53264,1,13,18,31,2018-11-25,47
E06000039,Slough,57106,1,8,18,33,2018-11-25,47
E06000037,West Berkshire,53264,1,13,18,31,2018-11-25,47
E06000040,Windsor and Maidenhead,58737,1,8,18,34,2018-11-25,47
E06000041,Wokingham,53264,1,13,18,31,2018-11-25,47
E10000014,Hampshire,484057,29,82,199,289,2018-11-25,47
E06000046,Isle of Wight,59179,0,1,12,47,2018-11-25,47
E06000044,Portsmouth,153398,0,1,8,84,2018-11-25,47
E06000045,Southampton,113099,1,12,22,52,2018-11-25,47
