CODE,NAME,TOTAL_POP,Flu_OBS,Vom_OBS,Diarr_OBS,Gastro_OBS,lastdate,week
E09000002,Barking and Dagenham,125788,9,18,24,47,2019-10-27,43
E09000003,Barnet,155031,6,26,44,69,2019-10-27,43
E09000004,Bexley,45791,1,6,9,19,2019-10-27,43
E09000005,Brent,166236,16,12,18,45,2019-10-27,43
E09000006,Bromley,143359,1,11,26,48,2019-10-27,43
E09000007,Camden,101455,1,9,45,44,2019-10-27,43
E09000008,Croydon,131786,5,12,22,40,2019-10-27,43
E09000009,Ealing,36398,1,1,5,13,2019-10-27,43
E09000010,Enfield,142109,1,11,17,38,2019-10-27,43
E09000011,Greenwich,32282,0,5,6,16,2019-10-27,43
E09000012,Hackney (including City of London),141818,13,18,46,79,2019-10-27,43
E09000013,Hammersmith and Fulham,43126,1,5,1,16,2019-10-27,43
E09000014,Haringey,167036,7,18,27,62,2019-10-27,43
E09000015,Harrow,107838,7,18,30,49,2019-10-27,43
E09000016,Havering,112584,6,8,23,41,2019-10-27,43
E09000017,Hillingdon,167316,14,17,31,62,2019-10-27,43
E09000018,Hounslow,108195,1,9,12,47,2019-10-27,43
E09000019,Islington,85542,8,14,33,59,2019-10-27,43
E09000020,Kensington and Chelsea,26198,0,0,1,1,2019-10-27,43
E09000021,Kingston upon Thames,131921,6,15,41,63,2019-10-27,43
E09000022,Lambeth,108685,1,14,27,42,2019-10-27,43
E09000023,Lewisham,130207,1,20,38,61,2019-10-27,43
E09000024,Merton,93639,6,6,24,41,2019-10-27,43
E09000025,Newham,229678,29,37,37,101,2019-10-27,43
E09000026,Redbridge,97075,1,11,12,41,2019-10-27,43
E09000027,Richmond upon Thames,35853,1,6,7,17,2019-10-27,43
E09000028,Southwark,181228,8,9,37,56,2019-10-27,43
E09000029,Sutton,89967,6,6,23,39,2019-10-27,43
E09000030,Tower Hamlets,130299,11,22,41,69,2019-10-27,43
E09000031,Waltham Forest,129055,1,23,12,36,2019-10-27,43
E09000032,Wandsworth,186700,11,13,37,61,2019-10-27,43
E09000033,Westminster,2345,0,1,0,1,2019-10-27,43
E10000003,Cambridgeshire,221232,0,5,43,86,2019-10-27,43
E10000012,Essex,481157,12,23,73,157,2019-10-27,43
E10000020,Norfolk,225706,11,13,56,95,2019-10-27,43
E06000031,Peterborough,127023,0,17,35,94,2019-10-27,43
E06000033,Southend-on-Sea,2720,0,1,1,1,2019-10-27,43
E10000029,Suffolk,188234,6,10,46,100,2019-10-27,43
E06000034,Thurrock,64683,1,1,1,1,2019-10-27,43
E06000055,Bedford,33456,0,7,15,54,2019-10-27,43
E06000056,Central Bedfordshire,125295,1,12,35,91,2019-10-27,43
E10000015,Hertfordshire,343603,16,36,95,155,2019-10-27,43
E06000032,Luton,88860,1,10,15,67,2019-10-27,43
E06000042,Milton Keynes,270141,1,21,39,258,2019-10-27,43
E06000015,Derby,64386,1,13,18,65,2019-10-27,43
E10000007,Derbyshire,168032,1,22,47,82,2019-10-27,43
E06000016,Leicester,180260,1,15,30,140,2019-10-27,43
E10000018,Leicestershire (including Rutland),216702,1,11,50,105,2019-10-27,43
E10000019,Lincolnshire,175996,1,7,35,83,2019-10-27,43
E06000018,Nottingham,77800,1,9,20,43,2019-10-27,43
E10000024,Nottinghamshire,168878,5,7,41,96,2019-10-27,43
E10000021,Northamptonshire,235483,1,11,37,110,2019-10-27,43
E08000025,Birmingham,458636,16,61,116,231,2019-10-27,43
E08000026,Coventry,168283,13,22,35,79,2019-10-27,43
E08000027,Dudley,163556,5,14,29,56,2019-10-27,43
E06000019,"Herefordshire, County of",111290,9,24,62,81,2019-10-27,43
E08000028,Sandwell,97851,1,5,9,41,2019-10-27,43
E06000051,Shropshire,158436,10,17,51,69,2019-10-27,43
E08000029,Solihull,94127,5,13,36,78,2019-10-27,43
E10000028,Staffordshire,466067,16,72,195,286,2019-10-27,43
E06000021,Stoke-on-Trent,151276,8,30,46,90,2019-10-27,43
E06000020,Telford and Wrekin,68671,1,11,25,41,2019-10-27,43
E08000030,Walsall,127742,8,12,22,43,2019-10-27,43
E10000031,Warwickshire,221439,18,49,100,152,2019-10-27,43
E08000031,Wolverhampton,81745,1,6,10,20,2019-10-27,43
E10000034,Worcestershire,251956,5,39,94,130,2019-10-27,43
E06000049,Cheshire East,190969,10,36,85,132,2019-10-27,43
E06000050,Cheshire West and Chester,127654,6,35,50,82,2019-10-27,43
E06000006,Halton,52104,1,10,18,29,2019-10-27,43
E08000011,Knowsley,58633,1,7,25,39,2019-10-27,43
E08000012,Liverpool,264191,15,69,109,197,2019-10-27,43
E08000014,Sefton,146915,9,24,75,107,2019-10-27,43
E08000013,St. Helens,71954,1,13,24,39,2019-10-27,43
E06000007,Warrington,96220,0,7,21,71,2019-10-27,43
E08000015,Wirral,161777,9,40,92,145,2019-10-27,43
E06000008,Blackburn with Darwen,94876,1,10,23,43,2019-10-27,43
E06000009,Blackpool,64519,0,6,10,24,2019-10-27,43
E10000006,Cumbria,260312,21,45,113,162,2019-10-27,43
E10000017,Lancashire,649636,29,131,251,403,2019-10-27,43
E08000001,Bolton,72564,1,6,22,42,2019-10-27,43
E08000002,Bury,-,NA,NA,NA,NA,2019-10-27,43
E08000003,Manchester,282630,16,56,84,152,2019-10-27,43
E08000004,Oldham,108206,8,23,33,61,2019-10-27,43
E08000005,Rochdale,118000,9,25,35,60,2019-10-27,43
E08000006,Salford,51459,9,8,10,22,2019-10-27,43
E08000007,Stockport,141855,7,13,47,70,2019-10-27,43
E08000008,Tameside,104582,1,18,37,52,2019-10-27,43
E08000009,Trafford,124654,1,14,40,68,2019-10-27,43
E08000010,Wigan,83300,1,9,23,46,2019-10-27,43
E06000047,County Durham,125958,1,21,54,104,2019-10-27,43
E06000005,Darlington,26880,0,1,6,17,2019-10-27,43
E08000037,Gateshead,129396,18,29,59,85,2019-10-27,43
E06000001,Hartlepool,7922,0,0,1,1,2019-10-27,43
E06000002,Middlesbrough,8840,0,1,1,1,2019-10-27,43
E08000021,Newcastle upon Tyne,151875,9,7,27,50,2019-10-27,43
E08000022,North Tyneside,88725,1,1,24,40,2019-10-27,43
E06000057,Northumberland,71598,1,6,22,42,2019-10-27,43
E06000003,Redcar and Cleveland,32288,0,1,9,11,2019-10-27,43
E08000023,South Tyneside,89675,8,23,36,66,2019-10-27,43
E06000004,Stockton-on-Tees,76793,1,5,14,98,2019-10-27,43
E08000024,Sunderland,151366,1,16,47,63,2019-10-27,43
E08000016,Barnsley,119275,1,8,29,45,2019-10-27,43
E08000032,Bradford,395007,6,20,58,240,2019-10-27,43
E08000033,Calderdale,69742,1,7,13,52,2019-10-27,43
E08000017,Doncaster,120145,1,12,27,62,2019-10-27,43
E06000011,East Riding of Yorkshire,68856,1,12,24,40,2019-10-27,43
E06000010,"Kingston upon Hull, City of",32151,1,1,8,17,2019-10-27,43
E08000034,Kirklees,112188,1,17,24,68,2019-10-27,43
E08000035,Leeds,400595,11,37,99,233,2019-10-27,43
E06000012,North East Lincolnshire,59923,0,6,26,50,2019-10-27,43
E06000013,North Lincolnshire,51861,0,1,10,23,2019-10-27,43
E10000023,North Yorkshire,288339,16,36,85,216,2019-10-27,43
E08000018,Rotherham,48043,1,7,25,31,2019-10-27,43
E08000019,Sheffield,226477,8,7,47,105,2019-10-27,43
E08000036,Wakefield,156992,6,7,20,62,2019-10-27,43
E06000014,York,26545,1,8,16,24,2019-10-27,43
E06000022,Bath and North East Somerset,76644,0,5,10,44,2019-10-27,43
E06000023,"Bristol, City of",251123,19,46,138,167,2019-10-27,43
E10000013,Gloucestershire,131909,1,20,31,84,2019-10-27,43
E06000024,North Somerset,105687,9,20,62,68,2019-10-27,43
E06000025,South Gloucestershire,148081,6,32,88,90,2019-10-27,43
E06000030,Swindon,42118,0,1,1,19,2019-10-27,43
E06000054,Wiltshire,179842,1,5,23,65,2019-10-27,43
E06000052,Cornwall (including Isles of Scilly),75099,1,9,23,30,2019-10-27,43
E10000008,Devon,254275,12,9,44,65,2019-10-27,43
E06000026,Plymouth,33564,1,0,1,1,2019-10-27,43
E10000027,Somerset,228518,9,42,127,170,2019-10-27,43
E06000027,Torbay,58177,1,7,19,22,2019-10-27,43
E06000028,Bournemouth,83800,1,0,1,21,2019-10-27,43
E10000009,Dorset,171588,1,1,29,62,2019-10-27,43
E06000029,Poole,42725,0,1,5,1,2019-10-27,43
E06000043,Brighton and Hove,118159,1,13,38,62,2019-10-27,43
E10000011,East Sussex,212187,1,28,99,115,2019-10-27,43
E10000016,Kent,461905,12,53,154,212,2019-10-27,43
E06000035,Medway,111471,6,18,27,50,2019-10-27,43
E10000030,Surrey,637255,24,59,178,254,2019-10-27,43
E10000032,West Sussex,288182,5,27,74,178,2019-10-27,43
E06000036,Bracknell Forest,54530,1,7,15,27,2019-10-27,43
E10000002,Buckinghamshire,269165,12,36,91,145,2019-10-27,43
E10000025,Oxfordshire,273605,28,57,110,187,2019-10-27,43
E06000038,Reading,75524,1,8,21,34,2019-10-27,43
E06000039,Slough,68163,1,9,19,34,2019-10-27,43
E06000037,West Berkshire,75524,1,8,21,34,2019-10-27,43
E06000040,Windsor and Maidenhead,70110,1,9,19,35,2019-10-27,43
E06000041,Wokingham,75524,1,8,21,34,2019-10-27,43
E10000014,Hampshire,585901,32,108,232,332,2019-10-27,43
E06000046,Isle of Wight,67236,0,1,14,49,2019-10-27,43
E06000044,Portsmouth,183752,1,1,11,73,2019-10-27,43
E06000045,Southampton,120816,0,24,26,68,2019-10-27,43
