CODE,NAME,TOTAL_POP,Flu_OBS,Vom_OBS,Diarr_OBS,Gastro_OBS,lastdate,week
E09000002,Barking and Dagenham,74307.0,1.0,10.0,8.0,29.0,2017-02-12,6.0
E09000003,Barnet,268965.0,25.0,59.0,72.0,157.0,2017-02-12,6.0
E09000004,Bexley,40100.0,5.0,17.0,24.0,44.0,2017-02-12,6.0
E09000005,Brent,333056.0,80.0,64.0,73.0,179.0,2017-02-12,6.0
E09000006,Bromley,273767.0,27.0,35.0,63.0,120.0,2017-02-12,6.0
E09000007,Camden,188278.0,24.0,38.0,60.0,109.0,2017-02-12,6.0
E09000008,Croydon,273988.0,36.0,57.0,96.0,188.0,2017-02-12,6.0
E09000009,Ealing,34834.0,0.0,1.0,1.0,21.0,2017-02-12,6.0
E09000010,Enfield,239990.0,21.0,51.0,74.0,150.0,2017-02-12,6.0
E09000011,Greenwich,68795.0,22.0,23.0,18.0,54.0,2017-02-12,6.0
E09000012,Hackney (including City of London),254335.0,42.0,59.0,100.0,216.0,2017-02-12,6.0
E09000013,Hammersmith and Fulham,36025.0,1.0,1.0,1.0,14.0,2017-02-12,6.0
E09000014,Haringey,200691.0,21.0,33.0,64.0,128.0,2017-02-12,6.0
E09000015,Harrow,165335.0,38.0,33.0,50.0,115.0,2017-02-12,6.0
E09000016,Havering,75994.0,1.0,1.0,12.0,20.0,2017-02-12,6.0
E09000017,Hillingdon,267753.0,32.0,79.0,108.0,206.0,2017-02-12,6.0
E09000018,Hounslow,111421.0,5.0,12.0,9.0,64.0,2017-02-12,6.0
E09000019,Islington,205358.0,46.0,62.0,95.0,196.0,2017-02-12,6.0
E09000020,Kensington and Chelsea,26105.0,0.0,0.0,1.0,7.0,2017-02-12,6.0
E09000021,Kingston upon Thames,119161.0,16.0,18.0,23.0,41.0,2017-02-12,6.0
E09000022,Lambeth,318194.0,34.0,56.0,90.0,164.0,2017-02-12,6.0
E09000023,Lewisham,272055.0,36.0,62.0,115.0,214.0,2017-02-12,6.0
E09000024,Merton,156175.0,19.0,30.0,50.0,96.0,2017-02-12,6.0
E09000025,Newham,273240.0,39.0,65.0,72.0,179.0,2017-02-12,6.0
E09000026,Redbridge,143377.0,13.0,18.0,25.0,61.0,2017-02-12,6.0
E09000027,Richmond upon Thames,29624.0,1.0,1.0,5.0,11.0,2017-02-12,6.0
E09000028,Southwark,231251.0,22.0,44.0,76.0,143.0,2017-02-12,6.0
E09000029,Sutton,150050.0,19.0,28.0,48.0,93.0,2017-02-12,6.0
E09000030,Tower Hamlets,234634.0,60.0,70.0,84.0,176.0,2017-02-12,6.0
E09000031,Waltham Forest,160531.0,16.0,18.0,50.0,85.0,2017-02-12,6.0
E09000032,Wandsworth,320022.0,42.0,42.0,90.0,157.0,2017-02-12,6.0
E09000033,Westminster,2189.0,0.0,0.0,0.0,0.0,2017-02-12,6.0
E10000003,Cambridgeshire,292182.0,43.0,46.0,98.0,239.0,2017-02-12,6.0
E10000012,Essex,613628.0,33.0,53.0,126.0,316.0,2017-02-12,6.0
E10000020,Norfolk,361448.0,34.0,53.0,139.0,248.0,2017-02-12,6.0
E06000031,Peterborough,99146.0,1.0,12.0,21.0,98.0,2017-02-12,6.0
E06000033,Southend-on-Sea,7924.0,0.0,1.0,1.0,1.0,2017-02-12,6.0
E10000029,Suffolk,317460.0,33.0,43.0,114.0,212.0,2017-02-12,6.0
E06000034,Thurrock,70376.0,1.0,12.0,27.0,104.0,2017-02-12,6.0
E06000055,Bedford,32837.0,1.0,1.0,1.0,1.0,2017-02-12,6.0
E06000056,Central Bedfordshire,117644.0,5.0,12.0,29.0,119.0,2017-02-12,6.0
E10000015,Hertfordshire,554086.0,88.0,110.0,165.0,351.0,2017-02-12,6.0
E06000032,Luton,92576.0,1.0,14.0,18.0,82.0,2017-02-12,6.0
E06000042,Milton Keynes,258754.0,16.0,34.0,53.0,317.0,2017-02-12,6.0
E06000015,Derby,72890.0,1.0,11.0,20.0,109.0,2017-02-12,6.0
E10000007,Derbyshire,260199.0,31.0,41.0,96.0,163.0,2017-02-12,6.0
E06000016,Leicester,176623.0,1.0,13.0,22.0,145.0,2017-02-12,6.0
E10000018,Leicestershire (including Rutland),334830.0,21.0,45.0,130.0,219.0,2017-02-12,6.0
E10000019,Lincolnshire,286880.0,12.0,34.0,87.0,170.0,2017-02-12,6.0
E06000018,Nottingham,170058.0,20.0,22.0,46.0,101.0,2017-02-12,6.0
E10000024,Nottinghamshire,191735.0,13.0,28.0,62.0,198.0,2017-02-12,6.0
E10000021,Northamptonshire,280157.0,16.0,43.0,73.0,204.0,2017-02-12,6.0
E08000025,Birmingham,589218.0,80.0,159.0,209.0,451.0,2017-02-12,6.0
E08000026,Coventry,205320.0,16.0,38.0,65.0,128.0,2017-02-12,6.0
E08000027,Dudley,252891.0,16.0,47.0,66.0,127.0,2017-02-12,6.0
E06000019,"Herefordshire, County of",149442.0,1.0,37.0,80.0,113.0,2017-02-12,6.0
E08000028,Sandwell,105450.0,7.0,12.0,21.0,79.0,2017-02-12,6.0
E06000051,Shropshire,176331.0,14.0,36.0,78.0,115.0,2017-02-12,6.0
E08000029,Solihull,81854.0,1.0,14.0,37.0,112.0,2017-02-12,6.0
E10000028,Staffordshire,590828.0,44.0,117.0,205.0,343.0,2017-02-12,6.0
E06000021,Stoke-on-Trent,201034.0,18.0,68.0,81.0,171.0,2017-02-12,6.0
E06000020,Telford and Wrekin,106713.0,7.0,13.0,28.0,58.0,2017-02-12,6.0
E08000030,Walsall,244749.0,12.0,36.0,54.0,110.0,2017-02-12,6.0
E10000031,Warwickshire,338839.0,30.0,95.0,135.0,244.0,2017-02-12,6.0
E08000031,Wolverhampton,212048.0,7.0,44.0,57.0,124.0,2017-02-12,6.0
E10000034,Worcestershire,546265.0,57.0,99.0,202.0,303.0,2017-02-12,6.0
E06000049,Cheshire East,382812.0,50.0,107.0,206.0,306.0,2017-02-12,6.0
E06000050,Cheshire West and Chester,234334.0,30.0,80.0,147.0,220.0,2017-02-12,6.0
E06000006,Halton,107413.0,11.0,37.0,59.0,98.0,2017-02-12,6.0
E08000011,Knowsley,156319.0,18.0,28.0,39.0,75.0,2017-02-12,6.0
E08000012,Liverpool,401038.0,44.0,155.0,230.0,411.0,2017-02-12,6.0
E08000014,Sefton,200960.0,19.0,45.0,116.0,165.0,2017-02-12,6.0
E08000013,St. Helens,148332.0,16.0,50.0,81.0,136.0,2017-02-12,6.0
E06000007,Warrington,104510.0,1.0,26.0,46.0,130.0,2017-02-12,6.0
E08000015,Wirral,278088.0,53.0,67.0,153.0,233.0,2017-02-12,6.0
E06000008,Blackburn with Darwen,151697.0,18.0,37.0,49.0,127.0,2017-02-12,6.0
E06000009,Blackpool,148088.0,7.0,41.0,59.0,111.0,2017-02-12,6.0
E10000006,Cumbria,400601.0,70.0,104.0,177.0,261.0,2017-02-12,6.0
E10000017,Lancashire,924060.0,75.0,225.0,370.0,690.0,2017-02-12,6.0
E08000001,Bolton,72716.0,11.0,16.0,26.0,82.0,2017-02-12,6.0
E08000002,Bury,NA,NA,NA,NA,NA,2017-02-12,6.0
E08000003,Manchester,546566.0,52.0,172.0,255.0,482.0,2017-02-12,6.0
E08000004,Oldham,200678.0,13.0,49.0,65.0,166.0,2017-02-12,6.0
E08000005,Rochdale,152625.0,12.0,34.0,48.0,110.0,2017-02-12,6.0
E08000006,Salford,44902.0,1.0,19.0,20.0,39.0,2017-02-12,6.0
E08000007,Stockport,239684.0,31.0,47.0,71.0,138.0,2017-02-12,6.0
E08000008,Tameside,185752.0,16.0,39.0,73.0,110.0,2017-02-12,6.0
E08000009,Trafford,168159.0,19.0,33.0,51.0,80.0,2017-02-12,6.0
E08000010,Wigan,150495.0,20.0,33.0,57.0,103.0,2017-02-12,6.0
E06000047,County Durham,170876.0,17.0,41.0,70.0,146.0,2017-02-12,6.0
E06000005,Darlington,27238.0,0.0,1.0,6.0,17.0,2017-02-12,6.0
E08000037,Gateshead,157313.0,30.0,43.0,88.0,140.0,2017-02-12,6.0
E06000001,Hartlepool,15320.0,1.0,1.0,6.0,7.0,2017-02-12,6.0
E06000002,Middlesbrough,17544.0,1.0,10.0,11.0,23.0,2017-02-12,6.0
E08000021,Newcastle upon Tyne,165639.0,20.0,32.0,50.0,116.0,2017-02-12,6.0
E08000022,North Tyneside,150901.0,14.0,47.0,53.0,115.0,2017-02-12,6.0
E06000057,Northumberland,105880.0,15.0,14.0,45.0,76.0,2017-02-12,6.0
E06000003,Redcar and Cleveland,35451.0,1.0,9.0,6.0,25.0,2017-02-12,6.0
E08000023,South Tyneside,130666.0,23.0,28.0,43.0,80.0,2017-02-12,6.0
E06000004,Stockton-on-Tees,75932.0,1.0,8.0,6.0,59.0,2017-02-12,6.0
E08000024,Sunderland,224819.0,16.0,34.0,57.0,114.0,2017-02-12,6.0
E08000016,Barnsley,132905.0,10.0,20.0,27.0,79.0,2017-02-12,6.0
E08000032,Bradford,388968.0,9.0,26.0,60.0,278.0,2017-02-12,6.0
E08000033,Calderdale,80662.0,1.0,13.0,23.0,64.0,2017-02-12,6.0
E08000017,Doncaster,174153.0,17.0,30.0,57.0,109.0,2017-02-12,6.0
E06000011,East Riding of Yorkshire,145471.0,24.0,49.0,79.0,133.0,2017-02-12,6.0
E06000010,"Kingston upon Hull, City of",55321.0,1.0,10.0,24.0,49.0,2017-02-12,6.0
E08000034,Kirklees,158489.0,10.0,29.0,54.0,135.0,2017-02-12,6.0
E08000035,Leeds,494596.0,27.0,70.0,149.0,333.0,2017-02-12,6.0
E06000012,North East Lincolnshire,60946.0,0.0,12.0,29.0,69.0,2017-02-12,6.0
E06000013,North Lincolnshire,70802.0,1.0,11.0,14.0,43.0,2017-02-12,6.0
E10000023,North Yorkshire,325826.0,52.0,54.0,116.0,236.0,2017-02-12,6.0
E08000018,Rotherham,91613.0,14.0,33.0,46.0,97.0,2017-02-12,6.0
E08000019,Sheffield,274768.0,14.0,18.0,71.0,147.0,2017-02-12,6.0
E08000036,Wakefield,150677.0,7.0,13.0,31.0,90.0,2017-02-12,6.0
E06000014,York,45640.0,10.0,15.0,26.0,41.0,2017-02-12,6.0
E06000022,Bath and North East Somerset,121917.0,5.0,19.0,30.0,63.0,2017-02-12,6.0
E06000023,"Bristol, City of",431027.0,70.0,160.0,272.0,405.0,2017-02-12,6.0
E10000013,Gloucestershire,176205.0,33.0,24.0,42.0,85.0,2017-02-12,6.0
E06000024,North Somerset,152582.0,23.0,53.0,91.0,136.0,2017-02-12,6.0
E06000025,South Gloucestershire,206549.0,22.0,74.0,137.0,170.0,2017-02-12,6.0
E06000030,Swindon,75807.0,1.0,6.0,10.0,29.0,2017-02-12,6.0
E06000054,Wiltshire,193613.0,6.0,9.0,44.0,123.0,2017-02-12,6.0
E06000052,Cornwall (including Isles of Scilly),97119.0,17.0,21.0,47.0,62.0,2017-02-12,6.0
E10000008,Devon,307274.0,31.0,24.0,80.0,122.0,2017-02-12,6.0
E06000026,Plymouth,91749.0,11.0,24.0,30.0,59.0,2017-02-12,6.0
E10000027,Somerset,482035.0,111.0,163.0,241.0,416.0,2017-02-12,6.0
E06000027,Torbay,76773.0,26.0,16.0,40.0,53.0,2017-02-12,6.0
E06000028,Bournemouth,123108.0,10.0,8.0,28.0,61.0,2017-02-12,6.0
E10000009,Dorset,196790.0,11.0,10.0,27.0,59.0,2017-02-12,6.0
E06000029,Poole,75450.0,1.0,8.0,26.0,47.0,2017-02-12,6.0
E06000043,Brighton and Hove,115263.0,14.0,18.0,24.0,72.0,2017-02-12,6.0
E10000011,East Sussex,316068.0,49.0,69.0,150.0,213.0,2017-02-12,6.0
E10000016,Kent,685250.0,80.0,128.0,239.0,373.0,2017-02-12,6.0
E06000035,Medway,66684.0,1.0,10.0,32.0,47.0,2017-02-12,6.0
E10000030,Surrey,868383.0,86.0,154.0,304.0,501.0,2017-02-12,6.0
E10000032,West Sussex,356926.0,27.0,57.0,126.0,278.0,2017-02-12,6.0
E06000036,Bracknell Forest,95182.0,9.0,25.0,29.0,67.0,2017-02-12,6.0
E10000002,Buckinghamshire,443196.0,51.0,93.0,193.0,339.0,2017-02-12,6.0
E10000025,Oxfordshire,570907.0,124.0,132.0,207.0,352.0,2017-02-12,6.0
E06000038,Reading,102904.0,12.0,19.0,29.0,59.0,2017-02-12,6.0
E06000039,Slough,118977.0,11.0,32.0,36.0,84.0,2017-02-12,6.0
E06000037,West Berkshire,102904.0,12.0,19.0,29.0,59.0,2017-02-12,6.0
E06000040,Windsor and Maidenhead,122377.0,12.0,32.0,37.0,87.0,2017-02-12,6.0
E06000041,Wokingham,102904.0,12.0,19.0,29.0,59.0,2017-02-12,6.0
E10000014,Hampshire,924526.0,142.0,171.0,339.0,559.0,2017-02-12,6.0
E06000046,Isle of Wight,6205.0,0.0,0.0,1.0,1.0,2017-02-12,6.0
E06000044,Portsmouth,38761.0,1.0,8.0,1.0,1.0,2017-02-12,6.0
E06000045,Southampton,190158.0,12.0,20.0,39.0,114.0,2017-02-12,6.0
