CODE,NAME,TOTAL_POP,Flu_OBS,Vom_OBS,Diarr_OBS,Gastro_OBS,lastdate,week
E09000002,Barking and Dagenham,133149,8,25,19,60,2019-10-20,42
E09000003,Barnet,162290,8,27,47,87,2019-10-20,42
E09000004,Bexley,38471,1,6,6,13,2019-10-20,42
E09000005,Brent,202663,11,35,44,91,2019-10-20,42
E09000006,Bromley,169838,8,12,22,46,2019-10-20,42
E09000007,Camden,124283,1,15,49,63,2019-10-20,42
E09000008,Croydon,129491,7,15,28,54,2019-10-20,42
E09000009,Ealing,37773,0,5,1,14,2019-10-20,42
E09000010,Enfield,126619,6,15,23,51,2019-10-20,42
E09000011,Greenwich,29537,1,7,7,22,2019-10-20,42
E09000012,Hackney (including City of London),162964,18,39,45,118,2019-10-20,42
E09000013,Hammersmith and Fulham,43039,9,1,1,33,2019-10-20,42
E09000014,Haringey,156691,1,18,23,66,2019-10-20,42
E09000015,Harrow,126265,10,15,42,73,2019-10-20,42
E09000016,Havering,104829,7,9,16,33,2019-10-20,42
E09000017,Hillingdon,186980,14,26,50,91,2019-10-20,42
E09000018,Hounslow,106493,1,9,10,56,2019-10-20,42
E09000019,Islington,99183,6,20,35,60,2019-10-20,42
E09000020,Kensington and Chelsea,26138,0,0,0,0,2019-10-20,42
E09000021,Kingston upon Thames,144387,8,15,34,60,2019-10-20,42
E09000022,Lambeth,159423,8,17,36,62,2019-10-20,42
E09000023,Lewisham,161664,5,16,43,80,2019-10-20,42
E09000024,Merton,87019,8,12,18,39,2019-10-20,42
E09000025,Newham,260309,31,53,52,125,2019-10-20,42
E09000026,Redbridge,113228,1,11,6,40,2019-10-20,42
E09000027,Richmond upon Thames,33896,1,0,11,20,2019-10-20,42
E09000028,Southwark,222051,15,25,46,92,2019-10-20,42
E09000029,Sutton,83606,8,11,18,38,2019-10-20,42
E09000030,Tower Hamlets,148225,11,41,43,104,2019-10-20,42
E09000031,Waltham Forest,144133,7,14,26,43,2019-10-20,42
E09000032,Wandsworth,233239,15,32,59,106,2019-10-20,42
E09000033,Westminster,2344,0,1,0,0,2019-10-20,42
E10000003,Cambridgeshire,233819,1,19,40,114,2019-10-20,42
E10000012,Essex,487211,5,39,74,183,2019-10-20,42
E10000020,Norfolk,233405,7,8,65,87,2019-10-20,42
E06000031,Peterborough,126953,1,21,34,101,2019-10-20,42
E06000033,Southend-on-Sea,2717,0,1,1,1,2019-10-20,42
E10000029,Suffolk,202872,1,8,50,100,2019-10-20,42
E06000034,Thurrock,66628,1,1,1,1,2019-10-20,42
E06000055,Bedford,33421,0,1,15,49,2019-10-20,42
E06000056,Central Bedfordshire,125151,1,10,26,81,2019-10-20,42
E10000015,Hertfordshire,368004,21,36,110,179,2019-10-20,42
E06000032,Luton,88777,0,5,18,64,2019-10-20,42
E06000042,Milton Keynes,270056,1,30,54,218,2019-10-20,42
E06000015,Derby,63109,0,14,32,69,2019-10-20,42
E10000007,Derbyshire,181699,1,19,57,111,2019-10-20,42
E06000016,Leicester,180143,1,9,16,95,2019-10-20,42
E10000018,Leicestershire (including Rutland),223036,1,13,26,75,2019-10-20,42
E10000019,Lincolnshire,189213,0,11,24,64,2019-10-20,42
E06000018,Nottingham,91962,6,18,16,58,2019-10-20,42
E10000024,Nottinghamshire,172589,1,6,36,111,2019-10-20,42
E10000021,Northamptonshire,239794,1,17,41,142,2019-10-20,42
E08000025,Birmingham,459550,23,80,130,282,2019-10-20,42
E08000026,Coventry,175051,17,30,45,92,2019-10-20,42
E08000027,Dudley,164543,0,16,35,58,2019-10-20,42
E06000019,"Herefordshire, County of",119245,11,17,47,70,2019-10-20,42
E08000028,Sandwell,100309,1,11,26,79,2019-10-20,42
E06000051,Shropshire,164810,1,35,63,87,2019-10-20,42
E08000029,Solihull,70021,1,1,42,78,2019-10-20,42
E10000028,Staffordshire,502372,22,82,156,265,2019-10-20,42
E06000021,Stoke-on-Trent,152318,6,37,61,111,2019-10-20,42
E06000020,Telford and Wrekin,45395,0,11,14,24,2019-10-20,42
E08000030,Walsall,133609,8,11,31,64,2019-10-20,42
E10000031,Warwickshire,248895,12,46,93,156,2019-10-20,42
E08000031,Wolverhampton,84862,1,1,16,23,2019-10-20,42
E10000034,Worcestershire,220819,5,39,95,126,2019-10-20,42
E06000049,Cheshire East,253079,20,53,113,181,2019-10-20,42
E06000050,Cheshire West and Chester,161971,11,43,83,133,2019-10-20,42
E06000006,Halton,57819,1,13,21,38,2019-10-20,42
E08000011,Knowsley,67680,1,7,21,29,2019-10-20,42
E08000012,Liverpool,310470,18,83,156,258,2019-10-20,42
E08000014,Sefton,165244,10,35,89,118,2019-10-20,42
E08000013,St. Helens,79845,1,19,30,52,2019-10-20,42
E06000007,Warrington,88938,0,5,18,53,2019-10-20,42
E08000015,Wirral,180663,6,48,96,163,2019-10-20,42
E06000008,Blackburn with Darwen,96739,11,13,27,46,2019-10-20,42
E06000009,Blackpool,63911,0,5,19,35,2019-10-20,42
E10000006,Cumbria,272359,13,48,136,189,2019-10-20,42
E10000017,Lancashire,703842,28,119,278,454,2019-10-20,42
E08000001,Bolton,65496,1,9,16,43,2019-10-20,42
E08000002,Bury,0,NA,NA,NA,NA,2019-10-20,42
E08000003,Manchester,285000,14,67,100,193,2019-10-20,42
E08000004,Oldham,124053,7,24,34,61,2019-10-20,42
E08000005,Rochdale,128408,8,20,53,79,2019-10-20,42
E08000006,Salford,59037,7,8,23,35,2019-10-20,42
E08000007,Stockport,125541,1,12,34,56,2019-10-20,42
E08000008,Tameside,101336,1,26,40,66,2019-10-20,42
E08000009,Trafford,129570,7,30,46,77,2019-10-20,42
E08000010,Wigan,87729,6,10,36,66,2019-10-20,42
E06000047,County Durham,137705,1,24,45,98,2019-10-20,42
E06000005,Darlington,26898,0,1,10,27,2019-10-20,42
E08000037,Gateshead,144817,9,32,68,101,2019-10-20,42
E06000001,Hartlepool,9900,0,0,0,1,2019-10-20,42
E06000002,Middlesbrough,13950,0,8,1,15,2019-10-20,42
E08000021,Newcastle upon Tyne,163891,1,15,43,69,2019-10-20,42
E08000022,North Tyneside,99171,1,11,28,51,2019-10-20,42
E06000057,Northumberland,83605,5,21,46,73,2019-10-20,42
E06000003,Redcar and Cleveland,39957,0,1,1,1,2019-10-20,42
E08000023,South Tyneside,87505,10,28,53,81,2019-10-20,42
E06000004,Stockton-on-Tees,78914,1,6,20,76,2019-10-20,42
E08000024,Sunderland,155377,1,17,46,65,2019-10-20,42
E08000016,Barnsley,123200,1,11,26,56,2019-10-20,42
E08000032,Bradford,394902,7,24,76,235,2019-10-20,42
E08000033,Calderdale,65253,6,7,12,37,2019-10-20,42
E08000017,Doncaster,125661,1,8,35,78,2019-10-20,42
E06000011,East Riding of Yorkshire,71605,1,12,37,50,2019-10-20,42
E06000010,"Kingston upon Hull, City of",32561,0,5,8,17,2019-10-20,42
E08000034,Kirklees,119047,1,13,31,82,2019-10-20,42
E08000035,Leeds,384834,10,30,88,207,2019-10-20,42
E06000012,North East Lincolnshire,64308,1,8,25,44,2019-10-20,42
E06000013,North Lincolnshire,42130,0,1,10,34,2019-10-20,42
E10000023,North Yorkshire,293173,16,41,89,205,2019-10-20,42
E08000018,Rotherham,61052,1,7,34,48,2019-10-20,42
E08000019,Sheffield,242862,7,14,44,96,2019-10-20,42
E08000036,Wakefield,162334,1,5,18,49,2019-10-20,42
E06000014,York,28185,1,10,19,29,2019-10-20,42
E06000022,Bath and North East Somerset,79337,0,5,18,40,2019-10-20,42
E06000023,"Bristol, City of",267643,20,53,133,174,2019-10-20,42
E10000013,Gloucestershire,131267,1,12,38,75,2019-10-20,42
E06000024,North Somerset,116877,12,19,49,65,2019-10-20,42
E06000025,South Gloucestershire,173822,8,38,118,128,2019-10-20,42
E06000030,Swindon,39603,0,0,1,9,2019-10-20,42
E06000054,Wiltshire,182036,1,1,23,63,2019-10-20,42
E06000052,Cornwall (including Isles of Scilly),73595,0,18,35,50,2019-10-20,42
E10000008,Devon,242592,7,12,56,80,2019-10-20,42
E06000026,Plymouth,33453,1,1,11,11,2019-10-20,42
E10000027,Somerset,254831,20,59,153,197,2019-10-20,42
E06000027,Torbay,56683,1,9,19,23,2019-10-20,42
E06000028,Bournemouth,83716,1,0,1,22,2019-10-20,42
E10000009,Dorset,173222,1,5,31,64,2019-10-20,42
E06000029,Poole,42747,0,1,7,16,2019-10-20,42
E06000043,Brighton and Hove,117244,5,14,44,74,2019-10-20,42
E10000011,East Sussex,162695,1,25,58,91,2019-10-20,42
E10000016,Kent,445090,33,74,164,242,2019-10-20,42
E06000035,Medway,60020,0,8,22,37,2019-10-20,42
E10000030,Surrey,623064,31,71,180,270,2019-10-20,42
E10000032,West Sussex,294305,13,33,95,197,2019-10-20,42
E06000036,Bracknell Forest,49354,1,1,16,28,2019-10-20,42
E10000002,Buckinghamshire,292253,13,44,92,143,2019-10-20,42
E10000025,Oxfordshire,291868,23,70,109,187,2019-10-20,42
E06000038,Reading,83007,5,10,22,38,2019-10-20,42
E06000039,Slough,61693,1,9,20,35,2019-10-20,42
E06000037,West Berkshire,83007,5,10,22,38,2019-10-20,42
E06000040,Windsor and Maidenhead,63456,1,10,21,36,2019-10-20,42
E06000041,Wokingham,83007,5,10,22,38,2019-10-20,42
E10000014,Hampshire,579639,24,80,216,298,2019-10-20,42
E06000046,Isle of Wight,67255,0,1,9,36,2019-10-20,42
E06000044,Portsmouth,183702,1,9,15,73,2019-10-20,42
E06000045,Southampton,130531,5,14,26,56,2019-10-20,42
