CODE,NAME,TOTAL_POP,Flu_OBS,Vom_OBS,Diarr_OBS,Gastro_OBS,lastdate,week
E09000002,Barking and Dagenham,213362,19,15,30,48,2019-12-28,52
E09000003,Barnet,392197,39,31,53,91,2019-12-28,52
E09000004,Bexley,167353,7,5,12,25,2019-12-28,52
E09000005,Brent,380166,42,43,43,97,2019-12-28,52
E09000006,Bromley,345398,23,13,31,52,2019-12-28,52
E09000007,Camden,300086,27,24,40,68,2019-12-28,52
E09000008,Croydon,380206,43,20,43,81,2019-12-28,52
E09000009,Ealing,37890,1,1,2,6,2019-12-28,52
E09000010,Enfield,315401,24,32,28,71,2019-12-28,52
E09000011,Greenwich,87022,7,1,8,10,2019-12-28,52
E09000012,Hackney (including City of London),316013,59,32,37,107,2019-12-28,52
E09000013,Hammersmith and Fulham,43400,1,0,0,8,2019-12-28,52
E09000014,Haringey,300090,20,20,20,48,2019-12-28,52
E09000015,Harrow,259244,27,20,27,68,2019-12-28,52
E09000016,Havering,251012,28,16,24,46,2019-12-28,52
E09000017,Hillingdon,317477,48,16,49,89,2019-12-28,52
E09000018,Hounslow,113029,0,8,5,46,2019-12-28,52
E09000019,Islington,254739,50,33,29,75,2019-12-28,52
E09000020,Kensington and Chelsea,26152,0,0,0,0,2019-12-28,52
E09000021,Kingston upon Thames,203447,13,27,29,56,2019-12-28,52
E09000022,Lambeth,415630,41,29,45,84,2019-12-28,52
E09000023,Lewisham,343930,50,28,46,93,2019-12-28,52
E09000024,Merton,199882,23,9,27,41,2019-12-28,52
E09000025,Newham,395513,69,42,44,114,2019-12-28,52
E09000026,Redbridge,276072,11,21,23,63,2019-12-28,52
E09000027,Richmond upon Thames,61951,1,1,5,6,2019-12-28,52
E09000028,Southwark,338270,29,28,34,70,2019-12-28,52
E09000029,Sutton,192043,23,8,25,40,2019-12-28,52
E09000030,Tower Hamlets,333533,54,48,42,108,2019-12-28,52
E09000031,Waltham Forest,256338,27,18,19,47,2019-12-28,52
E09000032,Wandsworth,417048,57,35,32,90,2019-12-28,52
E09000033,Westminster,2372,0,0,0,0,2019-12-28,52
E10000003,Cambridgeshire,279128,15,16,25,79,2019-12-28,52
E10000012,Essex,634724,33,21,70,187,2019-12-28,52
E10000020,Norfolk,343025,30,15,54,98,2019-12-28,52
E06000031,Peterborough,128580,1,10,13,68,2019-12-28,52
E06000033,Southend-on-Sea,2716,0,0,1,1,2019-12-28,52
E10000029,Suffolk,241407,15,10,28,68,2019-12-28,52
E06000034,Thurrock,71756,1,1,1,40,2019-12-28,52
E06000055,Bedford,33691,1,1,7,41,2019-12-28,52
E06000056,Central Bedfordshire,125952,8,8,21,80,2019-12-28,52
E10000015,Hertfordshire,718889,80,47,122,228,2019-12-28,52
E06000032,Luton,102376,8,9,7,1,2019-12-28,52
E06000042,Milton Keynes,270958,8,10,27,156,2019-12-28,52
E06000015,Derby,73090,1,1,12,47,2019-12-28,52
E10000007,Derbyshire,261205,24,17,34,87,2019-12-28,52
E06000016,Leicester,185072,1,14,13,77,2019-12-28,52
E10000018,Leicestershire (including Rutland),270488,10,11,28,64,2019-12-28,52
E10000019,Lincolnshire,263736,10,14,29,51,2019-12-28,52
E06000018,Nottingham,191141,12,13,20,47,2019-12-28,52
E10000024,Nottinghamshire,174971,17,1,18,59,2019-12-28,52
E10000021,Northamptonshire,328256,31,21,30,87,2019-12-28,52
E08000025,Birmingham,873366,103,84,136,251,2019-12-28,52
E08000026,Coventry,365224,25,28,50,98,2019-12-28,52
E08000027,Dudley,313919,21,23,29,59,2019-12-28,52
E06000019,"Herefordshire, County of",183042,32,24,51,69,2019-12-28,52
E08000028,Sandwell,116857,7,1,12,42,2019-12-28,52
E06000051,Shropshire,283466,63,32,62,100,2019-12-28,52
E08000029,Solihull,120394,5,1,18,65,2019-12-28,52
E10000028,Staffordshire,815510,96,82,140,235,2019-12-28,52
E06000021,Stoke-on-Trent,286967,22,48,65,137,2019-12-28,52
E06000020,Telford and Wrekin,166976,10,17,26,49,2019-12-28,52
E08000030,Walsall,285850,20,19,37,67,2019-12-28,52
E10000031,Warwickshire,484999,59,43,80,133,2019-12-28,52
E08000031,Wolverhampton,271255,6,15,33,64,2019-12-28,52
E10000034,Worcestershire,557180,64,47,94,140,2019-12-28,52
E06000049,Cheshire East,491657,73,71,110,183,2019-12-28,52
E06000050,Cheshire West and Chester,255807,52,36,76,113,2019-12-28,52
E06000006,Halton,126938,24,19,21,42,2019-12-28,52
E08000011,Knowsley,166335,21,20,24,43,2019-12-28,52
E08000012,Liverpool,516346,85,59,95,168,2019-12-28,52
E08000014,Sefton,277385,47,33,61,100,2019-12-28,52
E08000013,St. Helens,175295,33,26,29,59,2019-12-28,52
E06000007,Warrington,134637,10,10,14,66,2019-12-28,52
E08000015,Wirral,334191,56,68,99,162,2019-12-28,52
E06000008,Blackburn with Darwen,178521,16,19,30,71,2019-12-28,52
E06000009,Blackpool,136508,12,7,23,39,2019-12-28,52
E10000006,Cumbria,484962,92,52,95,154,2019-12-28,52
E10000017,Lancashire,1220362,113,121,222,364,2019-12-28,52
E08000001,Bolton,179540,20,23,37,74,2019-12-28,52
E08000002,Bury,0,NA,NA,NA,0,2019-12-28,52
E08000003,Manchester,632747,50,68,85,185,2019-12-28,52
E08000004,Oldham,257329,13,27,36,82,2019-12-28,52
E08000005,Rochdale,229022,14,15,32,61,2019-12-28,52
E08000006,Salford,118325,7,11,19,33,2019-12-28,52
E08000007,Stockport,310138,34,20,50,78,2019-12-28,52
E08000008,Tameside,232899,6,21,33,56,2019-12-28,52
E08000009,Trafford,238686,22,16,43,65,2019-12-28,52
E08000010,Wigan,227496,23,14,26,68,2019-12-28,52
E06000047,County Durham,182503,5,11,31,64,2019-12-28,52
E06000005,Darlington,26838,1,1,1,9,2019-12-28,52
E08000037,Gateshead,208663,35,22,39,68,2019-12-28,52
E06000001,Hartlepool,9867,1,0,0,0,2019-12-28,52
E06000002,Middlesbrough,19081,1,1,1,7,2019-12-28,52
E08000021,Newcastle upon Tyne,227458,13,18,36,61,2019-12-28,52
E08000022,North Tyneside,147690,19,19,26,58,2019-12-28,52
E06000057,Northumberland,81318,5,13,21,37,2019-12-28,52
E06000003,Redcar and Cleveland,55285,1,1,1,15,2019-12-28,52
E08000023,South Tyneside,161572,15,14,24,37,2019-12-28,52
E06000004,Stockton-on-Tees,81662,1,9,11,58,2019-12-28,52
E08000024,Sunderland,284074,24,24,39,60,2019-12-28,52
E08000016,Barnsley,182529,14,11,24,48,2019-12-28,52
E08000032,Bradford,395238,13,27,33,206,2019-12-28,52
E08000033,Calderdale,88067,7,6,6,21,2019-12-28,52
E08000017,Doncaster,184689,17,14,27,79,2019-12-28,52
E06000011,East Riding of Yorkshire,162898,20,20,51,65,2019-12-28,52
E06000010,"Kingston upon Hull, City of",43544,1,6,7,18,2019-12-28,52
E08000034,Kirklees,150414,14,11,20,48,2019-12-28,52
E08000035,Leeds,477298,38,22,56,164,2019-12-28,52
E06000012,North East Lincolnshire,69475,6,8,9,30,2019-12-28,52
E06000013,North Lincolnshire,79183,1,1,8,42,2019-12-28,52
E10000023,North Yorkshire,363586,49,26,66,181,2019-12-28,52
E08000018,Rotherham,84738,1,1,11,34,2019-12-28,52
E08000019,Sheffield,302523,22,10,33,82,2019-12-28,52
E08000036,Wakefield,166865,14,5,15,34,2019-12-28,52
E06000014,York,51529,10,6,16,24,2019-12-28,52
E06000022,Bath and North East Somerset,80905,8,1,8,34,2019-12-28,52
E06000023,"Bristol, City of",519322,90,72,144,204,2019-12-28,52
E10000013,Gloucestershire,231969,19,9,38,69,2019-12-28,52
E06000024,North Somerset,224379,50,27,68,82,2019-12-28,52
E06000025,South Gloucestershire,269593,27,34,53,94,2019-12-28,52
E06000030,Swindon,49712,1,0,0,7,2019-12-28,52
E06000054,Wiltshire,189971,9,6,11,51,2019-12-28,52
E06000052,Cornwall (including Isles of Scilly),233069,25,25,43,73,2019-12-28,52
E10000008,Devon,377784,33,13,36,69,2019-12-28,52
E06000026,Plymouth,74255,8,1,6,11,2019-12-28,52
E10000027,Somerset,566066,104,82,174,265,2019-12-28,52
E06000027,Torbay,140140,22,9,16,28,2019-12-28,52
E06000028,Bournemouth,83869,5,0,1,8,2019-12-28,52
E10000009,Dorset,173055,1,1,8,34,2019-12-28,52
E06000029,Poole,42712,1,0,1,8,2019-12-28,52
E06000043,Brighton and Hove,166408,8,11,16,42,2019-12-28,52
E10000011,East Sussex,459133,32,51,110,142,2019-12-28,52
E10000016,Kent,1149687,117,126,213,330,2019-12-28,52
E06000035,Medway,272341,10,32,34,72,2019-12-28,52
E10000030,Surrey,1203167,93,97,198,322,2019-12-28,52
E10000032,West Sussex,407151,28,36,78,147,2019-12-28,52
E06000036,Bracknell Forest,117997,6,12,19,37,2019-12-28,52
E10000002,Buckinghamshire,561402,76,64,98,167,2019-12-28,52
E10000025,Oxfordshire,733711,129,88,148,244,2019-12-28,52
E06000038,Reading,150642,14,12,22,38,2019-12-28,52
E06000039,Slough,147496,8,15,23,46,2019-12-28,52
E06000037,West Berkshire,150642,14,12,22,38,2019-12-28,52
E06000040,Windsor and Maidenhead,151710,8,15,24,48,2019-12-28,52
E06000041,Wokingham,150642,14,12,22,38,2019-12-28,52
E10000014,Hampshire,1284063,117,120,240,376,2019-12-28,52
E06000046,Isle of Wight,67289,1,1,1,44,2019-12-28,52
E06000044,Portsmouth,183875,1,1,1,48,2019-12-28,52
E06000045,Southampton,222761,11,11,22,40,2019-12-28,52
