CODE,NAME,TOTAL_POP,Flu_OBS,Vom_OBS,Diarr_OBS,Gastro_OBS,lastdate,week
E09000002,Barking and Dagenham,121880,5,17,39,79,2017-09-10,36
E09000003,Barnet,322008,9,54,99,175,2017-09-10,36
E09000004,Bexley,37496,1,8,9,21,2017-09-10,36
E09000005,Brent,326633,17,63,128,197,2017-09-10,36
E09000006,Bromley,267908,1,27,72,125,2017-09-10,36
E09000007,Camden,222819,7,27,90,138,2017-09-10,36
E09000008,Croydon,251816,5,36,73,140,2017-09-10,36
E09000009,Ealing,38220,1,1,1,15,2017-09-10,36
E09000010,Enfield,269151,5,38,82,168,2017-09-10,36
E09000011,Greenwich,59938,0,7,19,35,2017-09-10,36
E09000012,Hackney (including City of London),256843,5,56,95,199,2017-09-10,36
E09000013,Hammersmith and Fulham,37100,0,1,7,18,2017-09-10,36
E09000014,Haringey,232365,1,27,70,114,2017-09-10,36
E09000015,Harrow,196831,1,42,84,156,2017-09-10,36
E09000016,Havering,75282,5,6,23,36,2017-09-10,36
E09000017,Hillingdon,273267,7,49,94,174,2017-09-10,36
E09000018,Hounslow,110147,0,12,15,52,2017-09-10,36
E09000019,Islington,210668,10,41,91,172,2017-09-10,36
E09000020,Kensington and Chelsea,26577,0,1,0,6,2017-09-10,36
E09000021,Kingston upon Thames,151655,1,18,51,93,2017-09-10,36
E09000022,Lambeth,302065,11,60,111,199,2017-09-10,36
E09000023,Lewisham,252537,1,34,104,162,2017-09-10,36
E09000024,Merton,171048,6,24,60,101,2017-09-10,36
E09000025,Newham,313626,13,46,104,208,2017-09-10,36
E09000026,Redbridge,169915,1,9,31,76,2017-09-10,36
E09000027,Richmond upon Thames,48529,0,5,24,32,2017-09-10,36
E09000028,Southwark,276162,1,46,69,132,2017-09-10,36
E09000029,Sutton,164340,5,23,57,98,2017-09-10,36
E09000030,Tower Hamlets,237099,18,48,102,191,2017-09-10,36
E09000031,Waltham Forest,206645,7,19,42,82,2017-09-10,36
E09000032,Wandsworth,346367,9,58,107,192,2017-09-10,36
E09000033,Westminster,13085,0,0,1,0,2017-09-10,36
E10000003,Cambridgeshire,294732,1,34,108,169,2017-09-10,36
E10000012,Essex,606651,1,40,139,242,2017-09-10,36
E10000020,Norfolk,344364,1,37,143,197,2017-09-10,36
E06000031,Peterborough,100265,0,11,23,46,2017-09-10,36
E06000033,Southend-on-Sea,6052,0,0,1,1,2017-09-10,36
E10000029,Suffolk,261683,1,30,108,151,2017-09-10,36
E06000034,Thurrock,68719,0,5,16,42,2017-09-10,36
E06000055,Bedford,32980,0,7,1,1,2017-09-10,36
E06000056,Central Bedfordshire,118731,1,11,44,108,2017-09-10,36
E10000015,Hertfordshire,516468,9,75,147,281,2017-09-10,36
E06000032,Luton,96551,1,17,28,91,2017-09-10,36
E06000042,Milton Keynes,261814,1,18,61,214,2017-09-10,36
E06000015,Derby,77923,0,7,24,60,2017-09-10,36
E10000007,Derbyshire,273447,5,27,80,157,2017-09-10,36
E06000016,Leicester,178323,1,13,29,122,2017-09-10,36
E10000018,Leicestershire (including Rutland),355919,6,48,136,205,2017-09-10,36
E10000019,Lincolnshire,264982,1,21,71,108,2017-09-10,36
E06000018,Nottingham,174540,0,11,34,67,2017-09-10,36
E10000024,Nottinghamshire,211526,1,20,87,141,2017-09-10,36
E10000021,Northamptonshire,302832,1,50,85,183,2017-09-10,36
E08000025,Birmingham,736170,15,127,297,505,2017-09-10,36
E08000026,Coventry,260767,1,35,77,125,2017-09-10,36
E08000027,Dudley,269758,1,34,84,142,2017-09-10,36
E06000019,"Herefordshire, County of",160929,1,31,110,135,2017-09-10,36
E08000028,Sandwell,124562,1,15,27,64,2017-09-10,36
E06000051,Shropshire,222538,9,27,70,98,2017-09-10,36
E08000029,Solihull,98421,0,16,52,86,2017-09-10,36
E10000028,Staffordshire,691695,12,113,265,386,2017-09-10,36
E06000021,Stoke-on-Trent,226342,1,53,103,174,2017-09-10,36
E06000020,Telford and Wrekin,137838,5,17,29,61,2017-09-10,36
E08000030,Walsall,229476,1,39,66,122,2017-09-10,36
E10000031,Warwickshire,346010,8,68,149,242,2017-09-10,36
E08000031,Wolverhampton,212545,6,21,60,82,2017-09-10,36
E10000034,Worcestershire,494579,1,69,203,279,2017-09-10,36
E06000049,Cheshire East,369047,6,95,182,280,2017-09-10,36
E06000050,Cheshire West and Chester,224873,5,61,128,183,2017-09-10,36
E06000006,Halton,105632,1,27,48,77,2017-09-10,36
E08000011,Knowsley,147087,1,26,55,89,2017-09-10,36
E08000012,Liverpool,437198,1,112,220,365,2017-09-10,36
E08000014,Sefton,219182,1,39,93,145,2017-09-10,36
E08000013,St. Helens,145872,1,37,66,107,2017-09-10,36
E06000007,Warrington,95883,0,18,25,83,2017-09-10,36
E08000015,Wirral,266483,10,60,139,204,2017-09-10,36
E06000008,Blackburn with Darwen,163912,1,38,44,104,2017-09-10,36
E06000009,Blackpool,129774,1,25,51,84,2017-09-10,36
E10000006,Cumbria,402866,1,73,200,292,2017-09-10,36
E10000017,Lancashire,1020598,21,174,404,634,2017-09-10,36
E08000001,Bolton,73516,1,12,25,61,2017-09-10,36
E08000002,Bury,NA,NA,NA,NA,NA,2017-09-10,36
E08000003,Manchester,497815,8,66,175,314,2017-09-10,36
E08000004,Oldham,211169,1,37,72,145,2017-09-10,36
E08000005,Rochdale,181743,1,35,77,133,2017-09-10,36
E08000006,Salford,47464,1,14,27,44,2017-09-10,36
E08000007,Stockport,256204,1,30,98,160,2017-09-10,36
E08000008,Tameside,186383,1,25,66,111,2017-09-10,36
E08000009,Trafford,177619,1,28,62,103,2017-09-10,36
E08000010,Wigan,157088,1,26,56,95,2017-09-10,36
E06000047,County Durham,201942,5,26,81,141,2017-09-10,36
E06000005,Darlington,27277,0,1,1,20,2017-09-10,36
E08000037,Gateshead,178673,1,55,81,135,2017-09-10,36
E06000001,Hartlepool,15547,0,0,1,1,2017-09-10,36
E06000002,Middlesbrough,16282,0,1,8,12,2017-09-10,36
E08000021,Newcastle upon Tyne,180644,1,24,40,86,2017-09-10,36
E08000022,North Tyneside,125891,0,25,56,92,2017-09-10,36
E06000057,Northumberland,117189,0,23,55,74,2017-09-10,36
E06000003,Redcar and Cleveland,38453,0,1,5,1,2017-09-10,36
E08000023,South Tyneside,134352,0,24,60,93,2017-09-10,36
E06000004,Stockton-on-Tees,78795,1,1,12,55,2017-09-10,36
E08000024,Sunderland,233322,6,17,50,85,2017-09-10,36
E08000016,Barnsley,161844,0,20,41,61,2017-09-10,36
E08000032,Bradford,389703,1,32,63,201,2017-09-10,36
E08000033,Calderdale,89680,1,13,19,66,2017-09-10,36
E08000017,Doncaster,166950,0,19,56,101,2017-09-10,36
E06000011,East Riding of Yorkshire,136373,1,26,73,105,2017-09-10,36
E06000010,"Kingston upon Hull, City of",61939,0,10,18,41,2017-09-10,36
E08000034,Kirklees,144291,0,20,41,88,2017-09-10,36
E08000035,Leeds,504404,6,55,175,320,2017-09-10,36
E06000012,North East Lincolnshire,66714,0,11,30,54,2017-09-10,36
E06000013,North Lincolnshire,75283,0,1,21,44,2017-09-10,36
E10000023,North Yorkshire,342161,10,42,128,210,2017-09-10,36
E08000018,Rotherham,106888,1,14,46,68,2017-09-10,36
E08000019,Sheffield,263935,1,22,72,138,2017-09-10,36
E08000036,Wakefield,153593,1,1,26,61,2017-09-10,36
E06000014,York,50683,1,11,32,45,2017-09-10,36
E06000022,Bath and North East Somerset,92735,1,7,25,35,2017-09-10,36
E06000023,"Bristol, City of",445856,13,115,269,343,2017-09-10,36
E10000013,Gloucestershire,195511,5,34,78,136,2017-09-10,36
E06000024,North Somerset,193481,7,59,144,182,2017-09-10,36
E06000025,South Gloucestershire,244423,6,37,147,157,2017-09-10,36
E06000030,Swindon,81369,0,6,15,31,2017-09-10,36
E06000054,Wiltshire,176565,0,8,24,61,2017-09-10,36
E06000052,Cornwall (including Isles of Scilly),93301,1,20,44,64,2017-09-10,36
E10000008,Devon,322365,1,15,84,126,2017-09-10,36
E06000026,Plymouth,82114,1,11,28,42,2017-09-10,36
E10000027,Somerset,450784,7,114,269,398,2017-09-10,36
E06000027,Torbay,96455,7,12,35,39,2017-09-10,36
E06000028,Bournemouth,90743,1,1,25,47,2017-09-10,36
E10000009,Dorset,201950,0,8,42,59,2017-09-10,36
E06000029,Poole,59315,0,1,13,19,2017-09-10,36
E06000043,Brighton and Hove,146727,1,17,57,105,2017-09-10,36
E10000011,East Sussex,360130,1,45,174,230,2017-09-10,36
E10000016,Kent,760461,15,110,309,413,2017-09-10,36
E06000035,Medway,100135,1,15,50,61,2017-09-10,36
E10000030,Surrey,966366,10,129,351,504,2017-09-10,36
E10000032,West Sussex,399815,9,73,172,288,2017-09-10,36
E06000036,Bracknell Forest,90756,1,15,29,56,2017-09-10,36
E10000002,Buckinghamshire,437755,10,80,209,325,2017-09-10,36
E10000025,Oxfordshire,562231,18,91,259,354,2017-09-10,36
E06000038,Reading,91303,1,8,28,45,2017-09-10,36
E06000039,Slough,113445,1,19,36,70,2017-09-10,36
E06000037,West Berkshire,91303,1,8,28,45,2017-09-10,36
E06000040,Windsor and Maidenhead,116686,1,19,37,72,2017-09-10,36
E06000041,Wokingham,91303,1,8,28,45,2017-09-10,36
E10000014,Hampshire,1027099,22,177,443,640,2017-09-10,36
E06000046,Isle of Wight,6209,0,1,1,1,2017-09-10,36
E06000044,Portsmouth,37503,0,1,1,1,2017-09-10,36
E06000045,Southampton,195025,1,28,44,89,2017-09-10,36
