CODE,NAME,TOTAL_POP,Flu_OBS,Vom_OBS,Diarr_OBS,Gastro_OBS,lastdate,week
E09000002,Barking and Dagenham,93029,0,15,25,52,2018-06-24,25
E09000003,Barnet,225810,1,42,95,154,2018-06-24,25
E09000004,Bexley,29586,0,5,11,13,2018-06-24,25
E09000005,Brent,164814,1,22,38,74,2018-06-24,25
E09000006,Bromley,133269,1,12,29,53,2018-06-24,25
E09000007,Camden,184926,1,31,66,103,2018-06-24,25
E09000008,Croydon,126323,1,21,36,72,2018-06-24,25
E09000009,Ealing,34362,1,1,1,13,2018-06-24,25
E09000010,Enfield,177722,5,29,54,108,2018-06-24,25
E09000011,Greenwich,39674,1,1,1,16,2018-06-24,25
E09000012,Hackney (including City of London),163735,0,32,62,110,2018-06-24,25
E09000013,Hammersmith and Fulham,41387,0,0,1,14,2018-06-24,25
E09000014,Haringey,136374,0,15,36,60,2018-06-24,25
E09000015,Harrow,141478,1,26,38,74,2018-06-24,25
E09000016,Havering,90529,0,9,18,38,2018-06-24,25
E09000017,Hillingdon,172013,1,43,58,118,2018-06-24,25
E09000018,Hounslow,109182,1,1,10,36,2018-06-24,25
E09000019,Islington,126033,1,19,47,76,2018-06-24,25
E09000020,Kensington and Chelsea,26373,0,1,0,1,2018-06-24,25
E09000021,Kingston upon Thames,92341,1,21,32,52,2018-06-24,25
E09000022,Lambeth,198434,1,33,72,112,2018-06-24,25
E09000023,Lewisham,124706,1,10,37,56,2018-06-24,25
E09000024,Merton,74091,1,9,23,40,2018-06-24,25
E09000025,Newham,208422,5,35,40,113,2018-06-24,25
E09000026,Redbridge,124929,0,16,30,57,2018-06-24,25
E09000027,Richmond upon Thames,28162,0,5,9,14,2018-06-24,25
E09000028,Southwark,157985,6,23,52,91,2018-06-24,25
E09000029,Sutton,71185,0,8,22,38,2018-06-24,25
E09000030,Tower Hamlets,163752,1,32,74,132,2018-06-24,25
E09000031,Waltham Forest,132912,0,9,25,40,2018-06-24,25
E09000032,Wandsworth,230332,1,19,59,98,2018-06-24,25
E09000033,Westminster,10369,0,0,0,1,2018-06-24,25
E10000003,Cambridgeshire,224512,1,15,58,113,2018-06-24,25
E10000012,Essex,524378,1,42,116,238,2018-06-24,25
E10000020,Norfolk,290628,1,16,87,108,2018-06-24,25
E06000031,Peterborough,101660,0,13,15,68,2018-06-24,25
E06000033,Southend-on-Sea,2687,0,0,1,1,2018-06-24,25
E10000029,Suffolk,196400,1,13,50,114,2018-06-24,25
E06000034,Thurrock,61647,0,7,14,1,2018-06-24,25
E06000055,Bedford,33185,0,11,1,47,2018-06-24,25
E06000056,Central Bedfordshire,119507,0,11,36,102,2018-06-24,25
E10000015,Hertfordshire,370749,7,59,108,210,2018-06-24,25
E06000032,Luton,99965,1,6,16,56,2018-06-24,25
E06000042,Milton Keynes,264822,1,22,34,177,2018-06-24,25
E06000015,Derby,67984,0,13,27,68,2018-06-24,25
E10000007,Derbyshire,197430,1,17,67,110,2018-06-24,25
E06000016,Leicester,176829,1,10,33,118,2018-06-24,25
E10000018,Leicestershire (including Rutland),251932,1,17,74,129,2018-06-24,25
E10000019,Lincolnshire,201442,1,7,37,61,2018-06-24,25
E06000018,Nottingham,106994,0,16,27,59,2018-06-24,25
E10000024,Nottinghamshire,203738,1,11,62,111,2018-06-24,25
E10000021,Northamptonshire,253780,1,31,78,143,2018-06-24,25
E08000025,Birmingham,453913,9,93,162,314,2018-06-24,25
E08000026,Coventry,160088,1,15,44,80,2018-06-24,25
E08000027,Dudley,160955,1,16,27,55,2018-06-24,25
E06000019,"Herefordshire, County of",102409,1,16,41,57,2018-06-24,25
E08000028,Sandwell,94952,1,11,13,43,2018-06-24,25
E06000051,Shropshire,133371,0,32,60,87,2018-06-24,25
E08000029,Solihull,81442,0,13,37,70,2018-06-24,25
E10000028,Staffordshire,381197,1,64,168,249,2018-06-24,25
E06000021,Stoke-on-Trent,113591,1,33,45,76,2018-06-24,25
E06000020,Telford and Wrekin,90681,1,12,39,53,2018-06-24,25
E08000030,Walsall,154822,0,21,38,66,2018-06-24,25
E10000031,Warwickshire,214095,1,27,90,143,2018-06-24,25
E08000031,Wolverhampton,132467,1,15,32,73,2018-06-24,25
E10000034,Worcestershire,275050,7,58,123,174,2018-06-24,25
E06000049,Cheshire East,229591,1,42,110,167,2018-06-24,25
E06000050,Cheshire West and Chester,127905,1,35,70,113,2018-06-24,25
E06000006,Halton,56781,1,15,23,40,2018-06-24,25
E08000011,Knowsley,58492,0,8,24,40,2018-06-24,25
E08000012,Liverpool,252068,5,72,143,247,2018-06-24,25
E08000014,Sefton,114518,1,21,42,67,2018-06-24,25
E08000013,St. Helens,78412,1,21,32,56,2018-06-24,25
E06000007,Warrington,91502,0,7,18,41,2018-06-24,25
E08000015,Wirral,138058,1,32,79,124,2018-06-24,25
E06000008,Blackburn with Darwen,98043,1,15,32,60,2018-06-24,25
E06000009,Blackpool,34249,1,5,13,20,2018-06-24,25
E10000006,Cumbria,221493,1,34,105,137,2018-06-24,25
E10000017,Lancashire,542677,14,90,226,368,2018-06-24,25
E08000001,Bolton,40412,0,7,17,41,2018-06-24,25
E08000002,Bury,0,NA,NA,NA,0,2018-06-24,25
E08000003,Manchester,282037,1,38,92,153,2018-06-24,25
E08000004,Oldham,106475,0,24,36,78,2018-06-24,25
E08000005,Rochdale,122843,1,19,46,78,2018-06-24,25
E08000006,Salford,48311,0,8,24,35,2018-06-24,25
E08000007,Stockport,183145,1,25,71,113,2018-06-24,25
E08000008,Tameside,119946,1,15,40,65,2018-06-24,25
E08000009,Trafford,99421,1,9,24,38,2018-06-24,25
E08000010,Wigan,108288,0,21,35,75,2018-06-24,25
E06000047,County Durham,131722,0,19,45,78,2018-06-24,25
E06000005,Darlington,27036,0,1,7,21,2018-06-24,25
E08000037,Gateshead,91919,1,30,51,83,2018-06-24,25
E06000001,Hartlepool,8034,0,0,1,1,2018-06-24,25
E06000002,Middlesbrough,4418,0,0,1,1,2018-06-24,25
E08000021,Newcastle upon Tyne,150132,1,13,35,75,2018-06-24,25
E08000022,North Tyneside,71707,1,5,18,33,2018-06-24,25
E06000057,Northumberland,53257,0,10,19,39,2018-06-24,25
E06000003,Redcar and Cleveland,34630,0,1,13,21,2018-06-24,25
E08000023,South Tyneside,93497,1,16,33,52,2018-06-24,25
E06000004,Stockton-on-Tees,71945,1,1,6,55,2018-06-24,25
E08000024,Sunderland,137686,1,13,45,64,2018-06-24,25
E08000016,Barnsley,119192,1,12,30,52,2018-06-24,25
E08000032,Bradford,396861,1,20,56,232,2018-06-24,25
E08000033,Calderdale,75850,0,11,16,41,2018-06-24,25
E08000017,Doncaster,137664,1,14,33,74,2018-06-24,25
E06000011,East Riding of Yorkshire,102466,1,19,50,65,2018-06-24,25
E06000010,"Kingston upon Hull, City of",39313,0,1,1,13,2018-06-24,25
E08000034,Kirklees,134409,1,10,37,91,2018-06-24,25
E08000035,Leeds,406596,1,50,99,248,2018-06-24,25
E06000012,North East Lincolnshire,48722,0,1,1,18,2018-06-24,25
E06000013,North Lincolnshire,66423,1,1,11,20,2018-06-24,25
E10000023,North Yorkshire,277795,1,23,107,195,2018-06-24,25
E08000018,Rotherham,77868,1,13,36,67,2018-06-24,25
E08000019,Sheffield,201369,0,9,44,92,2018-06-24,25
E08000036,Wakefield,155249,0,9,20,58,2018-06-24,25
E06000014,York,30587,1,1,17,21,2018-06-24,25
E06000022,Bath and North East Somerset,80685,1,6,11,24,2018-06-24,25
E06000023,"Bristol, City of",261269,6,59,136,190,2018-06-24,25
E10000013,Gloucestershire,140955,1,18,66,119,2018-06-24,25
E06000024,North Somerset,114646,1,22,64,78,2018-06-24,25
E06000025,South Gloucestershire,135260,1,34,120,126,2018-06-24,25
E06000030,Swindon,42676,0,1,1,9,2018-06-24,25
E06000054,Wiltshire,167325,1,9,32,78,2018-06-24,25
E06000052,Cornwall (including Isles of Scilly),64489,1,8,27,31,2018-06-24,25
E10000008,Devon,268104,1,18,80,99,2018-06-24,25
E06000026,Plymouth,61933,1,6,20,25,2018-06-24,25
E10000027,Somerset,251771,11,58,152,211,2018-06-24,25
E06000027,Torbay,68677,0,10,30,45,2018-06-24,25
E06000028,Bournemouth,76512,0,1,1,35,2018-06-24,25
E10000009,Dorset,164695,0,1,34,51,2018-06-24,25
E06000029,Poole,46556,0,0,12,18,2018-06-24,25
E06000043,Brighton and Hove,114883,0,12,32,79,2018-06-24,25
E10000011,East Sussex,205278,1,32,97,118,2018-06-24,25
E10000016,Kent,450124,10,49,173,230,2018-06-24,25
E06000035,Medway,85955,1,14,50,65,2018-06-24,25
E10000030,Surrey,621973,8,51,201,293,2018-06-24,25
E10000032,West Sussex,299412,1,24,96,152,2018-06-24,25
E06000036,Bracknell Forest,64845,1,10,24,36,2018-06-24,25
E10000002,Buckinghamshire,331187,6,45,123,181,2018-06-24,25
E10000025,Oxfordshire,383619,6,81,169,252,2018-06-24,25
E06000038,Reading,50284,1,6,20,29,2018-06-24,25
E06000039,Slough,81056,1,13,30,44,2018-06-24,25
E06000037,West Berkshire,50284,1,6,20,29,2018-06-24,25
E06000040,Windsor and Maidenhead,83372,1,13,31,46,2018-06-24,25
E06000041,Wokingham,50284,1,6,20,29,2018-06-24,25
E10000014,Hampshire,611670,13,93,209,311,2018-06-24,25
E06000046,Isle of Wight,59154,0,5,10,33,2018-06-24,25
E06000044,Portsmouth,163121,0,6,12,52,2018-06-24,25
E06000045,Southampton,132028,0,13,25,51,2018-06-24,25
