CODE,NAME,TOTAL_POP,Flu_OBS,Vom_OBS,Diarr_OBS,Gastro_OBS,lastdate,week
E09000002,Barking and Dagenham,78902,5,9,21,40,2016-11-06,44
E09000003,Barnet,305393,20,68,104,194,2016-11-06,44
E09000004,Bexley,26453,1,18,14,30,2016-11-06,44
E09000005,Brent,260942,22,69,89,176,2016-11-06,44
E09000006,Bromley,254213,15,25,55,109,2016-11-06,44
E09000007,Camden,232116,18,49,120,183,2016-11-06,44
E09000008,Croydon,200716,8,51,63,137,2016-11-06,44
E09000009,Ealing,52506,0,1,1,19,2016-11-06,44
E09000010,Enfield,249569,14,58,83,185,2016-11-06,44
E09000011,Greenwich,51963,1,17,23,38,2016-11-06,44
E09000012,Hackney (including City of London),235524,15,53,84,203,2016-11-06,44
E09000013,Hammersmith and Fulham,35766,0,0,1,13,2016-11-06,44
E09000014,Haringey,208391,9,51,62,135,2016-11-06,44
E09000015,Harrow,166589,20,34,56,105,2016-11-06,44
E09000016,Havering,67212,1,6,18,31,2016-11-06,44
E09000017,Hillingdon,221240,12,64,78,172,2016-11-06,44
E09000018,Hounslow,109096,1,11,5,66,2016-11-06,44
E09000019,Islington,195147,18,62,115,192,2016-11-06,44
E09000020,Kensington and Chelsea,25917,0,1,0,7,2016-11-06,44
E09000021,Kingston upon Thames,112956,7,17,34,55,2016-11-06,44
E09000022,Lambeth,316571,26,57,92,165,2016-11-06,44
E09000023,Lewisham,254022,16,73,106,210,2016-11-06,44
E09000024,Merton,121569,11,27,40,73,2016-11-06,44
E09000025,Newham,271300,20,46,57,140,2016-11-06,44
E09000026,Redbridge,144450,6,15,29,60,2016-11-06,44
E09000027,Richmond upon Thames,27735,0,1,11,19,2016-11-06,44
E09000028,Southwark,218930,12,60,66,149,2016-11-06,44
E09000029,Sutton,116801,11,26,38,71,2016-11-06,44
E09000030,Tower Hamlets,231553,30,68,128,237,2016-11-06,44
E09000031,Waltham Forest,145087,6,27,38,88,2016-11-06,44
E09000032,Wandsworth,309003,30,58,87,180,2016-11-06,44
E09000033,Westminster,4912,0,0,0,0,2016-11-06,44
E10000003,Cambridgeshire,267108,12,38,92,187,2016-11-06,44
E10000012,Essex,612007,13,66,129,297,2016-11-06,44
E10000020,Norfolk,359860,20,44,138,213,2016-11-06,44
E06000031,Peterborough,98630,1,10,18,95,2016-11-06,44
E06000033,Southend-on-Sea,19521,1,1,5,10,2016-11-06,44
E10000029,Suffolk,284566,10,43,90,193,2016-11-06,44
E06000034,Thurrock,68399,0,14,18,74,2016-11-06,44
E06000055,Bedford,32029,0,1,16,50,2016-11-06,44
E06000056,Central Bedfordshire,117315,1,8,29,120,2016-11-06,44
E10000015,Hertfordshire,469915,27,90,149,286,2016-11-06,44
E06000032,Luton,97773,0,14,22,82,2016-11-06,44
E06000042,Milton Keynes,258094,1,27,53,278,2016-11-06,44
E06000015,Derby,68881,0,17,24,91,2016-11-06,44
E10000007,Derbyshire,237212,8,36,93,162,2016-11-06,44
E06000016,Leicester,174417,1,19,19,127,2016-11-06,44
E10000018,Leicestershire (including Rutland),340632,15,74,118,251,2016-11-06,44
E10000019,Lincolnshire,264638,6,39,82,153,2016-11-06,44
E06000018,Nottingham,125533,18,23,20,70,2016-11-06,44
E10000024,Nottinghamshire,196107,1,17,70,171,2016-11-06,44
E10000021,Northamptonshire,294256,11,37,86,190,2016-11-06,44
E08000025,Birmingham,573034,38,158,215,458,2016-11-06,44
E08000026,Coventry,185746,15,47,54,120,2016-11-06,44
E08000027,Dudley,203326,9,41,80,131,2016-11-06,44
E06000019,"Herefordshire, County of",132155,1,42,75,96,2016-11-06,44
E08000028,Sandwell,102861,1,20,29,89,2016-11-06,44
E06000051,Shropshire,178521,8,34,87,124,2016-11-06,44
E08000029,Solihull,92419,1,16,44,93,2016-11-06,44
E10000028,Staffordshire,511450,24,114,217,355,2016-11-06,44
E06000021,Stoke-on-Trent,154885,6,66,75,151,2016-11-06,44
E06000020,Telford and Wrekin,113546,7,19,49,76,2016-11-06,44
E08000030,Walsall,217973,9,33,48,104,2016-11-06,44
E10000031,Warwickshire,304048,23,69,124,209,2016-11-06,44
E08000031,Wolverhampton,184929,1,28,50,102,2016-11-06,44
E10000034,Worcestershire,427120,25,87,179,302,2016-11-06,44
E06000049,Cheshire East,355087,17,111,178,290,2016-11-06,44
E06000050,Cheshire West and Chester,188650,19,85,122,201,2016-11-06,44
E06000006,Halton,83273,6,25,40,67,2016-11-06,44
E08000011,Knowsley,117974,10,22,30,63,2016-11-06,44
E08000012,Liverpool,312443,25,110,163,316,2016-11-06,44
E08000014,Sefton,193801,14,48,108,165,2016-11-06,44
E08000013,St. Helens,114995,8,35,56,92,2016-11-06,44
E06000007,Warrington,96867,1,7,31,123,2016-11-06,44
E08000015,Wirral,214024,8,58,127,210,2016-11-06,44
E06000008,Blackburn with Darwen,137529,12,43,57,121,2016-11-06,44
E06000009,Blackpool,115662,6,31,49,90,2016-11-06,44
E10000006,Cumbria,332026,24,92,155,246,2016-11-06,44
E10000017,Lancashire,832472,27,216,298,578,2016-11-06,44
E08000001,Bolton,60696,0,15,23,88,2016-11-06,44
E08000002,Bury,0,NA,NA,NA,0,2016-11-06,44
E08000003,Manchester,432658,29,101,130,287,2016-11-06,44
E08000004,Oldham,176899,19,48,83,167,2016-11-06,44
E08000005,Rochdale,166069,10,60,83,149,2016-11-06,44
E08000006,Salford,39356,1,14,18,31,2016-11-06,44
E08000007,Stockport,182543,13,50,74,141,2016-11-06,44
E08000008,Tameside,153133,1,42,73,112,2016-11-06,44
E08000009,Trafford,152462,15,29,53,88,2016-11-06,44
E08000010,Wigan,126819,1,20,38,93,2016-11-06,44
E06000047,County Durham,161323,6,39,54,132,2016-11-06,44
E06000005,Darlington,27117,1,1,6,23,2016-11-06,44
E08000037,Gateshead,136276,17,47,85,140,2016-11-06,44
E06000001,Hartlepool,6334,0,1,1,1,2016-11-06,44
E06000002,Middlesbrough,10753,1,1,1,1,2016-11-06,44
E08000021,Newcastle upon Tyne,149827,10,19,43,93,2016-11-06,44
E08000022,North Tyneside,129512,1,23,45,70,2016-11-06,44
E06000057,Northumberland,126226,1,20,40,74,2016-11-06,44
E06000003,Redcar and Cleveland,37969,0,1,6,17,2016-11-06,44
E08000023,South Tyneside,102739,5,16,33,51,2016-11-06,44
E06000004,Stockton-on-Tees,67506,1,1,13,49,2016-11-06,44
E08000024,Sunderland,200248,6,24,66,102,2016-11-06,44
E08000016,Barnsley,136179,5,18,45,92,2016-11-06,44
E08000032,Bradford,388269,1,44,62,282,2016-11-06,44
E08000033,Calderdale,81495,1,19,25,99,2016-11-06,44
E08000017,Doncaster,152159,1,32,51,108,2016-11-06,44
E06000011,East Riding of Yorkshire,119638,1,26,69,91,2016-11-06,44
E06000010,"Kingston upon Hull, City of",55817,1,9,14,40,2016-11-06,44
E08000034,Kirklees,167841,5,20,38,123,2016-11-06,44
E08000035,Leeds,464280,10,51,142,336,2016-11-06,44
E06000012,North East Lincolnshire,60838,0,10,16,58,2016-11-06,44
E06000013,North Lincolnshire,70632,5,12,30,59,2016-11-06,44
E10000023,North Yorkshire,286287,8,37,106,216,2016-11-06,44
E08000018,Rotherham,113216,5,36,60,101,2016-11-06,44
E08000019,Sheffield,249112,8,25,43,123,2016-11-06,44
E08000036,Wakefield,147313,6,19,32,87,2016-11-06,44
E06000014,York,39110,1,9,25,40,2016-11-06,44
E06000022,Bath and North East Somerset,116202,1,12,33,66,2016-11-06,44
E06000023,"Bristol, City of",314904,33,116,172,311,2016-11-06,44
E10000013,Gloucestershire,159292,10,37,66,127,2016-11-06,44
E06000024,North Somerset,134729,14,41,99,135,2016-11-06,44
E06000025,South Gloucestershire,148967,1,42,88,128,2016-11-06,44
E06000030,Swindon,73854,0,5,6,18,2016-11-06,44
E06000054,Wiltshire,192117,1,11,38,96,2016-11-06,44
E06000052,Cornwall (including Isles of Scilly),70272,1,22,38,63,2016-11-06,44
E10000008,Devon,288634,12,24,73,110,2016-11-06,44
E06000026,Plymouth,60323,7,18,25,45,2016-11-06,44
E10000027,Somerset,363051,17,123,223,342,2016-11-06,44
E06000027,Torbay,75205,9,21,23,43,2016-11-06,44
E06000028,Bournemouth,109586,1,9,22,62,2016-11-06,44
E10000009,Dorset,199593,1,18,43,74,2016-11-06,44
E06000029,Poole,71916,0,7,19,38,2016-11-06,44
E06000043,Brighton and Hove,132575,1,16,40,89,2016-11-06,44
E10000011,East Sussex,235845,9,45,110,146,2016-11-06,44
E10000016,Kent,624651,41,126,227,369,2016-11-06,44
E06000035,Medway,61345,1,24,35,60,2016-11-06,44
E10000030,Surrey,731808,30,135,239,441,2016-11-06,44
E10000032,West Sussex,336427,22,46,123,262,2016-11-06,44
E06000036,Bracknell Forest,81787,1,20,21,53,2016-11-06,44
E10000002,Buckinghamshire,385087,18,70,144,264,2016-11-06,44
E10000025,Oxfordshire,451469,43,90,165,292,2016-11-06,44
E06000038,Reading,83202,1,9,29,44,2016-11-06,44
E06000039,Slough,102234,5,26,26,66,2016-11-06,44
E06000037,West Berkshire,83202,1,9,29,44,2016-11-06,44
E06000040,Windsor and Maidenhead,105155,5,26,27,68,2016-11-06,44
E06000041,Wokingham,83202,1,9,29,44,2016-11-06,44
E10000014,Hampshire,765721,32,155,275,436,2016-11-06,44
E06000046,Isle of Wight,6208,0,1,1,0,2016-11-06,44
E06000044,Portsmouth,22784,0,1,1,25,2016-11-06,44
E06000045,Southampton,155859,1,21,31,80,2016-11-06,44
