CODE,NAME,TOTAL_POP,Flu_OBS,Vom_OBS,Diarr_OBS,Gastro_OBS,lastdate,week
E09000002,Barking and Dagenham,80224,13,20,22,46,2014-02-16,7
E09000003,Barnet,296745,35,77,132,225,2014-02-16,7
E09000004,Bexley,37664,6,11,18,30,2014-02-16,7
E09000005,Brent,243942,44,64,94,170,2014-02-16,7
E09000006,Bromley,297496,26,37,72,125,2014-02-16,7
E09000007,Camden,237491,46,70,107,190,2014-02-16,7
E09000008,Croydon,241915,25,42,62,125,2014-02-16,7
E09000009,Ealing,238390,20,51,44,126,2014-02-16,7
E09000010,Enfield,178698,27,37,84,150,2014-02-16,7
E09000011,Greenwich,64250,22,31,49,94,2014-02-16,7
E09000012,Hackney (including City of London),236500,33,62,96,221,2014-02-16,7
E09000013,Hammersmith and Fulham,33549,1,1,1,6,2014-02-16,7
E09000014,Haringey,204203,23,50,70,135,2014-02-16,7
E09000015,Harrow,164774,32,46,74,146,2014-02-16,7
E09000016,Havering,54903,1,9,12,20,2014-02-16,7
E09000017,Hillingdon,245256,40,69,91,193,2014-02-16,7
E09000018,Hounslow,77982,1,7,1,34,2014-02-16,7
E09000019,Islington,214464,60,71,102,208,2014-02-16,7
E09000020,Kensington and Chelsea,103062,7,7,12,24,2014-02-16,7
E09000021,Kingston upon Thames,78181,9,12,29,42,2014-02-16,7
E09000022,Lambeth,278603,56,63,115,214,2014-02-16,7
E09000023,Lewisham,289081,37,67,118,217,2014-02-16,7
E09000024,Merton,159630,12,33,58,100,2014-02-16,7
E09000025,Newham,351344,64,63,91,200,2014-02-16,7
E09000026,Redbridge,127969,12,26,37,85,2014-02-16,7
E09000027,Richmond upon Thames,25985,5,1,11,22,2014-02-16,7
E09000028,Southwark,274079,58,75,100,213,2014-02-16,7
E09000029,Sutton,153370,12,31,55,97,2014-02-16,7
E09000030,Tower Hamlets,264846,59,63,140,232,2014-02-16,7
E09000031,Waltham Forest,105393,19,19,28,54,2014-02-16,7
E09000032,Wandsworth,362958,44,88,133,264,2014-02-16,7
E09000033,Westminster,132901,19,19,48,85,2014-02-16,7
E10000003,Cambridgeshire,238635,24,49,94,175,2014-02-16,7
E10000012,Essex,607900,25,48,169,322,2014-02-16,7
E10000020,Norfolk,361153,30,55,127,233,2014-02-16,7
E06000031,Peterborough,104846,8,10,10,39,2014-02-16,7
E06000033,Southend-on-Sea,33944,1,1,13,25,2014-02-16,7
E10000029,Suffolk,375976,23,48,101,190,2014-02-16,7
E06000034,Thurrock,40407,1,1,9,38,2014-02-16,7
E06000015,Derby,71431,1,18,25,87,2014-02-16,7
E10000007,Derbyshire,253449,26,52,113,193,2014-02-16,7
E06000016,Leicester,100238,1,22,24,118,2014-02-16,7
E10000018,Leicestershire (including Rutland),398678,26,84,174,289,2014-02-16,7
E10000019,Lincolnshire,234138,13,50,85,171,2014-02-16,7
E06000018,Nottingham,176784,6,27,54,107,2014-02-16,7
E10000024,Nottinghamshire,226182,6,28,70,137,2014-02-16,7
E06000055,Bedford,18681,0,1,1,8,2014-02-16,7
E06000056,Central Bedfordshire,98529,10,16,39,142,2014-02-16,7
E10000015,Hertfordshire,572459,58,95,183,336,2014-02-16,7
E06000032,Luton,80619,12,10,16,66,2014-02-16,7
E06000042,Milton Keynes,56167,0,1,1,36,2014-02-16,7
E10000021,Northamptonshire,304844,23,58,112,239,2014-02-16,7
E08000025,Birmingham,694455,98,170,247,499,2014-02-16,7
E08000026,Coventry,252109,21,67,71,150,2014-02-16,7
E08000027,Dudley,138222,9,36,63,95,2014-02-16,7
E06000019,"Herefordshire, County of",145277,16,30,71,113,2014-02-16,7
E08000028,Sandwell,114227,18,32,37,91,2014-02-16,7
E06000051,Shropshire,192254,1,53,79,127,2014-02-16,7
E08000029,Solihull,77836,12,10,25,64,2014-02-16,7
E10000028,Staffordshire,488120,52,124,187,296,2014-02-16,7
E06000021,Stoke-on-Trent,177061,32,57,72,146,2014-02-16,7
E06000020,Telford and Wrekin,40449,1,13,26,35,2014-02-16,7
E08000030,Walsall,254000,17,44,81,146,2014-02-16,7
E10000031,Warwickshire,301225,24,63,119,189,2014-02-16,7
E08000031,Wolverhampton,166652,20,31,55,93,2014-02-16,7
E10000034,Worcestershire,451776,37,105,203,325,2014-02-16,7
E06000049,Cheshire East,411679,28,109,190,304,2014-02-16,7
E06000050,Cheshire West and Chester,207031,22,69,133,196,2014-02-16,7
E06000006,Halton,81858,1,29,39,67,2014-02-16,7
E08000011,Knowsley,126285,8,36,48,80,2014-02-16,7
E08000012,Liverpool,300014,30,81,123,213,2014-02-16,7
E08000014,Sefton,236235,14,55,120,173,2014-02-16,7
E08000013,St. Helens,113042,12,39,54,92,2014-02-16,7
E06000007,Warrington,76952,1,12,28,95,2014-02-16,7
E08000015,Wirral,223688,18,44,113,177,2014-02-16,7
E06000008,Blackburn with Darwen,143540,1,41,58,119,2014-02-16,7
E06000009,Blackpool,128972,1,27,54,96,2014-02-16,7
E10000006,Cumbria,329894,22,102,159,263,2014-02-16,7
E10000017,Lancashire,959593,58,220,328,628,2014-02-16,7
E08000001,Bolton,47189,1,19,23,63,2014-02-16,7
E08000002,Bury,NA,NA,NA,NA,NA,2014-02-16,7
E08000003,Manchester,317380,49,113,146,268,2014-02-16,7
E08000004,Oldham,171821,11,47,57,124,2014-02-16,7
E08000005,Rochdale,110370,13,31,42,85,2014-02-16,7
E08000006,Salford,35326,0,5,8,18,2014-02-16,7
E08000007,Stockport,111074,6,25,37,76,2014-02-16,7
E08000008,Tameside,122553,10,28,37,66,2014-02-16,7
E08000009,Trafford,104425,1,21,41,71,2014-02-16,7
E08000010,Wigan,135129,22,26,28,81,2014-02-16,7
E06000047,County Durham,255728,17,47,76,139,2014-02-16,7
E06000005,Darlington,19214,0,1,1,10,2014-02-16,7
E08000020,Gateshead,199099,8,54,99,142,2014-02-16,7
E06000001,Hartlepool,18327,0,1,1,11,2014-02-16,7
E06000002,Middlesbrough,15648,1,1,7,14,2014-02-16,7
E08000021,Newcastle upon Tyne,183113,6,11,27,61,2014-02-16,7
E08000022,North Tyneside,107008,1,16,28,54,2014-02-16,7
E06000048,Northumberland,190293,9,35,64,93,2014-02-16,7
E06000003,Redcar and Cleveland,57249,1,5,6,15,2014-02-16,7
E08000023,South Tyneside,143419,16,34,63,100,2014-02-16,7
E06000004,Stockton-on-Tees,40055,1,5,11,14,2014-02-16,7
E08000024,Sunderland,172382,13,39,61,108,2014-02-16,7
E08000016,Barnsley,143427,7,32,56,92,2014-02-16,7
E08000032,Bradford,282329,13,25,58,252,2014-02-16,7
E08000033,Calderdale,86220,7,22,33,74,2014-02-16,7
E08000017,Doncaster,113760,1,20,45,75,2014-02-16,7
E06000011,East Riding of Yorkshire,94893,8,25,33,51,2014-02-16,7
E06000010,"Kingston upon Hull, City of",49700,0,1,16,38,2014-02-16,7
E08000034,Kirklees,143954,13,37,59,114,2014-02-16,7
E08000035,Leeds,399760,38,89,135,343,2014-02-16,7
E06000012,North East Lincolnshire,62550,1,10,19,41,2014-02-16,7
E06000013,North Lincolnshire,49488,1,1,10,37,2014-02-16,7
E10000023,North Yorkshire,255907,16,55,92,178,2014-02-16,7
E08000018,Rotherham,112933,9,32,45,82,2014-02-16,7
E08000019,Sheffield,166216,15,22,41,106,2014-02-16,7
E08000036,Wakefield,119330,7,24,38,99,2014-02-16,7
E06000014,York,64318,5,18,29,51,2014-02-16,7
E06000022,Bath and North East Somerset,111483,12,9,21,39,2014-02-16,7
E06000023,"Bristol, City of",397428,58,111,196,337,2014-02-16,7
E10000013,Gloucestershire,228162,17,45,86,147,2014-02-16,7
E06000024,North Somerset,181165,37,48,110,161,2014-02-16,7
E06000025,South Gloucestershire,211208,22,58,90,153,2014-02-16,7
E06000030,Swindon,55609,1,1,15,31,2014-02-16,7
E06000054,Wiltshire,118443,1,1,17,46,2014-02-16,7
E06000052,Cornwall (including Isles of Scilly),86351,1,22,42,68,2014-02-16,7
E10000008,Devon,216524,9,16,51,105,2014-02-16,7
E06000026,Plymouth,100237,13,17,41,65,2014-02-16,7
E10000027,Somerset,424545,55,152,226,374,2014-02-16,7
E06000027,Torbay,35990,1,7,21,27,2014-02-16,7
E06000043,Brighton and Hove,141386,22,25,51,96,2014-02-16,7
E10000011,East Sussex,258187,10,84,130,207,2014-02-16,7
E10000016,Kent,635587,80,137,224,384,2014-02-16,7
E06000035,Medway,66239,12,26,38,56,2014-02-16,7
E10000030,Surrey,826391,62,161,291,475,2014-02-16,7
E10000032,West Sussex,335767,24,61,133,264,2014-02-16,7
E06000036,Bracknell Forest,72653,8,13,24,44,2014-02-16,7
E10000002,Buckinghamshire,370699,42,99,149,273,2014-02-16,7
E10000025,Oxfordshire,453695,69,118,188,320,2014-02-16,7
E06000038,Reading,89843,17,18,31,57,2014-02-16,7
E06000039,Slough,180659,27,34,60,112,2014-02-16,7
E06000037,West Berkshire,89843,17,18,31,57,2014-02-16,7
E06000040,Windsor and Maidenhead,93411,10,16,30,56,2014-02-16,7
E06000041,Wokingham,NA,NA,NA,NA,NA,2014-02-16,7
E06000028,Bournemouth,95059,1,14,23,53,2014-02-16,7
E10000009,Dorset,168543,9,18,39,88,2014-02-16,7
E10000014,Hampshire,731691,68,148,274,423,2014-02-16,7
E06000046,Isle of Wight,NA,NA,NA,NA,NA,2014-02-16,7
E06000029,Poole,80629,1,11,18,37,2014-02-16,7
E06000044,Portsmouth,104942,5,25,37,61,2014-02-16,7
E06000045,Southampton,95926,1,10,27,63,2014-02-16,7
