CODE,NAME,TOTAL_POP,Flu_OBS,Vom_OBS,Diarr_OBS,Gastro_OBS,lastdate,week
E09000002,Barking and Dagenham,61720,10,16,15,44,2015-03-29,13
E09000003,Barnet,265399,68,60,86,190,2015-03-29,13
E09000004,Bexley,39812,7,14,24,35,2015-03-29,13
E09000005,Brent,249735,78,99,125,233,2015-03-29,13
E09000006,Bromley,214185,30,35,70,117,2015-03-29,13
E09000007,Camden,204468,46,44,87,166,2015-03-29,13
E09000008,Croydon,209549,44,64,82,159,2015-03-29,13
E09000009,Ealing,103859,1,10,11,38,2015-03-29,13
E09000010,Enfield,146974,18,48,50,122,2015-03-29,13
E09000011,Greenwich,48481,13,14,22,51,2015-03-29,13
E09000012,Hackney (including City of London),208224,50,60,92,189,2015-03-29,13
E09000013,Hammersmith and Fulham,31010,1,6,1,47,2015-03-29,13
E09000014,Haringey,173786,29,32,59,124,2015-03-29,13
E09000015,Harrow,162266,42,68,65,169,2015-03-29,13
E09000016,Havering,48536,5,1,10,19,2015-03-29,13
E09000017,Hillingdon,219588,40,69,86,182,2015-03-29,13
E09000018,Hounslow,106759,7,10,24,78,2015-03-29,13
E09000019,Islington,172300,47,53,79,179,2015-03-29,13
E09000020,Kensington and Chelsea,26553,1,1,1,14,2015-03-29,13
E09000021,Kingston upon Thames,53299,5,12,31,45,2015-03-29,13
E09000022,Lambeth,242724,71,73,94,197,2015-03-29,13
E09000023,Lewisham,186590,33,54,100,181,2015-03-29,13
E09000024,Merton,140771,27,47,65,113,2015-03-29,13
E09000025,Newham,261702,52,74,72,203,2015-03-29,13
E09000026,Redbridge,109362,5,17,26,70,2015-03-29,13
E09000027,Richmond upon Thames,32823,1,10,16,29,2015-03-29,13
E09000028,Southwark,186349,42,63,101,168,2015-03-29,13
E09000029,Sutton,135251,26,46,62,108,2015-03-29,13
E09000030,Tower Hamlets,211872,36,84,107,225,2015-03-29,13
E09000031,Waltham Forest,123479,16,24,32,94,2015-03-29,13
E09000032,Wandsworth,240462,53,50,77,160,2015-03-29,13
E09000033,Westminster,23334,0,0,0,0,2015-03-29,13
E10000003,Cambridgeshire,298125,19,48,122,232,2015-03-29,13
E10000012,Essex,637565,41,56,108,349,2015-03-29,13
E10000020,Norfolk,338881,17,63,136,249,2015-03-29,13
E06000031,Peterborough,97944,1,11,18,64,2015-03-29,13
E06000033,Southend-on-Sea,25382,1,1,5,17,2015-03-29,13
E10000029,Suffolk,285006,17,55,91,225,2015-03-29,13
E06000034,Thurrock,63946,1,1,13,58,2015-03-29,13
E06000015,Derby,73878,1,12,35,111,2015-03-29,13
E10000007,Derbyshire,266270,37,43,102,197,2015-03-29,13
E06000016,Leicester,168085,1,30,45,216,2015-03-29,13
E10000018,Leicestershire (including Rutland),397366,44,94,145,291,2015-03-29,13
E10000019,Lincolnshire,265748,10,34,62,138,2015-03-29,13
E06000018,Nottingham,168893,5,26,51,124,2015-03-29,13
E10000024,Nottinghamshire,254774,13,55,106,229,2015-03-29,13
E06000055,Bedford,37129,1,9,7,52,2015-03-29,13
E06000056,Central Bedfordshire,115180,7,13,25,108,2015-03-29,13
E10000015,Hertfordshire,484995,82,103,166,330,2015-03-29,13
E06000032,Luton,78755,1,17,13,70,2015-03-29,13
E06000042,Milton Keynes,258182,5,41,43,305,2015-03-29,13
E10000021,Northamptonshire,300922,15,47,99,215,2015-03-29,13
E08000025,Birmingham,635299,95,248,320,653,2015-03-29,13
E08000026,Coventry,195061,19,49,60,115,2015-03-29,13
E08000027,Dudley,257357,20,77,124,197,2015-03-29,13
E06000019,"Herefordshire, County of",122836,11,44,81,112,2015-03-29,13
E08000028,Sandwell,115896,1,22,53,106,2015-03-29,13
E06000051,Shropshire,172966,26,37,80,121,2015-03-29,13
E08000029,Solihull,91532,1,23,47,124,2015-03-29,13
E10000028,Staffordshire,538394,67,180,269,480,2015-03-29,13
E06000021,Stoke-on-Trent,152496,16,55,70,146,2015-03-29,13
E06000020,Telford and Wrekin,91598,11,22,37,65,2015-03-29,13
E08000030,Walsall,204507,18,45,57,129,2015-03-29,13
E10000031,Warwickshire,259039,36,85,129,231,2015-03-29,13
E08000031,Wolverhampton,157557,15,36,58,131,2015-03-29,13
E10000034,Worcestershire,414793,49,108,218,332,2015-03-29,13
E06000049,Cheshire East,315512,39,83,145,250,2015-03-29,13
E06000050,Cheshire West and Chester,184072,34,66,112,168,2015-03-29,13
E06000006,Halton,96153,11,44,53,98,2015-03-29,13
E08000011,Knowsley,129584,8,31,50,84,2015-03-29,13
E08000012,Liverpool,356714,48,142,199,383,2015-03-29,13
E08000014,Sefton,188145,14,46,100,144,2015-03-29,13
E08000013,St. Helens,132782,15,61,73,136,2015-03-29,13
E06000007,Warrington,88333,0,20,25,106,2015-03-29,13
E08000015,Wirral,185659,16,68,98,180,2015-03-29,13
E06000008,Blackburn with Darwen,109983,12,51,57,123,2015-03-29,13
E06000009,Blackpool,115339,11,34,56,98,2015-03-29,13
E10000006,Cumbria,294641,42,89,150,225,2015-03-29,13
E10000017,Lancashire,844471,66,241,411,689,2015-03-29,13
E08000001,Bolton,53926,7,17,28,54,2015-03-29,13
E08000002,Bury,0,0,0,0,0,2015-03-29,13
E08000003,Manchester,401731,32,129,167,334,2015-03-29,13
E08000004,Oldham,155586,1,38,53,114,2015-03-29,13
E08000005,Rochdale,104540,13,25,50,91,2015-03-29,13
E08000006,Salford,30197,1,6,8,18,2015-03-29,13
E08000007,Stockport,145925,15,43,65,126,2015-03-29,13
E08000008,Tameside,108859,13,35,44,86,2015-03-29,13
E08000009,Trafford,155164,13,45,86,138,2015-03-29,13
E08000010,Wigan,95570,12,15,33,69,2015-03-29,13
E06000047,County Durham,206818,18,39,82,142,2015-03-29,13
E06000005,Darlington,41086,0,1,17,47,2015-03-29,13
E08000020,Gateshead,181699,37,46,110,159,2015-03-29,13
E06000001,Hartlepool,18264,1,1,1,7,2015-03-29,13
E06000002,Middlesbrough,12207,1,1,1,8,2015-03-29,13
E08000021,Newcastle upon Tyne,176902,15,41,49,129,2015-03-29,13
E08000022,North Tyneside,154483,21,28,62,111,2015-03-29,13
E06000048,Northumberland,157154,31,22,49,78,2015-03-29,13
E06000003,Redcar and Cleveland,45680,1,1,13,26,2015-03-29,13
E08000023,South Tyneside,128287,22,49,72,120,2015-03-29,13
E06000004,Stockton-on-Tees,58051,6,10,13,36,2015-03-29,13
E08000024,Sunderland,226574,31,42,51,109,2015-03-29,13
E08000016,Barnsley,152745,13,19,31,85,2015-03-29,13
E08000032,Bradford,380446,9,72,89,340,2015-03-29,13
E08000033,Calderdale,94457,1,21,31,82,2015-03-29,13
E08000017,Doncaster,166268,16,37,75,132,2015-03-29,13
E06000011,East Riding of Yorkshire,119544,8,31,78,102,2015-03-29,13
E06000010,"Kingston upon Hull, City of",62795,1,20,28,54,2015-03-29,13
E08000034,Kirklees,162448,12,43,43,134,2015-03-29,13
E08000035,Leeds,455250,15,78,176,393,2015-03-29,13
E06000012,North East Lincolnshire,65313,1,26,47,91,2015-03-29,13
E06000013,North Lincolnshire,74301,0,1,11,43,2015-03-29,13
E10000023,North Yorkshire,321487,35,48,116,229,2015-03-29,13
E08000018,Rotherham,86859,11,26,37,90,2015-03-29,13
E08000019,Sheffield,248180,18,27,65,153,2015-03-29,13
E08000036,Wakefield,165535,8,16,44,110,2015-03-29,13
E06000014,York,81473,8,1,36,74,2015-03-29,13
E06000022,Bath and North East Somerset,112722,8,21,26,70,2015-03-29,13
E06000023,"Bristol, City of",351856,55,103,192,291,2015-03-29,13
E10000013,Gloucestershire,179284,53,29,63,113,2015-03-29,13
E06000024,North Somerset,168717,19,30,110,149,2015-03-29,13
E06000025,South Gloucestershire,201731,26,52,115,154,2015-03-29,13
E06000030,Swindon,63086,1,8,12,25,2015-03-29,13
E06000054,Wiltshire,186051,1,11,33,169,2015-03-29,13
E06000052,Cornwall (including Isles of Scilly),61676,1,13,30,41,2015-03-29,13
E10000008,Devon,255520,15,23,74,137,2015-03-29,13
E06000026,Plymouth,92291,10,23,46,80,2015-03-29,13
E10000027,Somerset,384211,74,138,244,373,2015-03-29,13
E06000027,Torbay,39544,1,12,27,39,2015-03-29,13
E06000043,Brighton and Hove,124932,13,26,37,97,2015-03-29,13
E10000011,East Sussex,249712,28,57,131,203,2015-03-29,13
E10000016,Kent,514891,64,134,252,372,2015-03-29,13
E06000035,Medway,58010,7,21,33,50,2015-03-29,13
E10000030,Surrey,754001,95,143,270,477,2015-03-29,13
E10000032,West Sussex,342074,39,77,115,288,2015-03-29,13
E06000036,Bracknell Forest,65880,5,17,25,48,2015-03-29,13
E10000002,Buckinghamshire,348141,39,78,132,266,2015-03-29,13
E10000025,Oxfordshire,407453,63,135,221,351,2015-03-29,13
E06000038,Reading,72657,10,15,28,54,2015-03-29,13
E06000039,Slough,155006,16,36,59,114,2015-03-29,13
E06000037,West Berkshire,72657,10,15,28,54,2015-03-29,13
E06000040,Windsor and Maidenhead,84702,6,22,32,62,2015-03-29,13
E06000041,Wokingham,0,0,0,0,0,2015-03-29,13
E06000028,Bournemouth,114216,8,11,26,54,2015-03-29,13
E10000009,Dorset,208371,17,31,64,112,2015-03-29,13
E10000014,Hampshire,716370,96,210,352,563,2015-03-29,13
E06000046,Isle of Wight,0,0,0,0,0,2015-03-29,13
E06000029,Poole,77204,8,11,22,41,2015-03-29,13
E06000044,Portsmouth,87158,1,20,32,64,2015-03-29,13
E06000045,Southampton,134486,1,22,41,116,2015-03-29,13
