CODE,NAME,TOTAL_POP,Flu_OBS,Vom_OBS,Diarr_OBS,Gastro_OBS,lastdate,week
E09000002,Barking and Dagenham,156123,10,22,40,74,2019-09-29,39
E09000003,Barnet,176971,1,25,57,84,2019-09-29,39
E09000004,Bexley,52480,0,5,9,16,2019-09-29,39
E09000005,Brent,191536,6,41,55,118,2019-09-29,39
E09000006,Bromley,174024,1,13,33,60,2019-09-29,39
E09000007,Camden,103316,6,15,50,57,2019-09-29,39
E09000008,Croydon,127621,1,24,22,51,2019-09-29,39
E09000009,Ealing,37703,0,1,6,16,2019-09-29,39
E09000010,Enfield,142053,1,27,36,78,2019-09-29,39
E09000011,Greenwich,38243,1,6,15,28,2019-09-29,39
E09000012,Hackney (including City of London),152854,8,14,43,75,2019-09-29,39
E09000013,Hammersmith and Fulham,42924,1,1,1,16,2019-09-29,39
E09000014,Haringey,156928,7,17,36,68,2019-09-29,39
E09000015,Harrow,116807,13,24,47,92,2019-09-29,39
E09000016,Havering,127776,5,6,33,56,2019-09-29,39
E09000017,Hillingdon,183333,1,36,59,106,2019-09-29,39
E09000018,Hounslow,106693,1,1,13,33,2019-09-29,39
E09000019,Islington,100003,1,24,52,81,2019-09-29,39
E09000020,Kensington and Chelsea,26178,0,0,0,1,2019-09-29,39
E09000021,Kingston upon Thames,133366,1,14,32,57,2019-09-29,39
E09000022,Lambeth,125364,6,17,35,65,2019-09-29,39
E09000023,Lewisham,155480,5,23,45,93,2019-09-29,39
E09000024,Merton,94742,5,13,29,46,2019-09-29,39
E09000025,Newham,255788,20,54,70,157,2019-09-29,39
E09000026,Redbridge,114521,0,12,28,60,2019-09-29,39
E09000027,Richmond upon Thames,42493,0,1,13,22,2019-09-29,39
E09000028,Southwark,214856,16,17,46,82,2019-09-29,39
E09000029,Sutton,91027,1,13,28,44,2019-09-29,39
E09000030,Tower Hamlets,150157,6,33,56,96,2019-09-29,39
E09000031,Waltham Forest,152463,8,12,21,48,2019-09-29,39
E09000032,Wandsworth,235086,17,35,63,119,2019-09-29,39
E09000033,Westminster,2330,0,0,1,1,2019-09-29,39
E10000003,Cambridgeshire,226329,0,7,56,95,2019-09-29,39
E10000012,Essex,493094,1,20,100,178,2019-09-29,39
E10000020,Norfolk,241554,7,11,71,120,2019-09-29,39
E06000031,Peterborough,127003,1,8,23,88,2019-09-29,39
E06000033,Southend-on-Sea,2720,0,0,1,0,2019-09-29,39
E10000029,Suffolk,192367,1,9,49,98,2019-09-29,39
E06000034,Thurrock,63572,0,1,8,25,2019-09-29,39
E06000055,Bedford,33344,0,1,1,33,2019-09-29,39
E06000056,Central Bedfordshire,124385,0,12,32,90,2019-09-29,39
E10000015,Hertfordshire,370285,15,37,109,191,2019-09-29,39
E06000032,Luton,90271,1,9,16,50,2019-09-29,39
E06000042,Milton Keynes,270235,1,20,60,256,2019-09-29,39
E06000015,Derby,67263,0,6,17,35,2019-09-29,39
E10000007,Derbyshire,183235,1,16,67,107,2019-09-29,39
E06000016,Leicester,181211,0,7,24,128,2019-09-29,39
E10000018,Leicestershire (including Rutland),225007,1,17,44,110,2019-09-29,39
E10000019,Lincolnshire,196540,1,16,50,79,2019-09-29,39
E06000018,Nottingham,103115,1,12,18,37,2019-09-29,39
E10000024,Nottinghamshire,181876,1,14,62,122,2019-09-29,39
E10000021,Northamptonshire,247742,0,19,59,145,2019-09-29,39
E08000025,Birmingham,464872,16,76,107,262,2019-09-29,39
E08000026,Coventry,199652,8,37,49,110,2019-09-29,39
E08000027,Dudley,182940,1,22,59,93,2019-09-29,39
E06000019,"Herefordshire, County of",116816,1,14,38,53,2019-09-29,39
E08000028,Sandwell,101247,1,12,20,55,2019-09-29,39
E06000051,Shropshire,170824,5,34,89,112,2019-09-29,39
E08000029,Solihull,80291,0,12,23,69,2019-09-29,39
E10000028,Staffordshire,523782,6,76,183,285,2019-09-29,39
E06000021,Stoke-on-Trent,160015,1,26,61,103,2019-09-29,39
E06000020,Telford and Wrekin,54430,1,9,18,26,2019-09-29,39
E08000030,Walsall,135918,1,14,36,58,2019-09-29,39
E10000031,Warwickshire,234308,9,38,82,134,2019-09-29,39
E08000031,Wolverhampton,105426,1,5,21,28,2019-09-29,39
E10000034,Worcestershire,264297,1,40,88,126,2019-09-29,39
E06000049,Cheshire East,199682,11,40,103,158,2019-09-29,39
E06000050,Cheshire West and Chester,161250,5,35,90,132,2019-09-29,39
E06000006,Halton,63249,1,15,18,40,2019-09-29,39
E08000011,Knowsley,73110,1,12,12,30,2019-09-29,39
E08000012,Liverpool,297259,10,66,129,204,2019-09-29,39
E08000014,Sefton,170653,10,29,66,100,2019-09-29,39
E08000013,St. Helens,87344,1,21,26,55,2019-09-29,39
E06000007,Warrington,103825,0,7,23,67,2019-09-29,39
E08000015,Wirral,185056,9,54,98,158,2019-09-29,39
E06000008,Blackburn with Darwen,108748,6,21,30,59,2019-09-29,39
E06000009,Blackpool,74121,1,10,17,31,2019-09-29,39
E10000006,Cumbria,305795,19,49,136,193,2019-09-29,39
E10000017,Lancashire,724504,30,122,282,440,2019-09-29,39
E08000001,Bolton,71111,1,6,17,41,2019-09-29,39
E08000002,Bury,0,NA,NA,NA,NA,2019-09-29,39
E08000003,Manchester,307696,10,45,80,168,2019-09-29,39
E08000004,Oldham,133210,14,23,37,75,2019-09-29,39
E08000005,Rochdale,139584,0,43,55,98,2019-09-29,39
E08000006,Salford,61740,1,8,18,31,2019-09-29,39
E08000007,Stockport,154778,6,15,58,91,2019-09-29,39
E08000008,Tameside,127439,8,20,52,79,2019-09-29,39
E08000009,Trafford,136306,1,25,49,76,2019-09-29,39
E08000010,Wigan,110496,1,11,27,60,2019-09-29,39
E06000047,County Durham,140129,0,12,47,100,2019-09-29,39
E06000005,Darlington,26919,0,1,6,18,2019-09-29,39
E08000037,Gateshead,130931,1,37,76,117,2019-09-29,39
E06000001,Hartlepool,9918,0,0,1,0,2019-09-29,39
E06000002,Middlesbrough,11887,0,1,8,11,2019-09-29,39
E08000021,Newcastle upon Tyne,171555,6,23,42,73,2019-09-29,39
E08000022,North Tyneside,92386,6,10,23,47,2019-09-29,39
E06000057,Northumberland,83029,1,18,25,49,2019-09-29,39
E06000003,Redcar and Cleveland,30126,0,1,1,13,2019-09-29,39
E08000023,South Tyneside,85722,1,14,30,41,2019-09-29,39
E06000004,Stockton-on-Tees,81621,1,10,15,95,2019-09-29,39
E08000024,Sunderland,171711,1,14,53,70,2019-09-29,39
E08000016,Barnsley,126547,0,8,38,62,2019-09-29,39
E08000032,Bradford,400549,1,19,81,275,2019-09-29,39
E08000033,Calderdale,70482,1,5,14,43,2019-09-29,39
E08000017,Doncaster,119442,1,5,21,60,2019-09-29,39
E06000011,East Riding of Yorkshire,74597,1,17,33,59,2019-09-29,39
E06000010,"Kingston upon Hull, City of",31143,0,1,12,18,2019-09-29,39
E08000034,Kirklees,111179,0,15,23,57,2019-09-29,39
E08000035,Leeds,401935,6,35,95,227,2019-09-29,39
E06000012,North East Lincolnshire,63935,5,11,28,54,2019-09-29,39
E06000013,North Lincolnshire,46710,0,1,6,29,2019-09-29,39
E10000023,North Yorkshire,299573,1,34,89,176,2019-09-29,39
E08000018,Rotherham,48255,1,5,34,54,2019-09-29,39
E08000019,Sheffield,230685,1,18,32,83,2019-09-29,39
E08000036,Wakefield,163087,1,12,31,72,2019-09-29,39
E06000014,York,30245,1,8,16,26,2019-09-29,39
E06000022,Bath and North East Somerset,77406,1,5,13,38,2019-09-29,39
E06000023,"Bristol, City of",261839,18,48,115,157,2019-09-29,39
E10000013,Gloucestershire,142893,1,8,55,83,2019-09-29,39
E06000024,North Somerset,108122,0,18,56,66,2019-09-29,39
E06000025,South Gloucestershire,161361,1,25,104,102,2019-09-29,39
E06000030,Swindon,40190,0,1,1,26,2019-09-29,39
E06000054,Wiltshire,184700,0,1,24,49,2019-09-29,39
E06000052,Cornwall (including Isles of Scilly),86155,1,14,36,54,2019-09-29,39
E10000008,Devon,257598,0,14,57,89,2019-09-29,39
E06000026,Plymouth,36383,0,1,5,10,2019-09-29,39
E10000027,Somerset,266755,10,56,161,227,2019-09-29,39
E06000027,Torbay,68893,1,10,18,25,2019-09-29,39
E06000028,Bournemouth,82442,0,0,5,20,2019-09-29,39
E10000009,Dorset,171930,1,8,28,56,2019-09-29,39
E06000029,Poole,42811,0,1,1,13,2019-09-29,39
E06000043,Brighton and Hove,119759,0,9,43,74,2019-09-29,39
E10000011,East Sussex,239667,8,39,129,139,2019-09-29,39
E10000016,Kent,467111,10,69,168,257,2019-09-29,39
E06000035,Medway,126706,6,17,39,64,2019-09-29,39
E10000030,Surrey,711669,22,80,223,327,2019-09-29,39
E10000032,West Sussex,315890,6,33,95,164,2019-09-29,39
E06000036,Bracknell Forest,49308,1,9,13,23,2019-09-29,39
E10000002,Buckinghamshire,325739,6,47,97,156,2019-09-29,39
E10000025,Oxfordshire,315516,11,48,125,186,2019-09-29,39
E06000038,Reading,90185,1,11,26,47,2019-09-29,39
E06000039,Slough,61635,1,11,16,29,2019-09-29,39
E06000037,West Berkshire,90185,1,11,26,47,2019-09-29,39
E06000040,Windsor and Maidenhead,63396,1,12,17,30,2019-09-29,39
E06000041,Wokingham,90185,1,11,26,47,2019-09-29,39
E10000014,Hampshire,659509,22,81,237,335,2019-09-29,39
E06000046,Isle of Wight,79328,1,1,9,29,2019-09-29,39
E06000044,Portsmouth,182708,1,5,15,49,2019-09-29,39
E06000045,Southampton,127646,1,1,24,43,2019-09-29,39
