CODE,NAME,TOTAL_POP,Flu_OBS,Vom_OBS,Diarr_OBS,Gastro_OBS,lastdate,week
E09000002,Barking and Dagenham,84052,8,9,14,33,2015-11-29,48
E09000003,Barnet,350620,30,64,131,218,2015-11-29,48
E09000004,Bexley,40013,1,7,17,23,2015-11-29,48
E09000005,Brent,304230,63,80,90,184,2015-11-29,48
E09000006,Bromley,322451,16,53,109,159,2015-11-29,48
E09000007,Camden,243294,17,55,86,150,2015-11-29,48
E09000008,Croydon,256744,11,50,84,146,2015-11-29,48
E09000009,Ealing,58128,1,1,7,15,2015-11-29,48
E09000010,Enfield,243511,18,45,75,143,2015-11-29,48
E09000011,Greenwich,62903,13,19,25,57,2015-11-29,48
E09000012,Hackney (including City of London),238172,27,66,83,193,2015-11-29,48
E09000013,Hammersmith and Fulham,31882,0,1,1,13,2015-11-29,48
E09000014,Haringey,216053,22,48,53,125,2015-11-29,48
E09000015,Harrow,220609,22,50,78,142,2015-11-29,48
E09000016,Havering,66447,1,1,9,17,2015-11-29,48
E09000017,Hillingdon,273196,27,47,80,150,2015-11-29,48
E09000018,Hounslow,109155,1,13,14,80,2015-11-29,48
E09000019,Islington,215358,31,55,89,173,2015-11-29,48
E09000020,Kensington and Chelsea,24212,1,0,1,10,2015-11-29,48
E09000021,Kingston upon Thames,150876,11,37,39,79,2015-11-29,48
E09000022,Lambeth,314727,31,72,119,203,2015-11-29,48
E09000023,Lewisham,302905,29,73,130,234,2015-11-29,48
E09000024,Merton,149558,14,30,57,108,2015-11-29,48
E09000025,Newham,361205,44,64,100,199,2015-11-29,48
E09000026,Redbridge,150908,6,9,27,49,2015-11-29,48
E09000027,Richmond upon Thames,33405,1,11,10,24,2015-11-29,48
E09000028,Southwark,261262,46,36,76,129,2015-11-29,48
E09000029,Sutton,143693,13,29,55,103,2015-11-29,48
E09000030,Tower Hamlets,256761,45,73,118,219,2015-11-29,48
E09000031,Waltham Forest,202988,18,29,43,107,2015-11-29,48
E09000032,Wandsworth,334769,20,55,100,180,2015-11-29,48
E09000033,Westminster,19290,0,0,0,0,2015-11-29,48
E10000003,Cambridgeshire,314771,26,46,96,210,2015-11-29,48
E10000012,Essex,652742,16,58,167,349,2015-11-29,48
E10000020,Norfolk,388601,14,49,154,274,2015-11-29,48
E06000031,Peterborough,97096,1,11,13,74,2015-11-29,48
E06000033,Southend-on-Sea,25642,0,1,8,20,2015-11-29,48
E10000029,Suffolk,305856,7,31,105,183,2015-11-29,48
E06000034,Thurrock,68950,0,10,11,64,2015-11-29,48
E06000055,Bedford,32455,0,1,6,40,2015-11-29,48
E06000056,Central Bedfordshire,109063,0,20,31,160,2015-11-29,48
E10000015,Hertfordshire,610396,52,103,184,367,2015-11-29,48
E06000032,Luton,86927,1,20,23,97,2015-11-29,48
E06000042,Milton Keynes,254953,21,27,49,263,2015-11-29,48
E06000015,Derby,67682,1,9,27,90,2015-11-29,48
E10000007,Derbyshire,298345,12,46,106,186,2015-11-29,48
E06000016,Leicester,170877,1,10,28,124,2015-11-29,48
E10000018,Leicestershire (including Rutland),422830,26,75,190,322,2015-11-29,48
E10000019,Lincolnshire,318738,10,39,104,170,2015-11-29,48
E06000018,Nottingham,137699,9,27,37,86,2015-11-29,48
E10000024,Nottinghamshire,227478,9,26,96,205,2015-11-29,48
E10000021,Northamptonshire,302404,9,39,82,232,2015-11-29,48
E08000025,Birmingham,728422,67,194,209,486,2015-11-29,48
E08000026,Coventry,235602,33,46,57,111,2015-11-29,48
E08000027,Dudley,264481,24,43,84,149,2015-11-29,48
E06000019,"Herefordshire, County of",122944,10,25,68,87,2015-11-29,48
E08000028,Sandwell,110567,13,16,26,69,2015-11-29,48
E06000051,Shropshire,242929,9,49,87,152,2015-11-29,48
E08000029,Solihull,89956,1,13,24,78,2015-11-29,48
E10000028,Staffordshire,653531,33,118,264,399,2015-11-29,48
E06000021,Stoke-on-Trent,175594,11,57,71,157,2015-11-29,48
E06000020,Telford and Wrekin,140815,7,24,41,72,2015-11-29,48
E08000030,Walsall,230174,1,31,43,96,2015-11-29,48
E10000031,Warwickshire,373399,17,76,168,255,2015-11-29,48
E08000031,Wolverhampton,187634,24,42,58,126,2015-11-29,48
E10000034,Worcestershire,496363,21,120,180,308,2015-11-29,48
E06000049,Cheshire East,402727,25,85,186,282,2015-11-29,48
E06000050,Cheshire West and Chester,252516,17,88,150,226,2015-11-29,48
E06000006,Halton,108788,9,33,52,89,2015-11-29,48
E08000011,Knowsley,143178,7,15,35,52,2015-11-29,48
E08000012,Liverpool,407287,40,109,181,312,2015-11-29,48
E08000014,Sefton,233800,14,36,93,134,2015-11-29,48
E08000013,St. Helens,150231,12,45,71,122,2015-11-29,48
E06000007,Warrington,98144,1,17,30,109,2015-11-29,48
E08000015,Wirral,282220,16,72,153,236,2015-11-29,48
E06000008,Blackburn with Darwen,129680,5,25,28,63,2015-11-29,48
E06000009,Blackpool,133190,6,28,55,81,2015-11-29,48
E10000006,Cumbria,364824,15,81,193,268,2015-11-29,48
E10000017,Lancashire,1114331,37,229,409,717,2015-11-29,48
E08000001,Bolton,62681,1,8,19,56,2015-11-29,48
E08000002,Bury,NA,NA,NA,NA,NA,2015-11-29,48
E08000003,Manchester,500946,45,137,187,362,2015-11-29,48
E08000004,Oldham,208332,13,54,82,152,2015-11-29,48
E08000005,Rochdale,188729,5,58,91,163,2015-11-29,48
E08000006,Salford,42392,0,6,10,19,2015-11-29,48
E08000007,Stockport,188676,18,44,86,139,2015-11-29,48
E08000008,Tameside,152339,7,36,55,96,2015-11-29,48
E08000009,Trafford,163356,12,26,37,71,2015-11-29,48
E08000010,Wigan,115507,1,27,44,77,2015-11-29,48
E06000047,County Durham,207424,10,29,71,124,2015-11-29,48
E06000005,Darlington,41177,1,1,1,32,2015-11-29,48
E08000037,Gateshead,194405,5,68,106,189,2015-11-29,48
E06000001,Hartlepool,15172,0,1,1,6,2015-11-29,48
E06000002,Middlesbrough,13740,1,1,7,8,2015-11-29,48
E08000021,Newcastle upon Tyne,166964,7,22,39,93,2015-11-29,48
E08000022,North Tyneside,162331,8,36,62,115,2015-11-29,48
E06000057,Northumberland,163209,6,23,74,106,2015-11-29,48
E06000003,Redcar and Cleveland,51517,1,1,15,37,2015-11-29,48
E08000023,South Tyneside,139764,7,35,53,92,2015-11-29,48
E06000004,Stockton-on-Tees,78660,1,7,19,48,2015-11-29,48
E08000024,Sunderland,267792,15,43,77,136,2015-11-29,48
E08000016,Barnsley,173986,5,15,42,84,2015-11-29,48
E08000032,Bradford,391414,9,42,77,314,2015-11-29,48
E08000033,Calderdale,99106,1,17,44,96,2015-11-29,48
E08000017,Doncaster,179786,10,18,57,108,2015-11-29,48
E06000011,East Riding of Yorkshire,133305,6,35,72,91,2015-11-29,48
E06000010,"Kingston upon Hull, City of",64519,0,11,6,30,2015-11-29,48
E08000034,Kirklees,180774,7,35,57,142,2015-11-29,48
E08000035,Leeds,523718,17,86,183,397,2015-11-29,48
E06000012,North East Lincolnshire,66779,1,16,44,80,2015-11-29,48
E06000013,North Lincolnshire,86735,1,8,17,42,2015-11-29,48
E10000023,North Yorkshire,302801,22,42,123,208,2015-11-29,48
E08000018,Rotherham,109408,1,30,48,98,2015-11-29,48
E08000019,Sheffield,268791,8,27,62,134,2015-11-29,48
E08000036,Wakefield,174762,1,17,45,87,2015-11-29,48
E06000014,York,75182,6,13,31,51,2015-11-29,48
E06000022,Bath and North East Somerset,129577,1,20,47,84,2015-11-29,48
E06000023,"Bristol, City of",376861,32,120,220,333,2015-11-29,48
E10000013,Gloucestershire,208278,10,38,90,148,2015-11-29,48
E06000024,North Somerset,184321,19,37,120,159,2015-11-29,48
E06000025,South Gloucestershire,229138,10,50,137,174,2015-11-29,48
E06000030,Swindon,70076,1,1,6,16,2015-11-29,48
E06000054,Wiltshire,189905,1,9,26,88,2015-11-29,48
E06000052,Cornwall (including Isles of Scilly),97499,1,19,70,83,2015-11-29,48
E10000008,Devon,298717,5,24,88,118,2015-11-29,48
E06000026,Plymouth,84765,6,21,43,65,2015-11-29,48
E10000027,Somerset,428922,28,151,281,410,2015-11-29,48
E06000027,Torbay,62771,1,9,20,29,2015-11-29,48
E06000028,Bournemouth,144009,1,14,39,72,2015-11-29,48
E10000009,Dorset,218528,8,1,38,81,2015-11-29,48
E06000029,Poole,100968,1,9,28,53,2015-11-29,48
E06000043,Brighton and Hove,141611,18,30,53,96,2015-11-29,48
E10000011,East Sussex,300719,21,59,126,199,2015-11-29,48
E10000016,Kent,692929,34,137,253,397,2015-11-29,48
E06000035,Medway,80760,10,20,45,55,2015-11-29,48
E10000030,Surrey,919307,46,132,328,512,2015-11-29,48
E10000032,West Sussex,403542,16,54,138,290,2015-11-29,48
E06000036,Bracknell Forest,85203,6,12,26,42,2015-11-29,48
E10000002,Buckinghamshire,399755,18,59,144,247,2015-11-29,48
E10000025,Oxfordshire,508752,50,112,234,363,2015-11-29,48
E06000038,Reading,88631,1,13,30,52,2015-11-29,48
E06000039,Slough,195135,11,28,63,105,2015-11-29,48
E06000037,West Berkshire,88631,1,13,30,52,2015-11-29,48
E06000040,Windsor and Maidenhead,109547,8,15,34,54,2015-11-29,48
E06000041,Wokingham,NA,NA,NA,NA,NA,2015-11-29,48
E10000014,Hampshire,968979,58,156,381,562,2015-11-29,48
E06000046,Isle of Wight,NA,NA,NA,NA,NA,2015-11-29,48
E06000044,Portsmouth,59549,1,8,7,42,2015-11-29,48
E06000045,Southampton,151026,5,27,34,119,2015-11-29,48
