CODE,NAME,TOTAL_POP,Flu_OBS,Vom_OBS,Diarr_OBS,Gastro_OBS,lastdate,week
E09000002,Barking and Dagenham,99482,1,14,17,39,2015-06-28,26
E09000003,Barnet,341495,6,77,134,220,2015-06-28,26
E09000004,Bexley,33530,0,10,24,34,2015-06-28,26
E09000005,Brent,276055,19,52,101,161,2015-06-28,26
E09000006,Bromley,287441,1,29,72,124,2015-06-28,26
E09000007,Camden,221537,5,47,118,187,2015-06-28,26
E09000008,Croydon,264973,1,47,103,156,2015-06-28,26
E09000009,Ealing,111875,1,6,10,29,2015-06-28,26
E09000010,Enfield,200333,8,44,89,148,2015-06-28,26
E09000011,Greenwich,45113,1,14,16,35,2015-06-28,26
E09000012,Hackney (including City of London),251524,12,59,93,203,2015-06-28,26
E09000013,Hammersmith and Fulham,31382,0,1,5,17,2015-06-28,26
E09000014,Haringey,216875,5,46,71,135,2015-06-28,26
E09000015,Harrow,161020,11,29,48,103,2015-06-28,26
E09000016,Havering,44585,0,1,6,13,2015-06-28,26
E09000017,Hillingdon,289091,9,58,96,189,2015-06-28,26
E09000018,Hounslow,107211,0,1,15,59,2015-06-28,26
E09000019,Islington,215013,5,47,102,181,2015-06-28,26
E09000020,Kensington and Chelsea,23892,1,1,0,7,2015-06-28,26
E09000021,Kingston upon Thames,73862,1,13,27,34,2015-06-28,26
E09000022,Lambeth,297283,15,65,136,210,2015-06-28,26
E09000023,Lewisham,255980,6,55,95,169,2015-06-28,26
E09000024,Merton,181052,1,44,77,131,2015-06-28,26
E09000025,Newham,356565,10,62,106,220,2015-06-28,26
E09000026,Redbridge,146971,5,12,43,74,2015-06-28,26
E09000027,Richmond upon Thames,36243,0,1,9,12,2015-06-28,26
E09000028,Southwark,286136,12,60,128,211,2015-06-28,26
E09000029,Sutton,173952,1,42,74,125,2015-06-28,26
E09000030,Tower Hamlets,257422,13,66,117,219,2015-06-28,26
E09000031,Waltham Forest,136435,5,25,38,76,2015-06-28,26
E09000032,Wandsworth,324709,8,51,96,190,2015-06-28,26
E09000033,Westminster,16542,0,0,0,0,2015-06-28,26
E10000003,Cambridgeshire,297778,7,57,121,238,2015-06-28,26
E10000012,Essex,670050,1,46,156,301,2015-06-28,26
E10000020,Norfolk,370667,1,41,160,198,2015-06-28,26
E06000031,Peterborough,96136,0,12,23,58,2015-06-28,26
E06000033,Southend-on-Sea,25271,0,1,7,18,2015-06-28,26
E10000029,Suffolk,320296,1,42,126,217,2015-06-28,26
E06000034,Thurrock,65041,0,1,11,30,2015-06-28,26
E06000015,Derby,76730,0,16,27,86,2015-06-28,26
E10000007,Derbyshire,304208,1,46,117,202,2015-06-28,26
E06000016,Leicester,169285,0,6,28,130,2015-06-28,26
E10000018,Leicestershire (including Rutland),447602,5,80,178,314,2015-06-28,26
E10000019,Lincolnshire,299879,1,36,93,173,2015-06-28,26
E06000018,Nottingham,179987,0,26,54,103,2015-06-28,26
E10000024,Nottinghamshire,243272,6,28,104,185,2015-06-28,26
E06000055,Bedford,37272,0,9,14,40,2015-06-28,26
E06000056,Central Bedfordshire,115684,1,6,32,90,2015-06-28,26
E10000015,Hertfordshire,621477,11,89,196,337,2015-06-28,26
E06000032,Luton,80304,1,22,20,67,2015-06-28,26
E06000042,Milton Keynes,259586,0,27,67,195,2015-06-28,26
E10000021,Northamptonshire,313419,1,37,106,206,2015-06-28,26
E08000025,Birmingham,712233,32,171,307,529,2015-06-28,26
E08000026,Coventry,240471,7,46,88,149,2015-06-28,26
E08000027,Dudley,266612,1,41,92,148,2015-06-28,26
E06000019,"Herefordshire, County of",151221,1,31,87,118,2015-06-28,26
E08000028,Sandwell,134715,1,21,32,82,2015-06-28,26
E06000051,Shropshire,242586,10,68,114,180,2015-06-28,26
E08000029,Solihull,94111,1,9,28,66,2015-06-28,26
E10000028,Staffordshire,621726,12,125,272,423,2015-06-28,26
E06000021,Stoke-on-Trent,165735,1,40,71,124,2015-06-28,26
E06000020,Telford and Wrekin,104907,1,15,43,69,2015-06-28,26
E08000030,Walsall,251583,1,18,63,97,2015-06-28,26
E10000031,Warwickshire,300213,5,58,136,215,2015-06-28,26
E08000031,Wolverhampton,194191,1,26,52,96,2015-06-28,26
E10000034,Worcestershire,543475,7,103,246,351,2015-06-28,26
E06000049,Cheshire East,365749,6,79,168,258,2015-06-28,26
E06000050,Cheshire West and Chester,234178,5,59,140,202,2015-06-28,26
E06000006,Halton,103000,1,24,49,78,2015-06-28,26
E08000011,Knowsley,138505,1,20,38,60,2015-06-28,26
E08000012,Liverpool,379121,11,90,207,338,2015-06-28,26
E08000014,Sefton,271299,7,51,134,195,2015-06-28,26
E08000013,St. Helens,142239,1,33,68,108,2015-06-28,26
E06000007,Warrington,84350,0,6,20,54,2015-06-28,26
E08000015,Wirral,254024,7,45,129,180,2015-06-28,26
E06000008,Blackburn with Darwen,171166,1,53,63,147,2015-06-28,26
E06000009,Blackpool,112507,5,23,46,83,2015-06-28,26
E10000006,Cumbria,344402,1,93,207,311,2015-06-28,26
E10000017,Lancashire,1086863,8,220,458,784,2015-06-28,26
E08000001,Bolton,68607,1,20,36,67,2015-06-28,26
E08000002,Bury,0,0,0,0,0,2015-06-28,26
E08000003,Manchester,387445,8,101,141,266,2015-06-28,26
E08000004,Oldham,194710,1,54,58,139,2015-06-28,26
E08000005,Rochdale,148529,1,47,83,151,2015-06-28,26
E08000006,Salford,26708,1,1,13,16,2015-06-28,26
E08000007,Stockport,160588,7,25,59,99,2015-06-28,26
E08000008,Tameside,135165,1,1,37,68,2015-06-28,26
E08000009,Trafford,140376,5,27,60,93,2015-06-28,26
E08000010,Wigan,107528,1,20,53,93,2015-06-28,26
E06000047,County Durham,199215,1,30,95,146,2015-06-28,26
E06000005,Darlington,41159,1,1,1,23,2015-06-28,26
E08000020,Gateshead,183349,1,66,100,169,2015-06-28,26
E06000001,Hartlepool,18374,0,1,1,6,2015-06-28,26
E06000002,Middlesbrough,16579,1,6,10,22,2015-06-28,26
E08000021,Newcastle upon Tyne,169884,1,21,47,82,2015-06-28,26
E08000022,North Tyneside,153466,1,28,65,105,2015-06-28,26
E06000048,Northumberland,154620,1,34,73,108,2015-06-28,26
E06000003,Redcar and Cleveland,49892,1,6,15,24,2015-06-28,26
E08000023,South Tyneside,142308,1,37,64,101,2015-06-28,26
E06000004,Stockton-on-Tees,78194,0,13,18,51,2015-06-28,26
E08000024,Sunderland,247779,1,33,69,131,2015-06-28,26
E08000016,Barnsley,166862,1,18,57,94,2015-06-28,26
E08000032,Bradford,381498,1,63,81,251,2015-06-28,26
E08000033,Calderdale,101282,1,19,40,88,2015-06-28,26
E08000017,Doncaster,177182,1,34,60,114,2015-06-28,26
E06000011,East Riding of Yorkshire,142255,1,21,70,93,2015-06-28,26
E06000010,"Kingston upon Hull, City of",70711,0,1,24,44,2015-06-28,26
E08000034,Kirklees,178050,1,35,61,153,2015-06-28,26
E08000035,Leeds,507671,1,81,174,389,2015-06-28,26
E06000012,North East Lincolnshire,63316,1,13,37,53,2015-06-28,26
E06000013,North Lincolnshire,88846,0,1,19,52,2015-06-28,26
E10000023,North Yorkshire,331958,1,64,145,264,2015-06-28,26
E08000018,Rotherham,115794,1,35,62,135,2015-06-28,26
E08000019,Sheffield,258070,5,21,50,108,2015-06-28,26
E08000036,Wakefield,174151,1,14,44,89,2015-06-28,26
E06000014,York,84629,1,17,39,71,2015-06-28,26
E06000022,Bath and North East Somerset,128246,1,18,32,66,2015-06-28,26
E06000023,"Bristol, City of",415642,8,147,236,396,2015-06-28,26
E10000013,Gloucestershire,203729,5,33,100,151,2015-06-28,26
E06000024,North Somerset,152126,5,27,108,147,2015-06-28,26
E06000025,South Gloucestershire,229488,5,62,152,213,2015-06-28,26
E06000030,Swindon,57916,1,1,7,17,2015-06-28,26
E06000054,Wiltshire,185984,0,1,28,62,2015-06-28,26
E06000052,Cornwall (including Isles of Scilly),81339,1,29,62,90,2015-06-28,26
E10000008,Devon,285036,1,13,95,113,2015-06-28,26
E06000026,Plymouth,71961,5,39,58,88,2015-06-28,26
E10000027,Somerset,414633,7,170,265,422,2015-06-28,26
E06000027,Torbay,54177,1,19,28,49,2015-06-28,26
E06000043,Brighton and Hove,121503,0,29,60,105,2015-06-28,26
E10000011,East Sussex,287129,1,55,145,200,2015-06-28,26
E10000016,Kent,657284,16,138,310,445,2015-06-28,26
E06000035,Medway,79166,1,16,32,49,2015-06-28,26
E10000030,Surrey,885585,14,129,341,494,2015-06-28,26
E10000032,West Sussex,364612,8,74,153,311,2015-06-28,26
E06000036,Bracknell Forest,78835,1,13,23,44,2015-06-28,26
E10000002,Buckinghamshire,427982,6,76,201,322,2015-06-28,26
E10000025,Oxfordshire,478533,13,107,296,434,2015-06-28,26
E06000038,Reading,89806,0,17,36,62,2015-06-28,26
E06000039,Slough,188350,1,33,65,117,2015-06-28,26
E06000037,West Berkshire,89806,0,17,36,62,2015-06-28,26
E06000040,Windsor and Maidenhead,101359,1,17,30,56,2015-06-28,26
E06000041,Wokingham,0,0,0,0,0,2015-06-28,26
E06000028,Bournemouth,123427,1,9,26,70,2015-06-28,26
E10000009,Dorset,228445,0,17,51,77,2015-06-28,26
E10000014,Hampshire,785486,16,134,309,450,2015-06-28,26
E06000046,Isle of Wight,0,0,0,0,0,2015-06-28,26
E06000029,Poole,84961,1,7,20,41,2015-06-28,26
E06000044,Portsmouth,106768,1,17,32,63,2015-06-28,26
E06000045,Southampton,156654,1,22,28,71,2015-06-28,26
