CODE,NAME,TOTAL_POP,Flu_OBS,Vom_OBS,Diarr_OBS,Gastro_OBS,lastdate,week
E09000002,Barking and Dagenham,105355,20,21,22,58,2018-02-25,8
E09000003,Barnet,167270,33,33,63,122,2018-02-25,8
E09000004,Bexley,14342,0,1,7,8,2018-02-25,8
E09000005,Brent,174470,21,48,80,125,2018-02-25,8
E09000006,Bromley,124468,26,1,21,47,2018-02-25,8
E09000007,Camden,86808,26,17,42,55,2018-02-25,8
E09000008,Croydon,73229,13,10,14,30,2018-02-25,8
E09000009,Ealing,41211,5,5,1,21,2018-02-25,8
E09000010,Enfield,153956,18,22,33,84,2018-02-25,8
E09000011,Greenwich,37836,13,12,16,38,2018-02-25,8
E09000012,Hackney (including City of London),162155,50,31,53,107,2018-02-25,8
E09000013,Hammersmith and Fulham,40915,6,1,1,15,2018-02-25,8
E09000014,Haringey,141279,28,20,40,76,2018-02-25,8
E09000015,Harrow,93128,36,23,31,68,2018-02-25,8
E09000016,Havering,48135,5,1,7,16,2018-02-25,8
E09000017,Hillingdon,174513,45,37,51,112,2018-02-25,8
E09000018,Hounslow,108206,10,10,16,65,2018-02-25,8
E09000019,Islington,103122,38,31,39,76,2018-02-25,8
E09000020,Kensington and Chelsea,26654,0,1,5,8,2018-02-25,8
E09000021,Kingston upon Thames,132125,33,27,48,84,2018-02-25,8
E09000022,Lambeth,121894,40,24,54,79,2018-02-25,8
E09000023,Lewisham,145199,32,17,46,74,2018-02-25,8
E09000024,Merton,73086,14,10,33,46,2018-02-25,8
E09000025,Newham,235356,65,45,68,145,2018-02-25,8
E09000026,Redbridge,86675,17,6,12,32,2018-02-25,8
E09000027,Richmond upon Thames,23334,1,1,11,18,2018-02-25,8
E09000028,Southwark,196768,44,25,48,90,2018-02-25,8
E09000029,Sutton,70220,13,10,31,44,2018-02-25,8
E09000030,Tower Hamlets,127783,45,33,54,110,2018-02-25,8
E09000031,Waltham Forest,125544,17,16,28,56,2018-02-25,8
E09000032,Wandsworth,188886,38,28,45,87,2018-02-25,8
E09000033,Westminster,7638,1,0,0,0,2018-02-25,8
E10000003,Cambridgeshire,238425,46,16,55,125,2018-02-25,8
E10000012,Essex,505429,54,29,98,263,2018-02-25,8
E10000020,Norfolk,261076,30,24,87,149,2018-02-25,8
E06000031,Peterborough,101066,11,10,22,86,2018-02-25,8
E06000033,Southend-on-Sea,8571,0,0,1,1,2018-02-25,8
E10000029,Suffolk,205223,17,24,71,152,2018-02-25,8
E06000034,Thurrock,68698,1,1,8,65,2018-02-25,8
E06000055,Bedford,33122,1,1,1,1,2018-02-25,8
E06000056,Central Bedfordshire,119677,6,7,26,145,2018-02-25,8
E10000015,Hertfordshire,341784,69,66,97,218,2018-02-25,8
E06000032,Luton,88889,7,21,14,73,2018-02-25,8
E06000042,Milton Keynes,263201,23,30,50,286,2018-02-25,8
E06000015,Derby,62863,6,5,17,50,2018-02-25,8
E10000007,Derbyshire,197390,42,18,45,100,2018-02-25,8
E06000016,Leicester,177256,16,18,36,167,2018-02-25,8
E10000018,Leicestershire (including Rutland),274557,58,36,100,193,2018-02-25,8
E10000019,Lincolnshire,192078,9,12,34,78,2018-02-25,8
E06000018,Nottingham,89114,15,11,20,64,2018-02-25,8
E10000024,Nottinghamshire,179396,34,14,45,142,2018-02-25,8
E10000021,Northamptonshire,245198,28,22,58,140,2018-02-25,8
E08000025,Birmingham,478255,114,99,122,294,2018-02-25,8
E08000026,Coventry,154304,23,37,63,100,2018-02-25,8
E08000027,Dudley,162043,29,15,34,61,2018-02-25,8
E06000019,"Herefordshire, County of",76586,35,19,40,53,2018-02-25,8
E08000028,Sandwell,99459,15,1,22,62,2018-02-25,8
E06000051,Shropshire,181858,79,26,40,73,2018-02-25,8
E08000029,Solihull,72990,9,15,30,89,2018-02-25,8
E10000028,Staffordshire,477723,147,85,178,289,2018-02-25,8
E06000021,Stoke-on-Trent,146018,40,42,43,99,2018-02-25,8
E06000020,Telford and Wrekin,53941,17,1,9,21,2018-02-25,8
E08000030,Walsall,132953,23,17,24,58,2018-02-25,8
E10000031,Warwickshire,219102,96,44,96,145,2018-02-25,8
E08000031,Wolverhampton,83175,5,11,23,43,2018-02-25,8
E10000034,Worcestershire,214946,79,43,95,150,2018-02-25,8
E06000049,Cheshire East,201862,70,40,85,134,2018-02-25,8
E06000050,Cheshire West and Chester,123946,43,36,67,100,2018-02-25,8
E06000006,Halton,50918,12,10,18,32,2018-02-25,8
E08000011,Knowsley,60224,7,7,10,21,2018-02-25,8
E08000012,Liverpool,283842,72,81,110,215,2018-02-25,8
E08000014,Sefton,177728,56,32,65,112,2018-02-25,8
E08000013,St. Helens,70315,16,14,24,44,2018-02-25,8
E06000007,Warrington,82386,9,7,16,71,2018-02-25,8
E08000015,Wirral,174088,45,44,74,132,2018-02-25,8
E06000008,Blackburn with Darwen,111130,29,28,37,69,2018-02-25,8
E06000009,Blackpool,74062,10,14,20,39,2018-02-25,8
E10000006,Cumbria,294964,112,57,150,209,2018-02-25,8
E10000017,Lancashire,667505,150,131,258,437,2018-02-25,8
E08000001,Bolton,38493,5,1,9,36,2018-02-25,8
E08000002,Bury,0,NA,NA,NA,0,2018-02-25,8
E08000003,Manchester,259487,58,42,70,135,2018-02-25,8
E08000004,Oldham,109300,20,21,37,76,2018-02-25,8
E08000005,Rochdale,134384,28,31,61,100,2018-02-25,8
E08000006,Salford,33138,9,1,16,22,2018-02-25,8
E08000007,Stockport,116570,33,16,39,60,2018-02-25,8
E08000008,Tameside,71747,7,13,22,40,2018-02-25,8
E08000009,Trafford,125243,27,24,36,66,2018-02-25,8
E08000010,Wigan,87353,23,9,23,53,2018-02-25,8
E06000047,County Durham,163432,14,21,55,132,2018-02-25,8
E06000005,Darlington,27136,0,1,6,16,2018-02-25,8
E08000037,Gateshead,149614,41,33,67,109,2018-02-25,8
E06000001,Hartlepool,11147,0,0,1,1,2018-02-25,8
E06000002,Middlesbrough,4325,1,1,1,1,2018-02-25,8
E08000021,Newcastle upon Tyne,148692,9,8,25,73,2018-02-25,8
E08000022,North Tyneside,107523,19,23,29,67,2018-02-25,8
E06000057,Northumberland,85599,21,20,37,68,2018-02-25,8
E06000003,Redcar and Cleveland,33413,1,1,5,16,2018-02-25,8
E08000023,South Tyneside,87016,18,15,25,46,2018-02-25,8
E06000004,Stockton-on-Tees,80552,5,5,11,72,2018-02-25,8
E08000024,Sunderland,149939,18,15,54,78,2018-02-25,8
E08000016,Barnsley,131158,30,22,37,91,2018-02-25,8
E08000032,Bradford,392899,44,23,60,214,2018-02-25,8
E08000033,Calderdale,67590,1,9,17,47,2018-02-25,8
E08000017,Doncaster,115918,19,12,22,53,2018-02-25,8
E06000011,East Riding of Yorkshire,82506,28,14,28,53,2018-02-25,8
E06000010,"Kingston upon Hull, City of",37155,1,1,9,15,2018-02-25,8
E08000034,Kirklees,111462,25,14,23,70,2018-02-25,8
E08000035,Leeds,391068,45,47,105,250,2018-02-25,8
E06000012,North East Lincolnshire,67317,7,16,27,39,2018-02-25,8
E06000013,North Lincolnshire,56067,0,1,8,39,2018-02-25,8
E10000023,North Yorkshire,275928,73,36,98,217,2018-02-25,8
E08000018,Rotherham,79940,26,16,31,66,2018-02-25,8
E08000019,Sheffield,236027,43,18,51,111,2018-02-25,8
E08000036,Wakefield,158405,27,9,26,42,2018-02-25,8
E06000014,York,28450,14,9,19,27,2018-02-25,8
E06000022,Bath and North East Somerset,83410,20,6,18,42,2018-02-25,8
E06000023,"Bristol, City of",249310,95,54,126,175,2018-02-25,8
E10000013,Gloucestershire,102004,21,24,37,86,2018-02-25,8
E06000024,North Somerset,124835,66,23,92,87,2018-02-25,8
E06000025,South Gloucestershire,146764,58,20,72,81,2018-02-25,8
E06000030,Swindon,71294,7,1,13,22,2018-02-25,8
E06000054,Wiltshire,173676,14,6,39,104,2018-02-25,8
E06000052,Cornwall (including Isles of Scilly),43216,18,8,17,25,2018-02-25,8
E10000008,Devon,257523,41,8,71,99,2018-02-25,8
E06000026,Plymouth,30869,1,1,1,14,2018-02-25,8
E10000027,Somerset,237985,96,77,136,210,2018-02-25,8
E06000027,Torbay,62747,30,9,13,21,2018-02-25,8
E06000028,Bournemouth,73432,1,1,7,28,2018-02-25,8
E10000009,Dorset,166030,12,5,26,85,2018-02-25,8
E06000029,Poole,43690,11,1,1,23,2018-02-25,8
E06000043,Brighton and Hove,120237,10,13,31,92,2018-02-25,8
E10000011,East Sussex,186942,38,36,90,122,2018-02-25,8
E10000016,Kent,386913,61,56,122,202,2018-02-25,8
E06000035,Medway,63871,16,9,25,32,2018-02-25,8
E10000030,Surrey,597668,132,83,178,294,2018-02-25,8
E10000032,West Sussex,319575,65,43,104,218,2018-02-25,8
E06000036,Bracknell Forest,41922,1,8,13,28,2018-02-25,8
E10000002,Buckinghamshire,337866,71,73,151,246,2018-02-25,8
E10000025,Oxfordshire,238804,96,51,105,160,2018-02-25,8
E06000038,Reading,61312,14,8,17,26,2018-02-25,8
E06000039,Slough,52403,5,10,16,35,2018-02-25,8
E06000037,West Berkshire,61312,14,8,17,26,2018-02-25,8
E06000040,Windsor and Maidenhead,53900,5,10,17,36,2018-02-25,8
E06000041,Wokingham,61312,14,8,17,26,2018-02-25,8
E10000014,Hampshire,571091,163,100,208,328,2018-02-25,8
E06000046,Isle of Wight,59274,6,1,22,63,2018-02-25,8
E06000044,Portsmouth,159933,1,1,11,57,2018-02-25,8
E06000045,Southampton,111633,22,14,20,53,2018-02-25,8
