CODE,NAME,TOTAL_POP,Flu_OBS,Vom_OBS,Diarr_OBS,Gastro_OBS,lastdate,week
E09000002,Barking and Dagenham,110454,10,21,27,61,2016-05-29,21
E09000003,Barnet,363725,19,80,132,225,2016-05-29,21
E09000004,Bexley,39937,0,10,16,28,2016-05-29,21
E09000005,Brent,372625,33,91,131,235,2016-05-29,21
E09000006,Bromley,337735,8,33,75,123,2016-05-29,21
E09000007,Camden,257236,8,58,115,191,2016-05-29,21
E09000008,Croydon,282823,10,59,107,201,2016-05-29,21
E09000009,Ealing,43178,1,1,5,14,2016-05-29,21
E09000010,Enfield,301132,5,58,77,165,2016-05-29,21
E09000011,Greenwich,67141,1,14,35,48,2016-05-29,21
E09000012,Hackney (including City of London),285025,12,54,104,207,2016-05-29,21
E09000013,Hammersmith and Fulham,32360,0,1,1,1,2016-05-29,21
E09000014,Haringey,263271,13,49,72,144,2016-05-29,21
E09000015,Harrow,252484,15,80,101,212,2016-05-29,21
E09000016,Havering,91763,1,10,26,43,2016-05-29,21
E09000017,Hillingdon,304223,1,77,99,192,2016-05-29,21
E09000018,Hounslow,111768,1,5,23,75,2016-05-29,21
E09000019,Islington,232035,17,59,100,186,2016-05-29,21
E09000020,Kensington and Chelsea,25916,1,0,1,1,2016-05-29,21
E09000021,Kingston upon Thames,167711,1,18,39,65,2016-05-29,21
E09000022,Lambeth,364340,16,64,121,223,2016-05-29,21
E09000023,Lewisham,323609,10,81,124,216,2016-05-29,21
E09000024,Merton,168927,1,28,57,97,2016-05-29,21
E09000025,Newham,375124,20,80,127,279,2016-05-29,21
E09000026,Redbridge,173067,7,23,28,74,2016-05-29,21
E09000027,Richmond upon Thames,36712,1,8,10,16,2016-05-29,21
E09000028,Southwark,290595,17,66,92,182,2016-05-29,21
E09000029,Sutton,162303,1,27,54,94,2016-05-29,21
E09000030,Tower Hamlets,296874,11,89,134,265,2016-05-29,21
E09000031,Waltham Forest,219691,1,35,45,111,2016-05-29,21
E09000032,Wandsworth,395034,16,51,96,185,2016-05-29,21
E09000033,Westminster,15743,0,0,0,0,2016-05-29,21
E10000003,Cambridgeshire,314130,12,55,106,198,2016-05-29,21
E10000012,Essex,703389,1,49,141,267,2016-05-29,21
E10000020,Norfolk,413786,7,45,164,226,2016-05-29,21
E06000031,Peterborough,97702,0,15,23,70,2016-05-29,21
E06000033,Southend-on-Sea,36616,0,6,6,18,2016-05-29,21
E10000029,Suffolk,319139,1,39,120,201,2016-05-29,21
E06000034,Thurrock,69494,0,1,8,43,2016-05-29,21
E06000055,Bedford,32895,0,1,6,22,2016-05-29,21
E06000056,Central Bedfordshire,116219,0,9,26,86,2016-05-29,21
E10000015,Hertfordshire,630501,14,91,206,345,2016-05-29,21
E06000032,Luton,87378,0,12,23,52,2016-05-29,21
E06000042,Milton Keynes,256084,0,27,42,216,2016-05-29,21
E06000015,Derby,72497,0,10,40,94,2016-05-29,21
E10000007,Derbyshire,306063,11,40,95,188,2016-05-29,21
E06000016,Leicester,174702,1,13,21,120,2016-05-29,21
E10000018,Leicestershire (including Rutland),452605,9,76,225,330,2016-05-29,21
E10000019,Lincolnshire,320300,7,45,92,185,2016-05-29,21
E06000018,Nottingham,181646,1,29,55,114,2016-05-29,21
E10000024,Nottinghamshire,224943,1,28,50,143,2016-05-29,21
E10000021,Northamptonshire,343592,12,51,102,200,2016-05-29,21
E08000025,Birmingham,789919,40,203,308,608,2016-05-29,21
E08000026,Coventry,258128,9,39,64,141,2016-05-29,21
E08000027,Dudley,290962,6,43,107,163,2016-05-29,21
E06000019,"Herefordshire, County of",178748,9,41,116,146,2016-05-29,21
E08000028,Sandwell,127816,1,17,43,84,2016-05-29,21
E06000051,Shropshire,259248,11,40,105,153,2016-05-29,21
E08000029,Solihull,102436,1,15,36,87,2016-05-29,21
E10000028,Staffordshire,723243,24,155,297,435,2016-05-29,21
E06000021,Stoke-on-Trent,226567,8,57,64,155,2016-05-29,21
E06000020,Telford and Wrekin,154155,1,24,52,82,2016-05-29,21
E08000030,Walsall,261268,1,39,57,115,2016-05-29,21
E10000031,Warwickshire,421820,17,80,200,281,2016-05-29,21
E08000031,Wolverhampton,236550,9,21,54,107,2016-05-29,21
E10000034,Worcestershire,557296,17,93,223,314,2016-05-29,21
E06000049,Cheshire East,464837,12,119,234,375,2016-05-29,21
E06000050,Cheshire West and Chester,261876,10,71,167,236,2016-05-29,21
E06000006,Halton,122165,5,30,43,78,2016-05-29,21
E08000011,Knowsley,155370,1,23,46,77,2016-05-29,21
E08000012,Liverpool,442422,15,154,216,379,2016-05-29,21
E08000014,Sefton,261599,5,45,115,182,2016-05-29,21
E08000013,St. Helens,168704,8,42,59,107,2016-05-29,21
E06000007,Warrington,108415,1,21,44,121,2016-05-29,21
E08000015,Wirral,321899,19,85,158,258,2016-05-29,21
E06000008,Blackburn with Darwen,167886,1,50,67,129,2016-05-29,21
E06000009,Blackpool,151895,1,22,46,71,2016-05-29,21
E10000006,Cumbria,456926,13,92,220,318,2016-05-29,21
E10000017,Lancashire,1179688,32,217,459,805,2016-05-29,21
E08000001,Bolton,71689,1,14,22,52,2016-05-29,21
E08000002,Bury,0,NA,NA,NA,0,2016-05-29,21
E08000003,Manchester,562459,6,149,223,415,2016-05-29,21
E08000004,Oldham,231486,26,73,94,205,2016-05-29,21
E08000005,Rochdale,213823,1,55,84,161,2016-05-29,21
E08000006,Salford,54362,0,12,18,32,2016-05-29,21
E08000007,Stockport,245601,9,44,81,133,2016-05-29,21
E08000008,Tameside,202800,1,38,69,114,2016-05-29,21
E08000009,Trafford,222489,6,37,93,144,2016-05-29,21
E08000010,Wigan,149981,1,31,64,107,2016-05-29,21
E06000047,County Durham,213949,1,45,108,179,2016-05-29,21
E06000005,Darlington,26875,0,1,8,21,2016-05-29,21
E08000037,Gateshead,208510,13,51,98,154,2016-05-29,21
E06000001,Hartlepool,15251,0,1,6,9,2016-05-29,21
E06000002,Middlesbrough,15855,0,5,6,11,2016-05-29,21
E08000021,Newcastle upon Tyne,208112,1,18,40,74,2016-05-29,21
E08000022,North Tyneside,163901,6,23,54,91,2016-05-29,21
E06000057,Northumberland,203771,1,29,66,107,2016-05-29,21
E06000003,Redcar and Cleveland,48691,1,5,10,35,2016-05-29,21
E08000023,South Tyneside,159166,6,33,83,112,2016-05-29,21
E06000004,Stockton-on-Tees,79426,0,9,25,43,2016-05-29,21
E08000024,Sunderland,274625,5,37,73,124,2016-05-29,21
E08000016,Barnsley,180897,8,23,39,104,2016-05-29,21
E08000032,Bradford,387577,1,38,69,259,2016-05-29,21
E08000033,Calderdale,90275,1,16,34,84,2016-05-29,21
E08000017,Doncaster,185402,1,45,62,116,2016-05-29,21
E06000011,East Riding of Yorkshire,162812,1,42,69,109,2016-05-29,21
E06000010,"Kingston upon Hull, City of",65038,0,11,20,48,2016-05-29,21
E08000034,Kirklees,182241,1,23,52,116,2016-05-29,21
E08000035,Leeds,541247,12,93,197,398,2016-05-29,21
E06000012,North East Lincolnshire,74959,1,13,38,61,2016-05-29,21
E06000013,North Lincolnshire,85241,1,6,16,47,2016-05-29,21
E10000023,North Yorkshire,349988,17,65,117,243,2016-05-29,21
E08000018,Rotherham,108436,1,27,44,87,2016-05-29,21
E08000019,Sheffield,283067,1,28,72,141,2016-05-29,21
E08000036,Wakefield,158504,7,8,33,80,2016-05-29,21
E06000014,York,60486,1,17,30,48,2016-05-29,21
E06000022,Bath and North East Somerset,122661,1,12,34,58,2016-05-29,21
E06000023,"Bristol, City of",480866,28,135,276,402,2016-05-29,21
E10000013,Gloucestershire,216859,7,35,96,147,2016-05-29,21
E06000024,North Somerset,210345,13,52,155,205,2016-05-29,21
E06000025,South Gloucestershire,242182,9,54,155,183,2016-05-29,21
E06000030,Swindon,73526,1,1,11,20,2016-05-29,21
E06000054,Wiltshire,196225,0,14,32,80,2016-05-29,21
E06000052,Cornwall (including Isles of Scilly),103991,0,31,45,83,2016-05-29,21
E10000008,Devon,326027,8,22,85,127,2016-05-29,21
E06000026,Plymouth,104065,9,32,37,79,2016-05-29,21
E10000027,Somerset,522039,24,148,305,476,2016-05-29,21
E06000027,Torbay,90464,1,17,36,45,2016-05-29,21
E06000028,Bournemouth,150661,1,7,43,69,2016-05-29,21
E10000009,Dorset,232326,1,21,47,81,2016-05-29,21
E06000029,Poole,106298,1,1,28,49,2016-05-29,21
E06000043,Brighton and Hove,146809,1,27,48,89,2016-05-29,21
E10000011,East Sussex,351866,12,66,136,195,2016-05-29,21
E10000016,Kent,803342,18,155,341,522,2016-05-29,21
E06000035,Medway,94386,1,25,53,74,2016-05-29,21
E10000030,Surrey,1039263,26,142,344,559,2016-05-29,21
E10000032,West Sussex,445842,14,47,166,280,2016-05-29,21
E06000036,Bracknell Forest,103810,1,18,32,55,2016-05-29,21
E10000002,Buckinghamshire,499361,9,84,210,355,2016-05-29,21
E10000025,Oxfordshire,631791,18,113,275,425,2016-05-29,21
E06000038,Reading,107841,1,17,35,56,2016-05-29,21
E06000039,Slough,129763,1,22,40,69,2016-05-29,21
E06000037,West Berkshire,107841,1,17,35,56,2016-05-29,21
E06000040,Windsor and Maidenhead,133470,1,23,41,71,2016-05-29,21
E06000041,Wokingham,107841,1,17,35,56,2016-05-29,21
E10000014,Hampshire,1120161,38,184,435,655,2016-05-29,21
E06000046,Isle of Wight,0,NA,NA,NA,NA,2016-05-29,21
E06000044,Portsmouth,59457,0,8,14,34,2016-05-29,21
E06000045,Southampton,185494,1,20,38,97,2016-05-29,21
