CODE,NAME,TOTAL_POP,Flu_OBS,Vom_OBS,Diarr_OBS,Gastro_OBS,lastdate,week
E09000002,Barking and Dagenham,205388,1,14,23,34,2021-01-31,4
E09000003,Barnet,397983,15,37,78,111,2021-01-31,4
E09000004,Bexley,205091,1,5,28,33,2021-01-31,4
E09000005,Brent,395822,20,34,65,89,2021-01-31,4
E09000006,Bromley,322747,1,19,43,68,2021-01-31,4
E09000007,Camden,276180,8,23,66,73,2021-01-31,4
E09000008,Croydon,366153,5,13,56,77,2021-01-31,4
E09000009,Ealing,36359,0,0,1,15,2021-01-31,4
E09000010,Enfield,297818,7,23,47,72,2021-01-31,4
E09000011,Greenwich,123574,1,11,16,27,2021-01-31,4
E09000012,Hackney (including City of London),315738,13,35,80,123,2021-01-31,4
E09000013,Hammersmith and Fulham,44197,0,1,5,24,2021-01-31,4
E09000014,Haringey,300491,18,25,50,71,2021-01-31,4
E09000015,Harrow,260675,8,16,53,78,2021-01-31,4
E09000016,Havering,257217,1,14,24,49,2021-01-31,4
E09000017,Hillingdon,309925,16,31,62,92,2021-01-31,4
E09000018,Hounslow,111920,0,1,1,36,2021-01-31,4
E09000019,Islington,254656,9,31,63,100,2021-01-31,4
E09000020,Kensington and Chelsea,29288,7,0,1,1,2021-01-31,4
E09000021,Kingston upon Thames,196626,1,13,43,56,2021-01-31,4
E09000022,Lambeth,386004,10,25,56,90,2021-01-31,4
E09000023,Lewisham,307935,9,23,54,77,2021-01-31,4
E09000024,Merton,193198,1,11,37,49,2021-01-31,4
E09000025,Newham,384494,23,43,72,126,2021-01-31,4
E09000026,Redbridge,300900,6,19,27,54,2021-01-31,4
E09000027,Richmond upon Thames,162321,1,13,18,27,2021-01-31,4
E09000028,Southwark,299995,8,25,56,82,2021-01-31,4
E09000029,Sutton,185621,1,10,35,48,2021-01-31,4
E09000030,Tower Hamlets,327540,13,37,88,144,2021-01-31,4
E09000031,Waltham Forest,251817,1,9,28,37,2021-01-31,4
E09000032,Wandsworth,374229,5,31,66,97,2021-01-31,4
E09000033,Westminster,2614,0,0,0,1,2021-01-31,4
E10000003,Cambridgeshire,286778,1,14,59,72,2021-01-31,4
E10000012,Essex,596821,1,21,88,101,2021-01-31,4
E10000020,Norfolk,337753,1,16,123,97,2021-01-31,4
E06000031,Peterborough,129973,0,7,6,41,2021-01-31,4
E06000033,Southend-on-Sea,2738,0,0,1,1,2021-01-31,4
E10000029,Suffolk,232320,1,15,46,55,2021-01-31,4
E06000034,Thurrock,71748,0,0,1,11,2021-01-31,4
E06000055,Bedford,37404,0,0,6,1,2021-01-31,4
E06000056,Central Bedfordshire,146234,0,1,22,57,2021-01-31,4
E10000015,Hertfordshire,748044,10,58,137,198,2021-01-31,4
E06000032,Luton,120930,1,1,6,23,2021-01-31,4
E06000042,Milton Keynes,272550,6,6,21,45,2021-01-31,4
E06000015,Derby,67398,0,1,29,53,2021-01-31,4
E10000007,Derbyshire,278909,1,33,60,111,2021-01-31,4
E06000016,Leicester,179962,1,10,14,46,2021-01-31,4
E10000018,Leicestershire (including Rutland),244295,0,10,20,36,2021-01-31,4
E10000019,Lincolnshire,277160,0,17,56,73,2021-01-31,4
E06000018,Nottingham,183586,1,14,26,44,2021-01-31,4
E10000024,Nottinghamshire,179476,1,1,48,62,2021-01-31,4
E10000021,Northamptonshire,314357,1,19,55,93,2021-01-31,4
E08000025,Birmingham,817682,7,70,145,228,2021-01-31,4
E08000026,Coventry,365546,5,28,60,88,2021-01-31,4
E08000027,Dudley,305545,1,20,49,64,2021-01-31,4
E06000019,"Herefordshire, County of",177397,1,23,65,80,2021-01-31,4
E08000028,Sandwell,140807,1,6,15,24,2021-01-31,4
E06000051,Shropshire,289712,6,45,91,122,2021-01-31,4
E08000029,Solihull,109486,1,12,23,42,2021-01-31,4
E10000028,Staffordshire,753293,13,98,190,276,2021-01-31,4
E06000021,Stoke-on-Trent,267076,7,45,78,123,2021-01-31,4
E06000020,Telford and Wrekin,178809,1,17,34,51,2021-01-31,4
E08000030,Walsall,258295,1,16,44,56,2021-01-31,4
E10000031,Warwickshire,526527,13,67,126,194,2021-01-31,4
E08000031,Wolverhampton,256483,1,15,38,54,2021-01-31,4
E10000034,Worcestershire,557203,13,56,166,166,2021-01-31,4
E06000049,Cheshire East,473734,18,76,175,228,2021-01-31,4
E06000050,Cheshire West and Chester,245050,8,46,100,131,2021-01-31,4
E06000006,Halton,127247,5,21,37,55,2021-01-31,4
E08000011,Knowsley,152518,1,27,39,65,2021-01-31,4
E08000012,Liverpool,509306,17,84,142,233,2021-01-31,4
E08000014,Sefton,258469,6,29,80,98,2021-01-31,4
E08000013,St. Helens,175723,6,28,52,76,2021-01-31,4
E06000007,Warrington,134434,5,10,32,57,2021-01-31,4
E08000015,Wirral,307683,15,61,143,209,2021-01-31,4
E06000008,Blackburn with Darwen,157397,18,24,33,67,2021-01-31,4
E06000009,Blackpool,137969,7,23,26,57,2021-01-31,4
E10000006,Cumbria,474914,11,55,146,181,2021-01-31,4
E10000017,Lancashire,1154631,21,143,295,426,2021-01-31,4
E08000001,Bolton,188814,1,13,29,47,2021-01-31,4
E08000002,Bury,0,0,0,0,0,2021-01-31,4
E08000003,Manchester,616093,12,85,152,241,2021-01-31,4
E08000004,Oldham,242298,1,24,59,94,2021-01-31,4
E08000005,Rochdale,211748,1,21,48,65,2021-01-31,4
E08000006,Salford,170180,1,20,29,52,2021-01-31,4
E08000007,Stockport,291915,1,15,68,89,2021-01-31,4
E08000008,Tameside,224105,1,29,65,85,2021-01-31,4
E08000009,Trafford,218607,1,12,46,61,2021-01-31,4
E08000010,Wigan,213515,6,29,75,106,2021-01-31,4
E06000047,County Durham,175573,1,27,39,83,2021-01-31,4
E06000005,Darlington,26781,0,1,9,12,2021-01-31,4
E08000037,Gateshead,194819,1,44,91,116,2021-01-31,4
E06000001,Hartlepool,9873,0,0,0,0,2021-01-31,4
E06000002,Middlesbrough,26814,0,1,16,19,2021-01-31,4
E08000021,Newcastle upon Tyne,224817,1,9,49,52,2021-01-31,4
E08000022,North Tyneside,140550,1,12,33,41,2021-01-31,4
E06000057,Northumberland,85535,1,6,23,33,2021-01-31,4
E06000003,Redcar and Cleveland,56915,0,1,18,22,2021-01-31,4
E08000023,South Tyneside,153898,1,15,34,46,2021-01-31,4
E06000004,Stockton-on-Tees,79158,1,1,9,17,2021-01-31,4
E08000024,Sunderland,267958,1,31,71,84,2021-01-31,4
E08000016,Barnsley,178983,1,21,27,37,2021-01-31,4
E08000032,Bradford,406566,1,15,35,86,2021-01-31,4
E08000033,Calderdale,91228,1,1,9,23,2021-01-31,4
E08000017,Doncaster,192005,1,14,50,56,2021-01-31,4
E06000011,East Riding of Yorkshire,149226,0,14,76,59,2021-01-31,4
E06000010,"Kingston upon Hull, City of",43675,0,1,13,17,2021-01-31,4
E08000034,Kirklees,156560,1,1,31,38,2021-01-31,4
E08000035,Leeds,475228,5,24,84,122,2021-01-31,4
E06000012,North East Lincolnshire,65302,1,9,16,27,2021-01-31,4
E06000013,North Lincolnshire,74953,0,0,15,19,2021-01-31,4
E10000023,North Yorkshire,395089,8,37,77,127,2021-01-31,4
E08000018,Rotherham,80718,0,5,20,24,2021-01-31,4
E08000019,Sheffield,267755,1,10,41,62,2021-01-31,4
E08000036,Wakefield,163930,1,8,20,35,2021-01-31,4
E06000014,York,51886,1,10,15,23,2021-01-31,4
E06000022,Bath and North East Somerset,82360,0,1,6,23,2021-01-31,4
E06000023,"Bristol, City of",510990,15,88,219,225,2021-01-31,4
E10000013,Gloucestershire,195106,11,12,34,36,2021-01-31,4
E06000024,North Somerset,209768,1,32,125,105,2021-01-31,4
E06000025,South Gloucestershire,247027,1,36,100,93,2021-01-31,4
E06000030,Swindon,49095,0,1,1,6,2021-01-31,4
E06000054,Wiltshire,194326,1,1,23,45,2021-01-31,4
E06000052,Cornwall (including Isles of Scilly),265900,1,25,55,72,2021-01-31,4
E10000008,Devon,368253,1,24,87,99,2021-01-31,4
E06000026,Plymouth,73343,0,5,11,16,2021-01-31,4
E10000027,Somerset,542142,19,109,228,312,2021-01-31,4
E06000027,Torbay,141118,5,13,45,43,2021-01-31,4
E06000028,Bournemouth,82782,0,1,5,20,2021-01-31,4
E10000009,Dorset,173091,0,1,16,38,2021-01-31,4
E06000029,Poole,42842,0,0,1,23,2021-01-31,4
E06000043,Brighton and Hove,172540,0,12,36,63,2021-01-31,4
E10000011,East Sussex,457710,14,56,217,170,2021-01-31,4
E10000016,Kent,1368158,48,139,287,403,2021-01-31,4
E06000035,Medway,273122,1,21,50,70,2021-01-31,4
E10000030,Surrey,1109999,18,79,265,324,2021-01-31,4
E10000032,West Sussex,405607,24,26,98,132,2021-01-31,4
E06000036,Bracknell Forest,114119,1,7,17,25,2021-01-31,4
E10000002,Buckinghamshire,524621,8,59,135,179,2021-01-31,4
E10000025,Oxfordshire,699183,26,86,233,292,2021-01-31,4
E06000038,Reading,162236,1,14,45,52,2021-01-31,4
E06000039,Slough,142649,1,9,21,32,2021-01-31,4
E06000037,West Berkshire,162236,1,14,45,52,2021-01-31,4
E06000040,Windsor and Maidenhead,146725,1,9,22,33,2021-01-31,4
E06000041,Wokingham,162236,1,14,45,52,2021-01-31,4
E10000014,Hampshire,1193947,48,130,278,389,2021-01-31,4
E06000046,Isle of Wight,92057,0,1,0,16,2021-01-31,4
E06000044,Portsmouth,181168,0,1,7,24,2021-01-31,4
E06000045,Southampton,215232,11,13,28,45,2021-01-31,4
